projeto01/simulation/qsim/projeto01.msim.vcd
$comment
	File created using the following command:
		vcd file projeto01.msim.vcd -direction
$end
$date
	Sat Aug 10 17:36:18 2024
$end
$version
	ModelSim Version 10.5b
$end
$timescale
	1ps
$end

$scope module DisplayControlUnit_vlg_vec_tst $end
$var reg 1 ! clock500Hz $end
$var reg 8 " phrase [7:0] $end
$var reg 1 # reset $end
$var wire 1 $ DB [7] $end
$var wire 1 % DB [6] $end
$var wire 1 & DB [5] $end
$var wire 1 ' DB [4] $end
$var wire 1 ( DB [3] $end
$var wire 1 ) DB [2] $end
$var wire 1 * DB [1] $end
$var wire 1 + DB [0] $end
$var wire 1 , E $end
$var wire 1 - RS $end
$var wire 1 . RW $end
$var wire 1 / char_index [4] $end
$var wire 1 0 char_index [3] $end
$var wire 1 1 char_index [2] $end
$var wire 1 2 char_index [1] $end
$var wire 1 3 char_index [0] $end

$scope module i1 $end
$var wire 1 4 gnd $end
$var wire 1 5 vcc $end
$var wire 1 6 unknown $end
$var tri1 1 7 devclrn $end
$var tri1 1 8 devpor $end
$var tri1 1 9 devoe $end
$var wire 1 : char_index[0]~output_o $end
$var wire 1 ; char_index[1]~output_o $end
$var wire 1 < char_index[2]~output_o $end
$var wire 1 = char_index[3]~output_o $end
$var wire 1 > char_index[4]~output_o $end
$var wire 1 ? RS~output_o $end
$var wire 1 @ RW~output_o $end
$var wire 1 A E~output_o $end
$var wire 1 B DB[0]~output_o $end
$var wire 1 C DB[1]~output_o $end
$var wire 1 D DB[2]~output_o $end
$var wire 1 E DB[3]~output_o $end
$var wire 1 F DB[4]~output_o $end
$var wire 1 G DB[5]~output_o $end
$var wire 1 H DB[6]~output_o $end
$var wire 1 I DB[7]~output_o $end
$var wire 1 J clock500Hz~input_o $end
$var wire 1 K clock500Hz~inputclkctrl_outclk $end
$var wire 1 L Add0~1 $end
$var wire 1 M Add0~2_combout $end
$var wire 1 N char_index[1]~1_combout $end
$var wire 1 O reset~input_o $end
$var wire 1 P char_index[1]~reg0_q $end
$var wire 1 Q Add0~3 $end
$var wire 1 R Add0~5 $end
$var wire 1 S Add0~6_combout $end
$var wire 1 T char_index[3]~3_combout $end
$var wire 1 U char_index[3]~reg0_q $end
$var wire 1 V Add0~7 $end
$var wire 1 W Add0~8_combout $end
$var wire 1 X char_index[4]~4_combout $end
$var wire 1 Y char_index[4]~reg0_q $end
$var wire 1 Z PresentState.WriteChar~q $end
$var wire 1 [ NextState.ReturnHome~0_combout $end
$var wire 1 \ Add0~4_combout $end
$var wire 1 ] char_index[2]~2_combout $end
$var wire 1 ^ char_index[2]~reg0_q $end
$var wire 1 _ Equal0~0_combout $end
$var wire 1 ` PresentState.ReturnHome~q $end
$var wire 1 a PresentState.FS1~feeder_combout $end
$var wire 1 b PresentState.FS1~q $end
$var wire 1 c PresentState.FS2~0_combout $end
$var wire 1 d PresentState.FS2~q $end
$var wire 1 e PresentState.FS3~feeder_combout $end
$var wire 1 f PresentState.FS3~q $end
$var wire 1 g PresentState.FS4~q $end
$var wire 1 h PresentState.ClearDisplay~q $end
$var wire 1 i PresentState.DisplayControl~q $end
$var wire 1 j PresentState.EntryMode~q $end
$var wire 1 k NextState.SetAddress~0_combout $end
$var wire 1 l PresentState.SetAddress~q $end
$var wire 1 m Selector8~0_combout $end
$var wire 1 n Selector8~1_combout $end
$var wire 1 o Add0~0_combout $end
$var wire 1 p char_index[0]~0_combout $end
$var wire 1 q char_index[0]~reg0_q $end
$var wire 1 r phrase[0]~input_o $end
$var wire 1 s Selector7~0_combout $end
$var wire 1 t phrase[1]~input_o $end
$var wire 1 u Selector6~0_combout $end
$var wire 1 v phrase[2]~input_o $end
$var wire 1 w Selector5~0_combout $end
$var wire 1 x phrase[3]~input_o $end
$var wire 1 y Selector4~0_combout $end
$var wire 1 z Selector4~1_combout $end
$var wire 1 { phrase[4]~input_o $end
$var wire 1 | Selector3~0_combout $end
$var wire 1 } phrase[5]~input_o $end
$var wire 1 ~ Selector2~0_combout $end
$var wire 1 !! phrase[6]~input_o $end
$var wire 1 "! Selector1~0_combout $end
$var wire 1 #! phrase[7]~input_o $end
$var wire 1 $! Selector0~0_combout $end
$upscope $end
$upscope $end
$enddefinitions $end
#0
$dumpvars
0!
b101 "
1#
0+
0*
0)
1(
1'
1&
0%
0$
0,
0-
0.
03
02
01
00
0/
04
15
x6
17
18
19
0:
0;
0<
0=
0>
0?
0@
0A
0B
0C
0D
1E
1F
1G
0H
0I
0J
0K
0L
0M
0N
1O
0P
1Q
0R
0S
0T
0U
1V
0W
0X
0Y
0Z
0[
0\
0]
0^
0_
0`
1a
0b
1c
0d
0e
0f
0g
0h
0i
0j
0k
0l
0m
0n
1o
0p
0q
1r
0s
0t
0u
1v
0w
0x
0y
1z
0{
1|
0}
1~
0!!
0"!
0#!
0$!
$end
#10000
1!
1J
1K
1A
1,
#20000
b111 "
b110 "
0#
0!
0r
1t
0O
0J
0K
0A
0,
#30000
1!
1J
1K
1A
1,
1d
1b
1e
0c
#40000
b111 "
0!
1r
0J
0K
0A
0,
#50000
1!
1J
1K
1A
1,
1f
0d
0e
#60000
b1111 "
b1011 "
b1001 "
b1000 "
0!
0r
0t
0v
1x
0J
0K
0A
0,
#70000
1!
1J
1K
1A
1,
1g
0f
#80000
b1001 "
0!
1r
0J
0K
0A
0,
#90000
1!
1J
1K
1A
1,
1h
0g
1y
1s
1B
1+
0~
0|
0z
0E
0F
0G
0&
0'
0(
#100000
b1011 "
b1010 "
0!
0r
1t
0J
0K
0A
0,
#110000
1!
1J
1K
1A
1,
1i
0h
1z
1w
0s
0B
1D
1E
1(
1)
0+
#120000
b1011 "
0!
1r
0J
0K
0A
0,
#130000
1!
1J
1K
1A
1,
1j
0i
1m
1u
0z
0E
1C
1*
0(
1n
1p
#140000
b1111 "
b1101 "
b1100 "
0!
0r
0t
1v
0J
0K
0A
0,
#150000
1!
1J
1K
1A
1,
0j
1q
1Z
1?
1:
0m
1L
0o
13
1-
0u
1z
1E
0C
1M
0*
1(
0p
1N
#160000
b1101 "
0!
1r
0J
0K
0A
0,
1s
1B
1+
#170000
1!
1J
1K
1A
1,
0q
1P
1;
0:
0L
1o
0Q
0M
03
12
1Q
1M
1\
1p
0N
0\
1N
1]
0]
#180000
b1111 "
b1110 "
0!
0r
1t
0J
0K
0A
0,
0s
1u
1C
0B
0+
1*
#190000
1!
1J
1K
1A
1,
1q
1:
1L
0o
13
0Q
0M
0p
1\
0N
1]
#200000
b1111 "
0!
1r
0J
0K
0A
0,
1s
1B
1+
#210000
1!
1J
1K
1A
1,
0q
1^
0P
0;
1<
0:
0L
1o
1R
0\
1Q
1M
03
11
02
0M
1S
0R
1\
1p
0]
1N
0S
0N
1T
1]
0T
#220000
b11111 "
b10111 "
b10011 "
b10001 "
b10000 "
0!
0r
0t
0v
0x
1{
0J
0K
0A
0,
0s
0u
0w
0z
1|
1F
0E
0D
0C
0B
0+
0*
0)
0(
1'
#230000
1!
1J
1K
1A
1,
1q
1:
1L
0o
13
1M
0p
1N
#240000
b10001 "
0!
1r
0J
0K
0A
0,
1s
1B
1+
#250000
1!
1J
1K
1A
1,
0q
1P
1;
0:
0L
1o
0Q
0M
03
12
1Q
1M
1R
0\
1p
0N
0R
1\
1S
1N
0]
0S
1]
1T
0T
#260000
b10011 "
b10010 "
0!
0r
1t
0J
0K
0A
0,
0s
1u
1C
0B
0+
1*
#270000
1!
1J
1K
1A
1,
1q
1:
1L
0o
13
0Q
0M
0p
1R
0\
0N
1S
0]
1T
#280000
b10011 "
0!
1r
0J
0K
0A
0,
1s
1B
1+
#290000
1!
1J
1K
1A
1,
0q
0^
1U
0P
0;
1=
0<
0:
0L
1o
0R
1\
0V
0S
1Q
1M
03
01
10
02
0M
1V
1S
1W
0\
1p
1]
0T
1N
0W
0N
1T
1X
0]
0X
#300000
b10111 "
b10101 "
b10100 "
0!
0r
0t
1v
0J
0K
0A
0,
0s
0u
1w
1D
0C
0B
0+
0*
1)
#310000
1!
1J
1K
1A
1,
1q
1:
1L
0o
13
1M
0p
1N
#320000
b10101 "
0!
1r
0J
0K
0A
0,
1s
1B
1+
#330000
1!
1J
1K
1A
1,
0q
1P
1;
0:
0L
1o
0Q
0M
03
12
1Q
1M
1\
1p
0N
0\
1N
1]
0]
#340000
b10111 "
b10110 "
0!
0r
1t
0J
0K
0A
0,
0s
1u
1C
0B
0+
1*
#350000
1!
1J
1K
1A
1,
1q
1:
1L
0o
13
0Q
0M
0p
1\
0N
1]
#360000
b10111 "
0!
1r
0J
0K
0A
0,
1s
1B
1+
#370000
1!
1J
1K
1A
1,
0q
1^
0P
0;
1<
0:
0L
1o
1R
0\
1Q
1M
03
11
02
0M
0V
0S
0R
1\
1p
0]
1N
1W
1V
1S
0N
0T
1]
0W
1X
1T
0X
#380000
b11111 "
b11011 "
b11001 "
b11000 "
0!
0r
0t
0v
1x
0J
0K
0A
0,
0s
0u
0w
1z
1E
0D
0C
0B
0+
0*
0)
1(
#390000
1!
1J
1K
1A
1,
1q
1:
1L
0o
13
1M
0p
1N
#400000
b11001 "
0!
1r
0J
0K
0A
0,
1s
1B
1+
#410000
1!
1J
1K
1A
1,
0q
1P
1;
0:
0L
1o
0Q
0M
03
12
1Q
1M
1R
0\
1p
0N
0R
1\
0V
0S
1N
0]
1V
1S
1W
1]
0T
0W
1T
1X
0X
#420000
b11011 "
b11010 "
0!
0r
1t
0J
0K
0A
0,
0s
1u
1C
0B
0+
1*
#430000
1!
1J
1K
1A
1,
1q
1:
1_
1L
0o
13
0Q
0M
0n
1k
0p
1R
0\
1p
0V
0S
1W
#440000
b11011 "
0!
1r
0J
0K
0A
0,
1s
1B
1+
#450000
1!
1J
1K
1A
1,
1l
0Z
0?
1m
0-
1$!
1"!
0|
0z
0u
0s
0k
0B
0C
0E
0F
1H
1I
1$
1%
0'
0(
0*
0+
1n
0p
0]
1X
0T
0N
#460000
b11111 "
b11101 "
b11100 "
0!
0r
0t
1v
0J
0K
0A
0,
#470000
1!
1J
1K
1A
1,
0l
0q
0^
1Z
1Y
0U
0P
0;
0=
1>
1?
0<
0:
0m
0_
0L
1o
0R
1\
1[
0W
1V
1S
1Q
1M
03
01
1-
1/
00
02
0$!
0"!
1|
1z
1w
1D
1E
1F
0H
0I
0[
0M
0S
1W
0\
0$
0%
1'
1(
1)
1p
#480000
b11101 "
0!
1r
0J
0K
0A
0,
1s
1B
1+
#490000
1!
1J
1K
1A
1,
1q
1:
1L
0o
13
1M
0p
1N
#500000
b11111 "
b11110 "
0!
0r
1t
0J
0K
0A
0,
0s
1u
1C
0B
0+
1*
#510000
1!
1J
1K
1A
1,
0q
1P
1;
0:
0L
1o
0Q
0M
03
12
1Q
1M
1\
1p
0N
0\
1N
1]
0]
#520000
b11111 "
0!
1r
0J
0K
0A
0,
1s
1B
1+
#530000
1!
1J
1K
1A
1,
1q
1:
1L
0o
13
0Q
0M
0p
1\
0N
1]
#540000
b111111 "
b101111 "
b100111 "
b100011 "
b100001 "
b100000 "
0!
0r
0t
0v
0x
0{
1}
0J
0K
0A
0,
0s
0u
0w
0z
0|
1~
1G
0F
0E
0D
0C
0B
0+
0*
0)
0(
0'
1&
#550000
1!
1J
1K
1A
1,
0q
1^
0P
0;
1<
0:
0L
1o
1R
0\
1Q
1M
03
11
02
0M
1S
0R
1\
1p
0]
1N
0S
0N
1T
1]
0T
#560000
b100001 "
0!
1r
0J
0K
0A
0,
1s
1B
1+
#570000
1!
1J
1K
1A
1,
1q
1:
1L
0o
13
1M
0p
1N
#580000
b100011 "
b100010 "
0!
0r
1t
0J
0K
0A
0,
0s
1u
1C
0B
0+
1*
#590000
1!
1J
1K
1A
1,
0q
1P
1;
0:
0L
1o
0Q
0M
03
12
1Q
1M
1R
0\
1p
0N
0R
1\
1S
1N
0]
0S
1]
1T
0T
#600000
b100011 "
0!
1r
0J
0K
0A
0,
1s
1B
1+
#610000
1!
1J
1K
1A
1,
1q
1:
1L
0o
13
0Q
0M
0p
1R
0\
0N
1S
0]
1T
#620000
b100111 "
b100101 "
b100100 "
0!
0r
0t
1v
0J
0K
0A
0,
0s
0u
1w
1D
0C
0B
0+
0*
1)
#630000
1!
1J
1K
1A
1,
0q
0^
1U
0P
0;
1=
0<
0:
0L
1o
0R
1\
0V
0S
1Q
1M
03
01
10
02
0M
1V
1S
0W
0\
1p
1]
0T
1N
1W
0N
1T
0X
0]
1X
#640000
b100101 "
0!
1r
0J
0K
0A
0,
1s
1B
1+
#650000
1!
1J
1K
1A
1,
1q
1:
1L
0o
13
1M
0p
1N
#660000
b100111 "
b100110 "
0!
0r
1t
0J
0K
0A
0,
0s
1u
1C
0B
0+
1*
#670000
1!
1J
1K
1A
1,
0q
1P
1;
0:
0L
1o
0Q
0M
03
12
1Q
1M
1\
1p
0N
0\
1N
1]
0]
#680000
b100111 "
0!
1r
0J
0K
0A
0,
1s
1B
1+
#690000
1!
1J
1K
1A
1,
1q
1:
1L
0o
13
0Q
0M
0p
1\
0N
1]
#700000
b101111 "
b101011 "
b101001 "
b101000 "
0!
0r
0t
0v
1x
0J
0K
0A
0,
0s
0u
0w
1z
1E
0D
0C
0B
0+
0*
0)
1(
#710000
1!
1J
1K
1A
1,
0q
1^
0P
0;
1<
0:
0L
1o
1R
0\
1Q
1M
03
11
02
0M
0V
0S
0R
1\
1p
0]
1N
0W
1V
1S
0N
0T
1]
1W
0X
1T
1X
#720000
b101001 "
0!
1r
0J
0K
0A
0,
1s
1B
1+
#730000
1!
1J
1K
1A
1,
1q
1:
1L
0o
13
1M
0p
1N
#740000
b101011 "
b101010 "
0!
0r
1t
0J
0K
0A
0,
0s
1u
1C
0B
0+
1*
#750000
1!
1J
1K
1A
1,
0q
1P
1;
0:
0L
1o
0Q
0M
03
12
1Q
1M
1R
0\
1p
0N
0R
1\
0V
0S
1N
0]
1V
1S
0W
1]
0T
1W
1T
0X
1X
#760000
b101011 "
0!
1r
0J
0K
0A
0,
1s
1B
1+
#770000
1!
1J
1K
1A
1,
1q
1:
1_
1L
0o
13
1[
0Q
0M
0n
0p
1R
0\
0]
0X
0T
0N
0V
0S
0W
#780000
b101111 "
b101101 "
b101100 "
0!
0r
0t
1v
0J
0K
0A
0,
0s
0u
1w
1D
0C
0B
0+
0*
1)
#790000
1!
1J
1K
1A
1,
1`
0q
0^
0Z
0Y
0U
0P
0;
0=
0>
0?
0<
0:
1m
0_
0L
1o
0R
1\
0[
1W
1V
1S
1Q
1M
03
01
0-
0/
00
02
1$!
0~
0z
0w
0D
0E
0G
1I
0M
0S
0W
0\
1$
0&
0(
0)
1n
1p
#800000
b101101 "
0!
1r
0J
0K
0A
0,
#810000
1!
1J
1K
1A
1,
0`
1q
1Z
1?
1:
0m
1L
0o
13
1-
0$!
1~
1z
1w
1s
1B
1D
1E
1G
0I
1M
0$
1&
1(
1)
1+
0p
1N
#820000
b101111 "
b101110 "
0!
0r
1t
0J
0K
0A
0,
0s
1u
1C
0B
0+
1*
#830000
1!
1J
1K
1A
1,
0q
1P
1;
0:
0L
1o
0Q
0M
03
12
1Q
1M
1\
1p
0N
0\
1N
1]
0]
#840000
b101111 "
0!
1r
0J
0K
0A
0,
1s
1B
1+
#850000
1!
1J
1K
1A
1,
1q
1:
1L
0o
13
0Q
0M
0p
1\
0N
1]
#860000
b111111 "
b110111 "
b110011 "
b110001 "
b110000 "
0!
0r
0t
0v
0x
1{
0J
0K
0A
0,
0s
0u
0w
0z
1|
1F
0E
0D
0C
0B
0+
0*
0)
0(
1'
#870000
1!
1J
1K
1A
1,
0q
1^
0P
0;
1<
0:
0L
1o
1R
0\
1Q
1M
03
11
02
0M
1S
0R
1\
1p
0]
1N
0S
0N
1T
1]
0T
#880000
b110001 "
0!
1r
0J
0K
0A
0,
1s
1B
1+
#890000
1!
1J
1K
1A
1,
1q
1:
1L
0o
13
1M
0p
1N
#900000
b110011 "
b110010 "
0!
0r
1t
0J
0K
0A
0,
0s
1u
1C
0B
0+
1*
#910000
1!
1J
1K
1A
1,
0q
1P
1;
0:
0L
1o
0Q
0M
03
12
1Q
1M
1R
0\
1p
0N
0R
1\
1S
1N
0]
0S
1]
1T
0T
#920000
b110011 "
0!
1r
0J
0K
0A
0,
1s
1B
1+
#930000
1!
1J
1K
1A
1,
1q
1:
1L
0o
13
0Q
0M
0p
1R
0\
0N
1S
0]
1T
#940000
b110111 "
b110101 "
b110100 "
0!
0r
0t
1v
0J
0K
0A
0,
0s
0u
1w
1D
0C
0B
0+
0*
1)
#950000
1!
1J
1K
1A
1,
0q
0^
1U
0P
0;
1=
0<
0:
0L
1o
0R
1\
0V
0S
1Q
1M
03
01
10
02
0M
1V
1S
1W
0\
1p
1]
0T
1N
0W
0N
1T
1X
0]
0X
#960000
b110101 "
0!
1r
0J
0K
0A
0,
1s
1B
1+
#970000
1!
1J
1K
1A
1,
1q
1:
1L
0o
13
1M
0p
1N
#980000
b110111 "
b110110 "
0!
0r
1t
0J
0K
0A
0,
0s
1u
1C
0B
0+
1*
#990000
1!
1J
1K
1A
1,
0q
1P
1;
0:
0L
1o
0Q
0M
03
12
1Q
1M
1\
1p
0N
0\
1N
1]
0]
