projeto01/simulation/qsim/projeto01.msim.vcd
$comment
	File created using the following command:
		vcd file projeto01.msim.vcd -direction
$end
$date
	Sun Aug 04 12:04:10 2024
$end
$version
	ModelSim Version 10.5b
$end
$timescale
	1ps
$end

$scope module Sistema_vlg_vec_tst $end
$var reg 1 ! clock $end
$var reg 1 " clock1Hz $end
$var reg 4 # dataIn [3:0] $end
$var reg 1 $ reset $end
$var wire 1 % Principal_Pedestrian [1] $end
$var wire 1 & Principal_Pedestrian [0] $end
$var wire 1 ' Principal_Road [2] $end
$var wire 1 ( Principal_Road [1] $end
$var wire 1 ) Principal_Road [0] $end
$var wire 1 * Secondary_Pedestrian [1] $end
$var wire 1 + Secondary_Pedestrian [0] $end
$var wire 1 , Secondary_Road [2] $end
$var wire 1 - Secondary_Road [1] $end
$var wire 1 . Secondary_Road [0] $end
$var wire 1 / StateFlag [1] $end
$var wire 1 0 StateFlag [0] $end
$var wire 1 1 timeRemaining [6] $end
$var wire 1 2 timeRemaining [5] $end
$var wire 1 3 timeRemaining [4] $end
$var wire 1 4 timeRemaining [3] $end
$var wire 1 5 timeRemaining [2] $end
$var wire 1 6 timeRemaining [1] $end
$var wire 1 7 timeRemaining [0] $end

$scope module i1 $end
$var wire 1 8 gnd $end
$var wire 1 9 vcc $end
$var wire 1 : unknown $end
$var tri1 1 ; devclrn $end
$var tri1 1 < devpor $end
$var tri1 1 = devoe $end
$var wire 1 > clock~input_o $end
$var wire 1 ? dataIn[0]~input_o $end
$var wire 1 @ dataIn[1]~input_o $end
$var wire 1 A dataIn[2]~input_o $end
$var wire 1 B dataIn[3]~input_o $end
$var wire 1 C timeRemaining[0]~output_o $end
$var wire 1 D timeRemaining[1]~output_o $end
$var wire 1 E timeRemaining[2]~output_o $end
$var wire 1 F timeRemaining[3]~output_o $end
$var wire 1 G timeRemaining[4]~output_o $end
$var wire 1 H timeRemaining[5]~output_o $end
$var wire 1 I timeRemaining[6]~output_o $end
$var wire 1 J Principal_Road[0]~output_o $end
$var wire 1 K Principal_Road[1]~output_o $end
$var wire 1 L Principal_Road[2]~output_o $end
$var wire 1 M Secondary_Road[0]~output_o $end
$var wire 1 N Secondary_Road[1]~output_o $end
$var wire 1 O Secondary_Road[2]~output_o $end
$var wire 1 P Principal_Pedestrian[0]~output_o $end
$var wire 1 Q Principal_Pedestrian[1]~output_o $end
$var wire 1 R Secondary_Pedestrian[0]~output_o $end
$var wire 1 S Secondary_Pedestrian[1]~output_o $end
$var wire 1 T StateFlag[0]~output_o $end
$var wire 1 U StateFlag[1]~output_o $end
$var wire 1 V clock1Hz~input_o $end
$var wire 1 W clock1Hz~inputclkctrl_outclk $end
$var wire 1 X SCU01|PresentState.SecondaryGreen~feeder_combout $end
$var wire 1 Y reset~input_o $end
$var wire 1 Z reset~inputclkctrl_outclk $end
$var wire 1 [ SCU01|PresentState.SecondaryGreen~q $end
$var wire 1 \ Timer01|counter[0]~7_combout $end
$var wire 1 ] Timer01|counter[0]~8 $end
$var wire 1 ^ Timer01|counter[1]~9_combout $end
$var wire 1 _ Timer01|counter[1]~10 $end
$var wire 1 ` Timer01|counter[2]~11_combout $end
$var wire 1 a Timer01|counter[2]~12 $end
$var wire 1 b Timer01|counter[3]~13_combout $end
$var wire 1 c Timer01|counter[3]~14 $end
$var wire 1 d Timer01|counter[4]~15_combout $end
$var wire 1 e Timer01|counter[4]~16 $end
$var wire 1 f Timer01|counter[5]~17_combout $end
$var wire 1 g Timer01|counter[5]~18 $end
$var wire 1 h Timer01|counter[6]~19_combout $end
$var wire 1 i SCU01|Selector0~5_combout $end
$var wire 1 j SCU01|Selector0~6_combout $end
$var wire 1 k Timer01|Equal0~0_combout $end
$var wire 1 l SCU01|Selector0~4_combout $end
$var wire 1 m Timer01|Equal0~1_combout $end
$var wire 1 n Timer01|Equal0~2_combout $end
$var wire 1 o Timer01|Equal0~3_combout $end
$var wire 1 p Timer01|trigger~q $end
$var wire 1 q SCU01|PresentState.SecondaryYellow~q $end
$var wire 1 r SCU01|PresentState.PrincipalGreen~0_combout $end
$var wire 1 s SCU01|PresentState.PrincipalGreen~q $end
$var wire 1 t SCU01|PresentState.PrincipalYellow~0_combout $end
$var wire 1 u SCU01|PresentState.PrincipalYellow~q $end
$var wire 1 v SCU01|Selector4~0_combout $end
$var wire 1 w TimerMux01|Mux6~0_combout $end
$var wire 1 x Timer01|timeRemaining[0]~7_combout $end
$var wire 1 y TimerMux01|Mux5~0_combout $end
$var wire 1 z Timer01|timeRemaining[0]~8 $end
$var wire 1 { Timer01|timeRemaining[1]~9_combout $end
$var wire 1 | Timer01|timeRemaining[1]~10 $end
$var wire 1 } Timer01|timeRemaining[2]~11_combout $end
$var wire 1 ~ Timer01|timeRemaining[2]~12 $end
$var wire 1 !! Timer01|timeRemaining[3]~13_combout $end
$var wire 1 "! TimerMux01|Mux2~0_combout $end
$var wire 1 #! Timer01|timeRemaining[3]~14 $end
$var wire 1 $! Timer01|timeRemaining[4]~15_combout $end
$var wire 1 %! Timer01|timeRemaining[4]~16 $end
$var wire 1 &! Timer01|timeRemaining[5]~17_combout $end
$var wire 1 '! Timer01|timeRemaining[5]~18 $end
$var wire 1 (! Timer01|timeRemaining[6]~19_combout $end
$var wire 1 )! SCU01|StateFlag~0_combout $end
$var wire 1 *! Timer01|timeRemaining [6] $end
$var wire 1 +! Timer01|timeRemaining [5] $end
$var wire 1 ,! Timer01|timeRemaining [4] $end
$var wire 1 -! Timer01|timeRemaining [3] $end
$var wire 1 .! Timer01|timeRemaining [2] $end
$var wire 1 /! Timer01|timeRemaining [1] $end
$var wire 1 0! Timer01|timeRemaining [0] $end
$var wire 1 1! Timer01|counter [6] $end
$var wire 1 2! Timer01|counter [5] $end
$var wire 1 3! Timer01|counter [4] $end
$var wire 1 4! Timer01|counter [3] $end
$var wire 1 5! Timer01|counter [2] $end
$var wire 1 6! Timer01|counter [1] $end
$var wire 1 7! Timer01|counter [0] $end
$var wire 1 8! SCU01|Principal_Road [2] $end
$var wire 1 9! SCU01|Principal_Road [1] $end
$var wire 1 :! SCU01|Principal_Road [0] $end
$var wire 1 ;! SCU01|Secondary_Road [2] $end
$var wire 1 <! SCU01|Secondary_Road [1] $end
$var wire 1 =! SCU01|Secondary_Road [0] $end
$upscope $end
$upscope $end
$enddefinitions $end
#0
$dumpvars
0!
0"
b0 #
1$
0&
1%
1)
0(
0'
1+
0*
0.
0-
1,
00
0/
07
06
05
04
03
02
01
08
19
x:
1;
1<
1=
0>
0?
0@
0A
0B
0C
0D
0E
0F
0G
0H
0I
1J
0K
0L
0M
0N
1O
0P
1Q
1R
0S
0T
0U
0V
0W
0X
1Y
1Z
0[
1\
0]
0^
1_
0`
0a
0b
1c
0d
0e
0f
1g
0h
0i
0j
0k
0l
0m
0n
0o
0p
0q
1r
0s
1t
0u
0v
0w
0x
1y
1z
1{
0|
1}
1~
1!!
0"!
0#!
1$!
1%!
0&!
0'!
0(!
1)!
00!
0/!
0.!
0-!
0,!
0+!
0*!
07!
06!
05!
04!
03!
02!
01!
1:!
z9!
z8!
z=!
z<!
1;!
$end
#2500
1!
1"
1>
1V
1W
#5000
0!
0"
0>
0V
0W
#7500
1!
1"
1>
1V
1W
#10000
0!
0"
0>
0V
0W
#12500
1!
1"
1>
1V
1W
#15000
0!
0"
0>
0V
0W
#17500
1!
1"
1>
1V
1W
#20000
0$
0!
0"
0Y
0>
0V
0Z
0W
#22500
1!
1"
1>
1V
1W
17!
1,!
1-!
1.!
1/!
1D
1E
1F
1G
0z
1]
13
14
15
16
1x
0\
0{
1^
#25000
0!
0"
0>
0V
0W
#27500
1!
1"
1>
1V
1W
16!
07!
0/!
10!
1C
0D
1|
1k
0_
1z
0]
06
17
1{
0^
0x
1\
0|
1_
0}
1`
0{
1^
1}
0`
#30000
0!
0"
0>
0V
0W
#32500
1!
1"
1>
1V
1W
17!
00!
0C
0z
0k
1]
07
1x
0\
1|
0_
1{
0^
0}
1`
#35000
0!
0"
0>
0V
0W
#37500
1!
1"
1>
1V
1W
15!
06!
07!
0.!
1/!
10!
1C
1D
0E
0~
1a
0|
1_
1z
0]
05
16
17
1}
0`
0{
1^
0x
1\
1~
0a
0!!
1b
0}
1`
1{
0^
1!!
0b
#40000
0!
0"
0>
0V
0W
#42500
1!
1"
1>
1V
1W
17!
00!
0C
0z
1]
07
1x
0\
0{
1^
#45000
0!
0"
0>
0V
0W
#47500
1!
1"
1>
1V
1W
16!
07!
0/!
10!
1C
0D
1|
1k
0_
1z
0]
06
17
1{
0^
0x
1\
0~
1a
0|
1_
1}
0`
0{
1^
1~
0a
0!!
1b
0}
1`
1!!
0b
#50000
0!
0"
0>
0V
0W
#52500
1!
1"
1>
1V
1W
17!
00!
0C
0z
0k
1]
07
1x
0\
1|
0_
1{
0^
0~
1a
1}
0`
0!!
1b
#55000
0!
0"
0>
0V
0W
#57500
1!
1"
1>
1V
1W
14!
05!
06!
07!
0-!
1.!
1/!
10!
1C
1D
1E
0F
1#!
0c
1~
0a
0|
1_
1z
0]
04
15
16
17
1!!
0b
0}
1`
0{
1^
0x
1\
0#!
1c
0$!
1d
0!!
1b
1}
0`
1{
0^
1$!
0d
#60000
0!
0"
0>
0V
0W
#62500
1!
1"
1>
1V
1W
17!
00!
0C
0z
1]
07
1x
0\
0{
1^
#65000
0!
0"
0>
0V
0W
#67500
1!
1"
1>
1V
1W
16!
07!
0/!
10!
1C
0D
1|
1k
0_
1z
0]
06
17
1{
0^
0x
1\
0|
1_
0}
1`
0{
1^
1}
0`
#70000
0!
0"
0>
0V
0W
#72500
1!
1"
1>
1V
1W
17!
00!
0C
0z
0k
1]
07
1x
0\
1|
0_
1{
0^
0}
1`
#75000
0!
0"
0>
0V
0W
#77500
1!
1"
1>
1V
1W
15!
06!
07!
0.!
1/!
10!
1C
1D
0E
0~
1m
1a
0|
1_
1z
0]
05
16
17
1}
0`
0{
1^
0x
1\
1#!
0c
1~
0a
1!!
0b
0}
1`
1{
0^
0#!
1c
0$!
1d
0!!
1b
1$!
0d
#80000
0!
0"
0>
0V
0W
#82500
1!
1"
1>
1V
1W
17!
00!
0C
0z
1]
07
1x
0\
0{
1^
#85000
0!
0"
0>
0V
0W
#87500
1!
1"
1>
1V
1W
16!
07!
0/!
10!
1C
0D
1|
1k
0_
1z
0]
06
17
1{
0^
0x
1\
0~
1a
0|
1_
1}
0`
0{
1^
1#!
0c
1~
0a
1!!
0b
0}
1`
0#!
1c
0$!
1d
0!!
1b
1$!
0d
#90000
0!
0"
0>
0V
0W
#92500
1!
1"
1>
1V
1W
17!
00!
0C
0z
0k
1]
07
1x
0\
1|
0_
1{
0^
0~
1a
1}
0`
1#!
0c
1!!
0b
0$!
1d
#95000
0!
0"
0>
0V
0W
#97500
1!
1"
1>
1V
1W
13!
04!
05!
06!
07!
0,!
1-!
1.!
1/!
10!
1C
1D
1E
1F
0G
0%!
1n
1e
0#!
0m
1c
1~
0a
0|
1_
1z
0]
03
14
15
16
17
1$!
0d
0!!
1b
0}
1`
0{
1^
0x
1\
1'!
1%!
0n
0e
1&!
1f
0$!
1d
1!!
0b
1}
0`
1{
0^
0'!
1(!
0&!
0f
0(!
#100000
0!
0"
0>
0V
0W
#102500
1!
1"
1>
1V
1W
17!
00!
0C
0z
1]
07
1x
0\
0{
1^
#105000
0!
0"
0>
0V
0W
#107500
1!
1"
1>
1V
1W
16!
07!
0/!
10!
1C
0D
1|
1k
0_
1z
0]
06
17
1{
0^
0x
1\
0|
1_
0}
1`
0{
1^
1}
0`
#110000
0!
0"
0>
0V
0W
#112500
1!
1"
1>
1V
1W
17!
00!
0C
0z
0k
1]
07
1x
0\
1|
0_
1{
0^
0}
1`
#115000
0!
0"
0>
0V
0W
#117500
1!
1"
1>
1V
1W
15!
06!
07!
0.!
1/!
10!
1C
1D
0E
0~
1a
0|
1_
1z
0]
05
16
17
1}
0`
0{
1^
0x
1\
1~
0a
0!!
1b
0}
1`
1{
0^
1!!
0b
#120000
0!
0"
0>
0V
0W
#122500
1!
1"
1>
1V
1W
17!
00!
0C
0z
1]
07
1x
0\
0{
1^
#125000
0!
0"
0>
0V
0W
#127500
1!
1"
1>
1V
1W
16!
07!
0/!
10!
1C
0D
1|
1k
0_
1z
0]
06
17
1{
0^
0x
1\
0~
1a
0|
1_
1}
0`
0{
1^
1~
0a
0!!
1b
0}
1`
1!!
0b
#130000
0!
0"
0>
0V
0W
#132500
1!
1"
1>
1V
1W
17!
00!
0C
0z
0k
1]
07
1x
0\
1|
0_
1{
0^
0~
1a
1}
0`
0!!
1b
#135000
0!
0"
0>
0V
0W
#137500
1!
1"
1>
1V
1W
14!
05!
06!
07!
0-!
1.!
1/!
10!
1C
1D
1E
0F
1#!
0c
1~
0a
0|
1_
1z
0]
04
15
16
17
1!!
0b
0}
1`
0{
1^
0x
1\
0%!
1e
0#!
1c
1$!
0d
0!!
1b
1}
0`
1{
0^
1'!
1%!
0e
1&!
1f
0$!
1d
0'!
1(!
0&!
0f
0(!
#140000
0!
0"
0>
0V
0W
#142500
1!
1"
1>
1V
1W
17!
00!
0C
0z
1]
07
1x
0\
0{
1^
#145000
0!
0"
0>
0V
0W
#147500
1!
1"
1>
1V
1W
16!
07!
0/!
10!
1C
0D
1|
1k
0_
1z
0]
06
17
1{
0^
0x
1\
0|
1_
0}
1`
0{
1^
1}
0`
#150000
0!
0"
0>
0V
0W
#152500
1!
1"
1>
1V
1W
17!
00!
0C
0z
0k
1]
07
1x
0\
1|
0_
1{
0^
0}
1`
#155000
0!
0"
0>
0V
0W
#157500
1!
1"
1>
1V
1W
15!
06!
07!
0.!
1/!
10!
1C
1D
0E
0~
1m
1a
0|
1_
1z
0]
05
16
17
1}
0`
0{
1^
0x
1\
1#!
1n
0c
1~
0a
1!!
0b
0}
1`
1{
0^
0%!
1e
0#!
1c
1$!
0d
0!!
1b
1'!
1%!
0e
1&!
1f
0$!
1d
0'!
1(!
0&!
0f
0(!
#160000
0!
0"
0>
0V
0W
#162500
1!
1"
1>
1V
1W
17!
00!
0C
0z
1]
07
1x
0\
0{
1^
#165000
0!
0"
0>
0V
0W
#167500
1!
1"
1>
1V
1W
16!
07!
0/!
10!
1C
0D
1|
1k
0_
1z
0]
06
17
1{
0^
0x
1\
0~
1o
1a
0|
1_
1}
0`
0{
1^
1#!
0c
1~
0a
1!!
0b
0}
1`
0%!
1e
0#!
1c
1$!
0d
0!!
1b
1'!
1%!
0e
1&!
1f
0$!
1d
0'!
1(!
0&!
0f
0(!
#170000
0!
0"
0>
0V
0W
#172500
1!
1"
1>
1V
1W
1p
03!
04!
05!
06!
00!
0C
1i
0n
0m
0k
07
1$!
0d
1!!
0b
1}
0`
1{
0^
1"!
1w
1m
1j
0o
1n
0$!
1x
0!!
0}
#175000
0!
0"
0>
0V
0W
#177500
1!
1"
1>
1V
1W
0p
17!
1/!
10!
1u
1s
0R
1S
1K
1C
1D
1l
0i
1]
0)!
16
17
1(
1*
0+
0x
0\
0:!
0t
0J
1T
10
0)
1^
#180000
0!
0"
0>
0V
0W
#182500
1!
1"
1>
1V
1W
16!
07!
00!
0C
0_
0]
07
0{
0^
1x
1\
1_
1`
1^
0`
#185000
0!
0"
0>
0V
0W
#187500
1!
1"
1>
1V
1W
17!
0/!
10!
1C
0D
1k
1]
06
17
0x
0\
1o
0_
0^
1`
#190000
0!
0"
0>
0V
0W
#192500
1!
1"
1>
1V
1W
1p
06!
07!
00!
0C
1v
0l
0j
0k
1_
0]
07
1{
1^
1x
1\
0m
0o
1X
1!!
1}
0`
0^
0n
#195000
0!
0"
0>
0V
0W
#197500
1!
1"
1>
1V
1W
0p
17!
1-!
1.!
1/!
10!
0u
1[
0Q
1L
1M
1P
0K
1C
1D
1E
1F
1]
1)!
14
15
16
17
0(
1&
1.
1'
0%
0x
0\
0;!
1U
0O
0T
00
0,
1/
1^
#200000
0!
0"
0>
0V
0W
#202500
1!
1"
1>
1V
1W
16!
07!
00!
0C
0_
0]
07
0{
0^
1x
1\
1_
1`
1^
0`
#205000
0!
0"
0>
0V
0W
#207500
1!
1"
1>
1V
1W
17!
0/!
10!
1C
0D
1k
1]
06
17
0x
0\
0_
0^
1`
#210000
0!
0"
0>
0V
0W
#212500
1!
1"
1>
1V
1W
15!
06!
07!
00!
0C
1a
0k
1_
0]
07
0}
0`
1{
1^
1x
1\
0a
1b
1`
0^
0b
#215000
0!
0"
0>
0V
0W
#217500
1!
1"
1>
1V
1W
17!
0.!
1/!
10!
1C
1D
0E
1]
05
16
17
0x
0\
1^
#220000
0!
0"
0>
0V
0W
#222500
1!
1"
1>
1V
1W
16!
07!
00!
0C
0_
0]
07
0{
0^
1x
1\
1a
1_
0`
1^
0a
1b
1`
0b
#225000
0!
0"
0>
0V
0W
#227500
1!
1"
1>
1V
1W
17!
0/!
10!
1C
0D
1k
1]
06
17
0x
0\
0_
0^
1a
0`
1b
#230000
0!
0"
0>
0V
0W
#232500
1!
1"
1>
1V
1W
14!
05!
06!
07!
00!
0C
0c
0a
0k
1_
0]
07
0!!
0b
1}
1`
1{
1^
1x
1\
1c
1d
1b
0`
0^
0d
#235000
0!
0"
0>
0V
0W
#237500
1!
1"
1>
1V
1W
17!
0-!
1.!
1/!
10!
1C
1D
1E
0F
1]
04
15
16
17
0x
0\
1^
#240000
0!
0"
0>
0V
0W
#242500
1!
1"
1>
1V
1W
16!
07!
00!
0C
0_
0]
07
0{
0^
1x
1\
1_
1`
1^
0`
#245000
0!
0"
0>
0V
0W
#247500
1!
1"
1>
1V
1W
17!
0/!
10!
1C
0D
1k
1]
06
17
0x
0\
0_
0^
1`
#250000
0!
0"
0>
0V
0W
#252500
1!
1"
1>
1V
1W
15!
06!
07!
00!
0C
1m
1a
0k
1_
0]
07
0}
0`
1{
1^
1x
1\
1n
0c
0a
0b
1`
0^
1c
1d
1b
0d
#255000
0!
0"
0>
0V
0W
#257500
1!
1"
1>
1V
1W
17!
0.!
1/!
10!
1C
1D
0E
1]
05
16
17
0x
0\
1^
#260000
0!
0"
0>
0V
0W
#262500
1!
1"
1>
1V
1W
16!
07!
00!
0C
0_
0]
07
0{
0^
1x
1\
1a
1_
0`
1^
0c
0a
0b
1`
1c
1d
1b
0d
#265000
0!
0"
0>
0V
0W
#267500
1!
1"
1>
1V
1W
17!
0/!
10!
1C
0D
1k
1]
06
17
0x
0\
1o
0_
0^
1a
0`
0c
0b
1d
#270000
0!
0"
0>
0V
0W
#272500
1!
1"
1>
1V
1W
1p
04!
05!
06!
07!
00!
0C
0v
1i
0m
1c
0a
0k
1_
0]
07
1!!
1b
1}
1`
1{
1^
1x
1\
0n
1m
1j
0o
0X
0d
0b
0`
0^
1n
0!!
0}
#275000
0!
0"
0>
0V
0W
#277500
1!
1"
1>
1V
1W
0p
17!
1/!
10!
1q
0[
1Q
0L
0M
0P
1N
1C
1D
1l
0i
1]
0)!
16
17
1-
0&
0.
0'
1%
0x
0\
1:!
0r
1J
1T
10
1)
1^
#280000
0!
0"
0>
0V
0W
#282500
1!
1"
1>
1V
1W
16!
07!
00!
0C
0_
0]
07
0{
0^
1x
1\
1_
1`
1^
0`
#285000
0!
0"
0>
0V
0W
#287500
1!
1"
1>
1V
1W
17!
0/!
10!
1C
0D
1k
1]
06
17
0x
0\
1o
0_
0^
1`
#290000
0!
0"
0>
0V
0W
#292500
1!
1"
1>
1V
1W
1p
06!
07!
00!
0C
0l
0j
0k
1_
0]
07
1{
1^
1x
1\
0"!
0w
0m
0n
0o
1!!
1}
0`
0^
1$!
0x
#295000
0!
0"
0>
0V
0W
#297500
1!
1"
1>
1V
1W
0p
17!
1,!
1-!
1.!
1/!
0s
0q
1R
0N
0S
1D
1E
1F
1G
0z
1]
1)!
13
14
15
16
0*
0-
1+
1x
0\
1;!
1t
1r
0U
1O
0T
00
1,
0/
0{
1^
#300000
0!
0"
0>
0V
0W
#302500
1!
1"
1>
1V
1W
16!
07!
0/!
10!
1C
0D
1|
1k
0_
1z
0]
06
17
1{
0^
0x
1\
0|
1_
0}
1`
0{
1^
1}
0`
#305000
0!
0"
0>
0V
0W
#307500
1!
1"
1>
1V
1W
17!
00!
0C
0z
0k
1]
07
1x
0\
1|
0_
1{
0^
0}
1`
#310000
0!
0"
0>
0V
0W
#312500
1!
1"
1>
1V
1W
15!
06!
07!
0.!
1/!
10!
1C
1D
0E
0~
1a
0|
1_
1z
0]
05
16
17
1}
0`
0{
1^
0x
1\
1~
0a
0!!
1b
0}
1`
1{
0^
1!!
0b
#315000
0!
0"
0>
0V
0W
#317500
1!
1"
1>
1V
1W
17!
00!
0C
0z
1]
07
1x
0\
0{
1^
#320000
0!
0"
0>
0V
0W
#322500
1!
1"
1>
1V
1W
16!
07!
0/!
10!
1C
0D
1|
1k
0_
1z
0]
06
17
1{
0^
0x
1\
0~
1a
0|
1_
1}
0`
0{
1^
1~
0a
0!!
1b
0}
1`
1!!
0b
#325000
0!
0"
0>
0V
0W
#327500
1!
1"
1>
1V
1W
17!
00!
0C
0z
0k
1]
07
1x
0\
1|
0_
1{
0^
0~
1a
1}
0`
0!!
1b
#330000
0!
0"
0>
0V
0W
#332500
1!
1"
1>
1V
1W
14!
05!
06!
07!
0-!
1.!
1/!
10!
1C
1D
1E
0F
1#!
0c
1~
0a
0|
1_
1z
0]
04
15
16
17
1!!
0b
0}
1`
0{
1^
0x
1\
0#!
1c
0$!
1d
0!!
1b
1}
0`
1{
0^
1$!
0d
#335000
0!
0"
0>
0V
0W
#337500
1!
1"
1>
1V
1W
17!
00!
0C
0z
1]
07
1x
0\
0{
1^
#340000
0!
0"
0>
0V
0W
#342500
1!
1"
1>
1V
1W
16!
07!
0/!
10!
1C
0D
1|
1k
0_
1z
0]
06
17
1{
0^
0x
1\
0|
1_
0}
1`
0{
1^
1}
0`
#345000
0!
0"
0>
0V
0W
#347500
1!
1"
1>
1V
1W
17!
00!
0C
0z
0k
1]
07
1x
0\
1|
0_
1{
0^
0}
1`
#350000
0!
0"
0>
0V
0W
#352500
1!
1"
1>
1V
1W
15!
06!
07!
0.!
1/!
10!
1C
1D
0E
0~
1m
1a
0|
1_
1z
0]
05
16
17
1}
0`
0{
1^
0x
1\
1#!
0c
1~
0a
1!!
0b
0}
1`
1{
0^
0#!
1c
0$!
1d
0!!
1b
1$!
0d
#355000
0!
0"
0>
0V
0W
#357500
1!
1"
1>
1V
1W
17!
00!
0C
0z
1]
07
1x
0\
0{
1^
#360000
0!
0"
0>
0V
0W
#362500
1!
1"
1>
1V
1W
16!
07!
0/!
10!
1C
0D
1|
1k
0_
1z
0]
06
17
1{
0^
0x
1\
0~
1a
0|
1_
1}
0`
0{
1^
1#!
0c
1~
0a
1!!
0b
0}
1`
0#!
1c
0$!
1d
0!!
1b
1$!
0d
#365000
0!
0"
0>
0V
0W
#367500
1!
1"
1>
1V
1W
17!
00!
0C
0z
0k
1]
07
1x
0\
1|
0_
1{
0^
0~
1a
1}
0`
1#!
0c
1!!
0b
0$!
1d
#370000
0!
0"
0>
0V
0W
#372500
1!
1"
1>
1V
1W
13!
04!
05!
06!
07!
0,!
1-!
1.!
1/!
10!
1C
1D
1E
1F
0G
0%!
1n
1e
0#!
0m
1c
1~
0a
0|
1_
1z
0]
03
14
15
16
17
1$!
0d
0!!
1b
0}
1`
0{
1^
0x
1\
1'!
1%!
0n
0e
1&!
1f
0$!
1d
1!!
0b
1}
0`
1{
0^
0'!
1(!
0&!
0f
0(!
#375000
0!
0"
0>
0V
0W
#377500
1!
1"
1>
1V
1W
17!
00!
0C
0z
1]
07
1x
0\
0{
1^
#380000
0!
0"
0>
0V
0W
#382500
1!
1"
1>
1V
1W
16!
07!
0/!
10!
1C
0D
1|
1k
0_
1z
0]
06
17
1{
0^
0x
1\
0|
1_
0}
1`
0{
1^
1}
0`
#385000
0!
0"
0>
0V
0W
#387500
1!
1"
1>
1V
1W
17!
00!
0C
0z
0k
1]
07
1x
0\
1|
0_
1{
0^
0}
1`
#390000
0!
0"
0>
0V
0W
#392500
1!
1"
1>
1V
1W
15!
06!
07!
0.!
1/!
10!
1C
1D
0E
0~
1a
0|
1_
1z
0]
05
16
17
1}
0`
0{
1^
0x
1\
1~
0a
0!!
1b
0}
1`
1{
0^
1!!
0b
#395000
0!
0"
0>
0V
0W
#397500
1!
1"
1>
1V
1W
17!
00!
0C
0z
1]
07
1x
0\
0{
1^
#400000
0!
0"
0>
0V
0W
#402500
1!
1"
1>
1V
1W
16!
07!
0/!
10!
1C
0D
1|
1k
0_
1z
0]
06
17
1{
0^
0x
1\
0~
1a
0|
1_
1}
0`
0{
1^
1~
0a
0!!
1b
0}
1`
1!!
0b
#405000
0!
0"
0>
0V
0W
#407500
1!
1"
1>
1V
1W
17!
00!
0C
0z
0k
1]
07
1x
0\
1|
0_
1{
0^
0~
1a
1}
0`
0!!
1b
#410000
0!
0"
0>
0V
0W
#412500
1!
1"
1>
1V
1W
14!
05!
06!
07!
0-!
1.!
1/!
10!
1C
1D
1E
0F
1#!
0c
1~
0a
0|
1_
1z
0]
04
15
16
17
1!!
0b
0}
1`
0{
1^
0x
1\
0%!
1e
0#!
1c
1$!
0d
0!!
1b
1}
0`
1{
0^
1'!
1%!
0e
1&!
1f
0$!
1d
0'!
1(!
0&!
0f
0(!
#415000
0!
0"
0>
0V
0W
#417500
1!
1"
1>
1V
1W
17!
00!
0C
0z
1]
07
1x
0\
0{
1^
#420000
0!
0"
0>
0V
0W
#422500
1!
1"
1>
1V
1W
16!
07!
0/!
10!
1C
0D
1|
1k
0_
1z
0]
06
17
1{
0^
0x
1\
0|
1_
0}
1`
0{
1^
1}
0`
#425000
0!
0"
0>
0V
0W
#427500
1!
1"
1>
1V
1W
17!
00!
0C
0z
0k
1]
07
1x
0\
1|
0_
1{
0^
0}
1`
#430000
0!
0"
0>
0V
0W
#432500
1!
1"
1>
1V
1W
15!
06!
07!
0.!
1/!
10!
1C
1D
0E
0~
1m
1a
0|
1_
1z
0]
05
16
17
1}
0`
0{
1^
0x
1\
1#!
1n
0c
1~
0a
1!!
0b
0}
1`
1{
0^
0%!
1e
0#!
1c
1$!
0d
0!!
1b
1'!
1%!
0e
1&!
1f
0$!
1d
0'!
1(!
0&!
0f
0(!
#435000
0!
0"
0>
0V
0W
#437500
1!
1"
1>
1V
1W
17!
00!
0C
0z
1]
07
1x
0\
0{
1^
#440000
0!
0"
0>
0V
0W
#442500
1!
1"
1>
1V
1W
16!
07!
0/!
10!
1C
0D
1|
1k
0_
1z
0]
06
17
1{
0^
0x
1\
0~
1o
1a
0|
1_
1}
0`
0{
1^
1#!
0c
1~
0a
1!!
0b
0}
1`
0%!
1e
0#!
1c
1$!
0d
0!!
1b
1'!
1%!
0e
1&!
1f
0$!
1d
0'!
1(!
0&!
0f
0(!
#445000
0!
0"
0>
0V
0W
#447500
1!
1"
1>
1V
1W
1p
03!
04!
05!
06!
00!
0C
1i
0n
0m
0k
07
1$!
0d
1!!
0b
1}
0`
1{
0^
1"!
1w
1m
1j
0o
1n
0$!
1x
0!!
0}
#450000
0!
0"
0>
0V
0W
#452500
1!
1"
1>
1V
1W
0p
17!
1/!
10!
1u
1s
0R
1S
1K
1C
1D
1l
0i
1]
0)!
16
17
1(
1*
0+
0x
0\
0:!
0t
0J
1T
10
0)
1^
#455000
0!
0"
0>
0V
0W
#457500
1!
1"
1>
1V
1W
16!
07!
00!
0C
0_
0]
07
0{
0^
1x
1\
1_
1`
1^
0`
#460000
0!
0"
0>
0V
0W
#462500
1!
1"
1>
1V
1W
17!
0/!
10!
1C
0D
1k
1]
06
17
0x
0\
1o
0_
0^
1`
#465000
0!
0"
0>
0V
0W
#467500
1!
1"
1>
1V
1W
1p
06!
07!
00!
0C
1v
0l
0j
0k
1_
0]
07
1{
1^
1x
1\
0m
0o
1X
1!!
1}
0`
0^
0n
#470000
0!
0"
0>
0V
0W
#472500
1!
1"
1>
1V
1W
0p
17!
1-!
1.!
1/!
10!
0u
1[
0Q
1L
1M
1P
0K
1C
1D
1E
1F
1]
1)!
14
15
16
17
0(
1&
1.
1'
0%
0x
0\
0;!
1U
0O
0T
00
0,
1/
1^
#475000
0!
0"
0>
0V
0W
#477500
1!
1"
1>
1V
1W
16!
07!
00!
0C
0_
0]
07
0{
0^
1x
1\
1_
1`
1^
0`
#480000
0!
0"
0>
0V
0W
#482500
1!
1"
1>
1V
1W
17!
0/!
10!
1C
0D
1k
1]
06
17
0x
0\
0_
0^
1`
#485000
0!
0"
0>
0V
0W
#487500
1!
1"
1>
1V
1W
15!
06!
07!
00!
0C
1a
0k
1_
0]
07
0}
0`
1{
1^
1x
1\
0a
1b
1`
0^
0b
#490000
0!
0"
0>
0V
0W
#492500
1!
1"
1>
1V
1W
17!
0.!
1/!
10!
1C
1D
0E
1]
05
16
17
0x
0\
1^
#495000
0!
0"
0>
0V
0W
#497500
1!
1"
1>
1V
1W
16!
07!
00!
0C
0_
0]
07
0{
0^
1x
1\
1a
1_
0`
1^
0a
1b
1`
0b
#500000
0!
0"
0>
0V
0W
#502500
1!
1"
1>
1V
1W
17!
0/!
10!
1C
0D
1k
1]
06
17
0x
0\
0_
0^
1a
0`
1b
#505000
0!
0"
0>
0V
0W
#507500
1!
1"
1>
1V
1W
14!
05!
06!
07!
00!
0C
0c
0a
0k
1_
0]
07
0!!
0b
1}
1`
1{
1^
1x
1\
1c
1d
1b
0`
0^
0d
#510000
0!
0"
0>
0V
0W
#512500
1!
1"
1>
1V
1W
17!
0-!
1.!
1/!
10!
1C
1D
1E
0F
1]
04
15
16
17
0x
0\
1^
#515000
0!
0"
0>
0V
0W
