projeto01/simulation/qsim/projeto01.msim.vcd
$comment
	File created using the following command:
		vcd file projeto01.msim.vcd -direction
$end
$date
	Fri Aug 02 21:03:12 2024
$end
$version
	ModelSim Version 10.5b
$end
$timescale
	1ps
$end

$scope module Timer_vlg_vec_tst $end
$var reg 1 ! clock $end
$var reg 7 " ref [6:0] $end
$var reg 1 # reset $end
$var wire 1 $ timeRemaining [6] $end
$var wire 1 % timeRemaining [5] $end
$var wire 1 & timeRemaining [4] $end
$var wire 1 ' timeRemaining [3] $end
$var wire 1 ( timeRemaining [2] $end
$var wire 1 ) timeRemaining [1] $end
$var wire 1 * timeRemaining [0] $end
$var wire 1 + trigger $end

$scope module i1 $end
$var wire 1 , gnd $end
$var wire 1 - vcc $end
$var wire 1 . unknown $end
$var tri1 1 / devclrn $end
$var tri1 1 0 devpor $end
$var tri1 1 1 devoe $end
$var wire 1 2 trigger~output_o $end
$var wire 1 3 timeRemaining[0]~output_o $end
$var wire 1 4 timeRemaining[1]~output_o $end
$var wire 1 5 timeRemaining[2]~output_o $end
$var wire 1 6 timeRemaining[3]~output_o $end
$var wire 1 7 timeRemaining[4]~output_o $end
$var wire 1 8 timeRemaining[5]~output_o $end
$var wire 1 9 timeRemaining[6]~output_o $end
$var wire 1 : clock~input_o $end
$var wire 1 ; clock~inputclkctrl_outclk $end
$var wire 1 < ref[6]~input_o $end
$var wire 1 = counter[0]~7_combout $end
$var wire 1 > reset~input_o $end
$var wire 1 ? reset~inputclkctrl_outclk $end
$var wire 1 @ counter[0]~8 $end
$var wire 1 A counter[1]~9_combout $end
$var wire 1 B counter[1]~10 $end
$var wire 1 C counter[2]~11_combout $end
$var wire 1 D counter[2]~12 $end
$var wire 1 E counter[3]~13_combout $end
$var wire 1 F counter[3]~14 $end
$var wire 1 G counter[4]~15_combout $end
$var wire 1 H counter[4]~16 $end
$var wire 1 I counter[5]~17_combout $end
$var wire 1 J counter[5]~18 $end
$var wire 1 K counter[6]~19_combout $end
$var wire 1 L Equal0~3_combout $end
$var wire 1 M ref[2]~input_o $end
$var wire 1 N ref[3]~input_o $end
$var wire 1 O Equal0~1_combout $end
$var wire 1 P ref[0]~input_o $end
$var wire 1 Q ref[1]~input_o $end
$var wire 1 R Equal0~0_combout $end
$var wire 1 S ref[5]~input_o $end
$var wire 1 T ref[4]~input_o $end
$var wire 1 U Equal0~2_combout $end
$var wire 1 V Equal0~4_combout $end
$var wire 1 W trigger~reg0_q $end
$var wire 1 X timeRemaining[0]~7_combout $end
$var wire 1 Y timeRemaining[0]~reg0_q $end
$var wire 1 Z timeRemaining[0]~8 $end
$var wire 1 [ timeRemaining[1]~9_combout $end
$var wire 1 \ timeRemaining[1]~reg0_q $end
$var wire 1 ] timeRemaining[1]~10 $end
$var wire 1 ^ timeRemaining[2]~11_combout $end
$var wire 1 _ timeRemaining[2]~reg0_q $end
$var wire 1 ` timeRemaining[2]~12 $end
$var wire 1 a timeRemaining[3]~13_combout $end
$var wire 1 b timeRemaining[3]~reg0_q $end
$var wire 1 c timeRemaining[3]~14 $end
$var wire 1 d timeRemaining[4]~15_combout $end
$var wire 1 e timeRemaining[4]~reg0_q $end
$var wire 1 f timeRemaining[4]~16 $end
$var wire 1 g timeRemaining[5]~17_combout $end
$var wire 1 h timeRemaining[5]~reg0_q $end
$var wire 1 i timeRemaining[5]~18 $end
$var wire 1 j timeRemaining[6]~19_combout $end
$var wire 1 k timeRemaining[6]~reg0_q $end
$var wire 1 l counter [6] $end
$var wire 1 m counter [5] $end
$var wire 1 n counter [4] $end
$var wire 1 o counter [3] $end
$var wire 1 p counter [2] $end
$var wire 1 q counter [1] $end
$var wire 1 r counter [0] $end
$upscope $end
$upscope $end
$enddefinitions $end
#0
$dumpvars
0!
b101 "
0#
0*
0)
0(
0'
0&
0%
0$
0+
0,
1-
x.
1/
10
11
02
03
04
05
06
07
08
09
0:
0;
0<
1=
0>
0?
0@
0A
1B
0C
0D
0E
1F
0G
0H
0I
1J
0K
0L
1M
0N
0O
1P
0Q
0R
0S
0T
1U
0V
0W
1X
0Y
1Z
0[
0\
0]
1^
0_
1`
0a
0b
0c
0d
0e
1f
0g
0h
0i
0j
0k
0r
0q
0p
0o
0n
0m
0l
$end
#5000
1!
1:
1;
1r
1_
1Y
13
15
1R
1@
1(
1*
0X
0=
1A
#10000
0!
0:
0;
#15000
1!
1:
1;
1q
0r
0Y
03
1]
0R
0B
0@
0*
1[
0A
1X
1=
1B
0^
1C
1A
0C
#20000
0!
0:
0;
#25000
1!
1:
1;
1r
0_
1\
1Y
13
14
05
1@
0(
1)
1*
0X
0=
0B
0A
1C
#30000
0!
0:
0;
#35000
1!
1:
1;
1p
0q
0r
0Y
03
0`
1O
1D
0]
1B
0@
0*
1^
0C
0[
1A
1X
1=
1c
1`
0D
1a
1E
0^
1C
0A
0f
0c
1d
0a
0E
1i
1f
1g
0d
0i
1j
0g
0j
#40000
0!
0:
0;
#45000
1!
1:
1;
1r
0\
1Y
13
04
1R
1@
0)
1*
0X
0=
1V
1A
#50000
0!
0:
0;
#55000
1!
1:
1;
0p
0r
0Y
1W
12
03
0O
0R
0@
0*
1+
1^
0C
1X
1=
0V
0A
#60000
0!
0:
0;
#65000
1!
1:
1;
1r
1_
1Y
0W
02
13
15
1R
1@
1(
1*
0+
0X
0=
1A
#70000
0!
0:
0;
#75000
1!
1:
1;
1q
0r
0Y
03
1]
0R
0B
0@
0*
1[
0A
1X
1=
1B
0^
1C
1A
0C
#80000
0!
0:
0;
#85000
1!
1:
1;
1r
0_
1\
1Y
13
14
05
1@
0(
1)
1*
0X
0=
0B
0A
1C
#90000
0!
0:
0;
#95000
1!
1:
1;
1p
0q
0r
0Y
03
0`
1O
1D
0]
1B
0@
0*
1^
0C
0[
1A
1X
1=
1c
1`
0D
1a
1E
0^
1C
0A
0f
0c
1d
0a
0E
1i
1f
1g
0d
0i
1j
0g
0j
#100000
0!
0:
0;
#105000
1!
1:
1;
1r
0\
1Y
13
04
1R
1@
0)
1*
0X
0=
1V
1A
#110000
0!
0:
0;
#115000
1!
1:
1;
0p
0r
0Y
1W
12
03
0O
0R
0@
0*
1+
1^
0C
1X
1=
0V
0A
#120000
0!
0:
0;
#125000
1!
1:
1;
1r
1_
1Y
0W
02
13
15
1R
1@
1(
1*
0+
0X
0=
1A
#130000
0!
0:
0;
#135000
1!
1:
1;
1q
0r
0Y
03
1]
0R
0B
0@
0*
1[
0A
1X
1=
1B
0^
1C
1A
0C
#140000
0!
0:
0;
#145000
1!
1:
1;
1r
0_
1\
1Y
13
14
05
1@
0(
1)
1*
0X
0=
0B
0A
1C
#150000
0!
0:
0;
#155000
1!
1:
1;
1p
0q
0r
0Y
03
0`
1O
1D
0]
1B
0@
0*
1^
0C
0[
1A
1X
1=
1c
1`
0D
1a
1E
0^
1C
0A
0f
0c
1d
0a
0E
1i
1f
1g
0d
0i
1j
0g
0j
#160000
0!
0:
0;
#165000
1!
1:
1;
1r
0\
1Y
13
04
1R
1@
0)
1*
0X
0=
1V
1A
#170000
0!
0:
0;
#175000
1!
1:
1;
0p
0r
0Y
1W
12
03
0O
0R
0@
0*
1+
1^
0C
1X
1=
0V
0A
#180000
0!
0:
0;
#185000
1!
1:
1;
1r
1_
1Y
0W
02
13
15
1R
1@
1(
1*
0+
0X
0=
1A
#190000
0!
0:
0;
#195000
1!
1:
1;
1q
0r
0Y
03
1]
0R
0B
0@
0*
1[
0A
1X
1=
1B
0^
1C
1A
0C
#200000
0!
0:
0;
#205000
1!
1:
1;
1r
0_
1\
1Y
13
14
05
1@
0(
1)
1*
0X
0=
0B
0A
1C
#210000
0!
0:
0;
#215000
1!
1:
1;
1p
0q
0r
0Y
03
0`
1O
1D
0]
1B
0@
0*
1^
0C
0[
1A
1X
1=
1c
1`
0D
1a
1E
0^
1C
0A
0f
0c
1d
0a
0E
1i
1f
1g
0d
0i
1j
0g
0j
#220000
0!
0:
0;
#225000
1!
1:
1;
1r
0\
1Y
13
04
1R
1@
0)
1*
0X
0=
1V
1A
#230000
0!
0:
0;
#235000
1!
1:
1;
0p
0r
0Y
1W
12
03
0O
0R
0@
0*
1+
1^
0C
1X
1=
0V
0A
#240000
0!
0:
0;
#245000
1!
1:
1;
1r
1_
1Y
0W
02
13
15
1R
1@
1(
1*
0+
0X
0=
1A
#250000
0!
0:
0;
#255000
1!
1:
1;
1q
0r
0Y
03
1]
0R
0B
0@
0*
1[
0A
1X
1=
1B
0^
1C
1A
0C
#260000
0!
0:
0;
#265000
1!
1:
1;
1r
0_
1\
1Y
13
14
05
1@
0(
1)
1*
0X
0=
0B
0A
1C
#270000
0!
0:
0;
#275000
1!
1:
1;
1p
0q
0r
0Y
03
0`
1O
1D
0]
1B
0@
0*
1^
0C
0[
1A
1X
1=
1c
1`
0D
1a
1E
0^
1C
0A
0f
0c
1d
0a
0E
1i
1f
1g
0d
0i
1j
0g
0j
#280000
0!
0:
0;
#285000
1!
1:
1;
1r
0\
1Y
13
04
1R
1@
0)
1*
0X
0=
1V
1A
#290000
1#
0!
1>
0:
1?
0;
0r
0p
0R
0@
0O
1X
1=
1^
0C
0V
0A
#295000
1!
1:
1;
#300000
0!
0:
0;
#305000
1!
1:
1;
#310000
0!
0:
0;
#315000
1!
1:
1;
#320000
0#
0!
0>
0:
0?
0;
#325000
1!
1:
1;
1r
1_
15
1R
1@
1(
0X
0=
1A
#330000
0!
0:
0;
#335000
1!
1:
1;
1q
0r
0Y
03
1]
0R
0B
0@
0*
1[
0A
1X
1=
1B
0^
1C
1A
0C
#340000
0!
0:
0;
#345000
1!
1:
1;
1r
0_
1\
1Y
13
14
05
1@
0(
1)
1*
0X
0=
0B
0A
1C
#350000
0!
0:
0;
#355000
1!
1:
1;
1p
0q
0r
0Y
03
0`
1O
1D
0]
1B
0@
0*
1^
0C
0[
1A
1X
1=
1c
1`
0D
1a
1E
0^
1C
0A
0f
0c
1d
0a
0E
1i
1f
1g
0d
0i
1j
0g
0j
#360000
0!
0:
0;
#365000
1!
1:
1;
1r
0\
1Y
13
04
1R
1@
0)
1*
0X
0=
1V
1A
#370000
0!
0:
0;
#375000
1!
1:
1;
0p
0r
0Y
1W
12
03
0O
0R
0@
0*
1+
1^
0C
1X
1=
0V
0A
#380000
0!
0:
0;
#385000
1!
1:
1;
1r
1_
1Y
0W
02
13
15
1R
1@
1(
1*
0+
0X
0=
1A
#390000
0!
0:
0;
#395000
1!
1:
1;
1q
0r
0Y
03
1]
0R
0B
0@
0*
1[
0A
1X
1=
1B
0^
1C
1A
0C
#400000
0!
0:
0;
#405000
1!
1:
1;
1r
0_
1\
1Y
13
14
05
1@
0(
1)
1*
0X
0=
0B
0A
1C
#410000
0!
0:
0;
#415000
1!
1:
1;
1p
0q
0r
0Y
03
0`
1O
1D
0]
1B
0@
0*
1^
0C
0[
1A
1X
1=
1c
1`
0D
1a
1E
0^
1C
0A
0f
0c
1d
0a
0E
1i
1f
1g
0d
0i
1j
0g
0j
#420000
0!
0:
0;
#425000
1!
1:
1;
1r
0\
1Y
13
04
1R
1@
0)
1*
0X
0=
1V
1A
#430000
0!
0:
0;
#435000
1!
1:
1;
0p
0r
0Y
1W
12
03
0O
0R
0@
0*
1+
1^
0C
1X
1=
0V
0A
#440000
0!
0:
0;
#445000
1!
1:
1;
1r
1_
1Y
0W
02
13
15
1R
1@
1(
1*
0+
0X
0=
1A
#450000
0!
0:
0;
#455000
1!
1:
1;
1q
0r
0Y
03
1]
0R
0B
0@
0*
1[
0A
1X
1=
1B
0^
1C
1A
0C
#460000
0!
0:
0;
#465000
1!
1:
1;
1r
0_
1\
1Y
13
14
05
1@
0(
1)
1*
0X
0=
0B
0A
1C
#470000
0!
0:
0;
#475000
1!
1:
1;
1p
0q
0r
0Y
03
0`
1O
1D
0]
1B
0@
0*
1^
0C
0[
1A
1X
1=
1c
1`
0D
1a
1E
0^
1C
0A
0f
0c
1d
0a
0E
1i
1f
1g
0d
0i
1j
0g
0j
#480000
0!
0:
0;
#485000
1!
1:
1;
1r
0\
1Y
13
04
1R
1@
0)
1*
0X
0=
1V
1A
#490000
0!
0:
0;
#495000
1!
1:
1;
0p
0r
0Y
1W
12
03
0O
0R
0@
0*
1+
1^
0C
1X
1=
0V
0A
#500000
0!
0:
0;
#505000
1!
1:
1;
1r
1_
1Y
0W
02
13
15
1R
1@
1(
1*
0+
0X
0=
1A
#510000
0!
0:
0;
#515000
1!
1:
1;
1q
0r
0Y
03
1]
0R
0B
0@
0*
1[
0A
1X
1=
1B
0^
1C
1A
0C
#520000
0!
0:
0;
#525000
1!
1:
1;
1r
0_
1\
1Y
13
14
05
1@
0(
1)
1*
0X
0=
0B
0A
1C
#530000
0!
0:
0;
#535000
1!
1:
1;
1p
0q
0r
0Y
03
0`
1O
1D
0]
1B
0@
0*
1^
0C
0[
1A
1X
1=
1c
1`
0D
1a
1E
0^
1C
0A
0f
0c
1d
0a
0E
1i
1f
1g
0d
0i
1j
0g
0j
#540000
0!
0:
0;
#545000
1!
1:
1;
1r
0\
1Y
13
04
1R
1@
0)
1*
0X
0=
1V
1A
#550000
0!
0:
0;
#555000
1!
1:
1;
0p
0r
0Y
1W
12
03
0O
0R
0@
0*
1+
1^
0C
1X
1=
0V
0A
#560000
0!
0:
0;
#565000
1!
1:
1;
1r
1_
1Y
0W
02
13
15
1R
1@
1(
1*
0+
0X
0=
1A
#570000
0!
0:
0;
#575000
1!
1:
1;
1q
0r
0Y
03
1]
0R
0B
0@
0*
1[
0A
1X
1=
1B
0^
1C
1A
0C
#580000
0!
0:
0;
#585000
1!
1:
1;
1r
0_
1\
1Y
13
14
05
1@
0(
1)
1*
0X
0=
0B
0A
1C
#590000
0!
0:
0;
#595000
1!
1:
1;
1p
0q
0r
0Y
03
0`
1O
1D
0]
1B
0@
0*
1^
0C
0[
1A
1X
1=
1c
1`
0D
1a
1E
0^
1C
0A
0f
0c
1d
0a
0E
1i
1f
1g
0d
0i
1j
0g
0j
#600000
0!
0:
0;
#605000
1!
1:
1;
1r
0\
1Y
13
04
1R
1@
0)
1*
0X
0=
1V
1A
#610000
0!
0:
0;
#615000
1!
1:
1;
0p
0r
0Y
1W
12
03
0O
0R
0@
0*
1+
1^
0C
1X
1=
0V
0A
#620000
0!
0:
0;
#625000
1!
1:
1;
1r
1_
1Y
0W
02
13
15
1R
1@
1(
1*
0+
0X
0=
1A
#630000
0!
0:
0;
#635000
1!
1:
1;
1q
0r
0Y
03
1]
0R
0B
0@
0*
1[
0A
1X
1=
1B
0^
1C
1A
0C
#640000
0!
0:
0;
#645000
1!
1:
1;
1r
0_
1\
1Y
13
14
05
1@
0(
1)
1*
0X
0=
0B
0A
1C
#650000
0!
0:
0;
#655000
1!
1:
1;
1p
0q
0r
0Y
03
0`
1O
1D
0]
1B
0@
0*
1^
0C
0[
1A
1X
1=
1c
1`
0D
1a
1E
0^
1C
0A
0f
0c
1d
0a
0E
1i
1f
1g
0d
0i
1j
0g
0j
#660000
0!
0:
0;
#665000
1!
1:
1;
1r
0\
1Y
13
04
1R
1@
0)
1*
0X
0=
1V
1A
#670000
0!
0:
0;
#675000
1!
1:
1;
0p
0r
0Y
1W
12
03
0O
0R
0@
0*
1+
1^
0C
1X
1=
0V
0A
#680000
0!
0:
0;
#685000
1!
1:
1;
1r
1_
1Y
0W
02
13
15
1R
1@
1(
1*
0+
0X
0=
1A
#690000
0!
0:
0;
#695000
1!
1:
1;
1q
0r
0Y
03
1]
0R
0B
0@
0*
1[
0A
1X
1=
1B
0^
1C
1A
0C
#700000
0!
0:
0;
#705000
1!
1:
1;
1r
0_
1\
1Y
13
14
05
1@
0(
1)
1*
0X
0=
0B
0A
1C
#710000
0!
0:
0;
#715000
1!
1:
1;
1p
0q
0r
0Y
03
0`
1O
1D
0]
1B
0@
0*
1^
0C
0[
1A
1X
1=
1c
1`
0D
1a
1E
0^
1C
0A
0f
0c
1d
0a
0E
1i
1f
1g
0d
0i
1j
0g
0j
#720000
0!
0:
0;
#725000
1!
1:
1;
1r
0\
1Y
13
04
1R
1@
0)
1*
0X
0=
1V
1A
#730000
0!
0:
0;
#735000
1!
1:
1;
0p
0r
0Y
1W
12
03
0O
0R
0@
0*
1+
1^
0C
1X
1=
0V
0A
#740000
0!
0:
0;
#745000
1!
1:
1;
1r
1_
1Y
0W
02
13
15
1R
1@
1(
1*
0+
0X
0=
1A
#750000
0!
0:
0;
#755000
1!
1:
1;
1q
0r
0Y
03
1]
0R
0B
0@
0*
1[
0A
1X
1=
1B
0^
1C
1A
0C
#760000
0!
0:
0;
#765000
1!
1:
1;
1r
0_
1\
1Y
13
14
05
1@
0(
1)
1*
0X
0=
0B
0A
1C
#770000
0!
0:
0;
#775000
1!
1:
1;
1p
0q
0r
0Y
03
0`
1O
1D
0]
1B
0@
0*
1^
0C
0[
1A
1X
1=
1c
1`
0D
1a
1E
0^
1C
0A
0f
0c
1d
0a
0E
1i
1f
1g
0d
0i
1j
0g
0j
#780000
0!
0:
0;
#785000
1!
1:
1;
1r
0\
1Y
13
04
1R
1@
0)
1*
0X
0=
1V
1A
#790000
0!
0:
0;
#795000
1!
1:
1;
0p
0r
0Y
1W
12
03
0O
0R
0@
0*
1+
1^
0C
1X
1=
0V
0A
#800000
0!
0:
0;
#805000
1!
1:
1;
1r
1_
1Y
0W
02
13
15
1R
1@
1(
1*
0+
0X
0=
1A
#810000
0!
0:
0;
#815000
1!
1:
1;
1q
0r
0Y
03
1]
0R
0B
0@
0*
1[
0A
1X
1=
1B
0^
1C
1A
0C
#820000
0!
0:
0;
#825000
1!
1:
1;
1r
0_
1\
1Y
13
14
05
1@
0(
1)
1*
0X
0=
0B
0A
1C
#830000
0!
0:
0;
#835000
1!
1:
1;
1p
0q
0r
0Y
03
0`
1O
1D
0]
1B
0@
0*
1^
0C
0[
1A
1X
1=
1c
1`
0D
1a
1E
0^
1C
0A
0f
0c
1d
0a
0E
1i
1f
1g
0d
0i
1j
0g
0j
#840000
0!
0:
0;
#845000
1!
1:
1;
1r
0\
1Y
13
04
1R
1@
0)
1*
0X
0=
1V
1A
#850000
0!
0:
0;
#855000
1!
1:
1;
0p
0r
0Y
1W
12
03
0O
0R
0@
0*
1+
1^
0C
1X
1=
0V
0A
#860000
0!
0:
0;
#865000
1!
1:
1;
1r
1_
1Y
0W
02
13
15
1R
1@
1(
1*
0+
0X
0=
1A
#870000
0!
0:
0;
#875000
1!
1:
1;
1q
0r
0Y
03
1]
0R
0B
0@
0*
1[
0A
1X
1=
1B
0^
1C
1A
0C
#880000
0!
0:
0;
#885000
1!
1:
1;
1r
0_
1\
1Y
13
14
05
1@
0(
1)
1*
0X
0=
0B
0A
1C
#890000
0!
0:
0;
#895000
1!
1:
1;
1p
0q
0r
0Y
03
0`
1O
1D
0]
1B
0@
0*
1^
0C
0[
1A
1X
1=
1c
1`
0D
1a
1E
0^
1C
0A
0f
0c
1d
0a
0E
1i
1f
1g
0d
0i
1j
0g
0j
#900000
0!
0:
0;
#905000
1!
1:
1;
1r
0\
1Y
13
04
1R
1@
0)
1*
0X
0=
1V
1A
#910000
0!
0:
0;
#915000
1!
1:
1;
0p
0r
0Y
1W
12
03
0O
0R
0@
0*
1+
1^
0C
1X
1=
0V
0A
#920000
0!
0:
0;
#925000
1!
1:
1;
1r
1_
1Y
0W
02
13
15
1R
1@
1(
1*
0+
0X
0=
1A
#930000
0!
0:
0;
#935000
1!
1:
1;
1q
0r
0Y
03
1]
0R
0B
0@
0*
1[
0A
1X
1=
1B
0^
1C
1A
0C
#940000
0!
0:
0;
#945000
1!
1:
1;
1r
0_
1\
1Y
13
14
05
1@
0(
1)
1*
0X
0=
0B
0A
1C
#950000
0!
0:
0;
#955000
1!
1:
1;
1p
0q
0r
0Y
03
0`
1O
1D
0]
1B
0@
0*
1^
0C
0[
1A
1X
1=
1c
1`
0D
1a
1E
0^
1C
0A
0f
0c
1d
0a
0E
1i
1f
1g
0d
0i
1j
0g
0j
#960000
0!
0:
0;
#965000
1!
1:
1;
1r
0\
1Y
13
04
1R
1@
0)
1*
0X
0=
1V
1A
#970000
0!
0:
0;
#975000
1!
1:
1;
0p
0r
0Y
1W
12
03
0O
0R
0@
0*
1+
1^
0C
1X
1=
0V
0A
#980000
0!
0:
0;
#985000
1!
1:
1;
1r
1_
1Y
0W
02
13
15
1R
1@
1(
1*
0+
0X
0=
1A
#990000
0!
0:
0;
#995000
1!
1:
1;
1q
0r
0Y
03
1]
0R
0B
0@
0*
1[
0A
1X
1=
1B
0^
1C
1A
0C
