projeto01/simulation/qsim/projeto01.msim.vcd
$comment
	File created using the following command:
		vcd file projeto01.msim.vcd -direction
$end
$date
	Wed Aug 14 16:53:14 2024
$end
$version
	ModelSim Version 10.5b
$end
$timescale
	1ps
$end

$scope module keypadEncoder2_vlg_vec_tst $end
$var reg 1 ! clk $end
$var reg 3 " col [2:0] $end
$var reg 1 # reset $end
$var reg 4 $ rowHacked [3:0] $end
$var wire 1 % d [3] $end
$var wire 1 & d [2] $end
$var wire 1 ' d [1] $end
$var wire 1 ( d [0] $end
$var wire 1 ) dav $end
$var wire 1 * row [3] $end
$var wire 1 + row [2] $end
$var wire 1 , row [1] $end
$var wire 1 - row [0] $end

$scope module i1 $end
$var wire 1 . gnd $end
$var wire 1 / vcc $end
$var wire 1 0 unknown $end
$var tri1 1 1 devclrn $end
$var tri1 1 2 devpor $end
$var tri1 1 3 devoe $end
$var wire 1 4 d[0]~output_o $end
$var wire 1 5 d[1]~output_o $end
$var wire 1 6 d[2]~output_o $end
$var wire 1 7 d[3]~output_o $end
$var wire 1 8 row[0]~output_o $end
$var wire 1 9 row[1]~output_o $end
$var wire 1 : row[2]~output_o $end
$var wire 1 ; row[3]~output_o $end
$var wire 1 < dav~output_o $end
$var wire 1 = col[2]~input_o $end
$var wire 1 > col[0]~input_o $end
$var wire 1 ? col[1]~input_o $end
$var wire 1 @ Decoder1~0_combout $end
$var wire 1 A Decoder1~1_combout $end
$var wire 1 B rowHacked[1]~input_o $end
$var wire 1 C rowHacked[3]~input_o $end
$var wire 1 D rowHacked[0]~input_o $end
$var wire 1 E rowHacked[2]~input_o $end
$var wire 1 F data~0_combout $end
$var wire 1 G data~1_combout $end
$var wire 1 H WideOr4~0_combout $end
$var wire 1 I WideOr0~0_combout $end
$var wire 1 J WideOr3~0_combout $end
$var wire 1 K WideOr2~0_combout $end
$var wire 1 L WideOr1~0_combout $end
$var wire 1 M clk~input_o $end
$var wire 1 N clk~inputclkctrl_outclk $end
$var wire 1 O ring.1101~0_combout $end
$var wire 1 P reset~input_o $end
$var wire 1 Q ring.1101~q $end
$var wire 1 R ring.1011~feeder_combout $end
$var wire 1 S ring.1011~q $end
$var wire 1 T ring.0111~feeder_combout $end
$var wire 1 U ring.0111~q $end
$var wire 1 V ring.1110~0_combout $end
$var wire 1 W ring.1110~q $end
$upscope $end
$upscope $end
$enddefinitions $end
#0
$dumpvars
0!
b111 "
1#
b111 $
z(
z'
z&
z%
0)
0-
1,
1+
1*
0.
1/
x0
11
12
13
z4
z5
z6
z7
08
19
1:
1;
0<
1=
1>
1?
0@
0A
1B
0C
1D
1E
1F
1G
0H
0I
0J
0K
0L
0M
0N
1O
1P
0Q
0R
0S
0T
0U
1V
0W
$end
#5000
1!
1M
1N
#10000
0!
0M
0N
#15000
1!
1M
1N
#20000
0!
0M
0N
#25000
1!
1M
1N
#30000
0!
0M
0N
#35000
1!
1M
1N
#40000
0!
0M
0N
#45000
1!
1M
1N
#50000
0#
0!
0P
0M
0N
#55000
1!
1M
1N
1Q
1W
18
09
0,
1-
1R
0O
#60000
0!
0M
0N
#65000
1!
1M
1N
1S
0Q
19
0:
0+
1,
1T
0R
#70000
0!
0M
0N
#75000
1!
1M
1N
1U
0S
1:
0;
0*
1+
0V
0T
#80000
0!
0M
0N
#85000
1!
1M
1N
0U
0W
08
1;
1*
0-
1V
1O
#90000
0!
0M
0N
#95000
1!
1M
1N
1Q
1W
18
09
0,
1-
1R
0O
#100000
0!
0M
0N
#105000
1!
1M
1N
1S
0Q
19
0:
0+
1,
1T
0R
#110000
0!
0M
0N
#115000
1!
1M
1N
1U
0S
1:
0;
0*
1+
0V
0T
#120000
0!
0M
0N
#125000
1!
1M
1N
0U
0W
08
1;
1*
0-
1V
1O
#130000
0!
0M
0N
#135000
1!
1M
1N
1Q
1W
18
09
0,
1-
1R
0O
#140000
0!
0M
0N
#145000
1!
1M
1N
1S
0Q
19
0:
0+
1,
1T
0R
#150000
0!
0M
0N
#155000
1!
1M
1N
1U
0S
1:
0;
0*
1+
0V
0T
#160000
0!
0M
0N
#165000
1!
1M
1N
0U
0W
08
1;
1*
0-
1V
1O
#170000
0!
0M
0N
#175000
1!
1M
1N
1Q
1W
18
09
0,
1-
1R
0O
#180000
0!
0M
0N
#185000
1!
1M
1N
1S
0Q
19
0:
0+
1,
1T
0R
#190000
0!
0M
0N
#195000
1!
1M
1N
1U
0S
1:
0;
0*
1+
0V
0T
#200000
b11 "
0!
0=
0M
0N
1A
1I
04
05
06
07
1<
1)
0%
0&
0'
0(
1L
1K
1J
1H
14
15
16
17
1%
1&
1'
1(
#205000
1!
1M
1N
#210000
0!
0M
0N
#215000
1!
1M
1N
#220000
0!
0M
0N
#225000
1!
1M
1N
#230000
0!
0M
0N
#235000
1!
1M
1N
#240000
b111 "
0!
1=
0M
0N
0A
0I
z4
z5
z6
z7
0<
0)
z%
z&
z'
z(
0L
0K
0J
0H
#245000
1!
1M
1N
0U
0W
08
1;
1*
0-
1V
1O
#250000
0!
0M
0N
#255000
1!
1M
1N
1Q
1W
18
09
0,
1-
1R
0O
#260000
0!
0M
0N
#265000
1!
1M
1N
1S
0Q
19
0:
0+
1,
1T
0R
#270000
0!
0M
0N
#275000
1!
1M
1N
1U
0S
1:
0;
0*
1+
0V
0T
#280000
0!
0M
0N
#285000
1!
1M
1N
0U
0W
08
1;
1*
0-
1V
1O
#290000
0!
0M
0N
#295000
1!
1M
1N
1Q
1W
18
09
0,
1-
1R
0O
#300000
0!
0M
0N
#305000
1!
1M
1N
1S
0Q
19
0:
0+
1,
1T
0R
#310000
0!
0M
0N
#315000
1!
1M
1N
1U
0S
1:
0;
0*
1+
0V
0T
#320000
0!
0M
0N
#325000
1!
1M
1N
0U
0W
08
1;
1*
0-
1V
1O
#330000
0!
0M
0N
#335000
1!
1M
1N
1Q
1W
18
09
0,
1-
1R
0O
#340000
0!
0M
0N
#345000
1!
1M
1N
1S
0Q
19
0:
0+
1,
1T
0R
#350000
0!
0M
0N
#355000
1!
1M
1N
1U
0S
1:
0;
0*
1+
0V
0T
#360000
0!
0M
0N
#365000
1!
1M
1N
0U
0W
08
1;
1*
0-
1V
1O
#370000
0!
0M
0N
#375000
1!
1M
1N
1Q
1W
18
09
0,
1-
1R
0O
#380000
0!
0M
0N
#385000
1!
1M
1N
1S
0Q
19
0:
0+
1,
1T
0R
#390000
0!
0M
0N
#395000
1!
1M
1N
1U
0S
1:
0;
0*
1+
0V
0T
#400000
0!
0M
0N
#405000
1!
1M
1N
0U
0W
08
1;
1*
0-
1V
1O
#410000
0!
0M
0N
#415000
1!
1M
1N
1Q
1W
18
09
0,
1-
1R
0O
#420000
0!
0M
0N
#425000
1!
1M
1N
1S
0Q
19
0:
0+
1,
1T
0R
#430000
0!
0M
0N
#435000
1!
1M
1N
1U
0S
1:
0;
0*
1+
0V
0T
#440000
0!
0M
0N
#445000
1!
1M
1N
0U
0W
08
1;
1*
0-
1V
1O
#450000
0!
0M
0N
#455000
1!
1M
1N
1Q
1W
18
09
0,
1-
1R
0O
#460000
0!
0M
0N
#465000
1!
1M
1N
1S
0Q
19
0:
0+
1,
1T
0R
#470000
0!
0M
0N
#475000
1!
1M
1N
1U
0S
1:
0;
0*
1+
0V
0T
#480000
0!
0M
0N
#485000
1!
1M
1N
0U
0W
08
1;
1*
0-
1V
1O
#490000
0!
0M
0N
#495000
1!
1M
1N
1Q
1W
18
09
0,
1-
1R
0O
#500000
0!
0M
0N
#505000
1!
1M
1N
1S
0Q
19
0:
0+
1,
1T
0R
#510000
0!
0M
0N
#515000
1!
1M
1N
1U
0S
1:
0;
0*
1+
0V
0T
#520000
0!
0M
0N
#525000
1!
1M
1N
0U
0W
08
1;
1*
0-
1V
1O
#530000
0!
0M
0N
#535000
1!
1M
1N
1Q
1W
18
09
0,
1-
1R
0O
#540000
0!
0M
0N
#545000
1!
1M
1N
1S
0Q
19
0:
0+
1,
1T
0R
#550000
0!
0M
0N
#555000
1!
1M
1N
1U
0S
1:
0;
0*
1+
0V
0T
#560000
0!
0M
0N
#565000
1!
1M
1N
0U
0W
08
1;
1*
0-
1V
1O
#570000
0!
0M
0N
#575000
1!
1M
1N
1Q
1W
18
09
0,
1-
1R
0O
#580000
0!
0M
0N
#585000
1!
1M
1N
1S
0Q
19
0:
0+
1,
1T
0R
#590000
0!
0M
0N
#595000
1!
1M
1N
1U
0S
1:
0;
0*
1+
0V
0T
#600000
0!
0M
0N
#605000
1!
1M
1N
0U
0W
08
1;
1*
0-
1V
1O
#610000
0!
0M
0N
#615000
1!
1M
1N
1Q
1W
18
09
0,
1-
1R
0O
#620000
0!
0M
0N
#625000
1!
1M
1N
1S
0Q
19
0:
0+
1,
1T
0R
#630000
0!
0M
0N
#635000
1!
1M
1N
1U
0S
1:
0;
0*
1+
0V
0T
#640000
0!
0M
0N
#645000
1!
1M
1N
0U
0W
08
1;
1*
0-
1V
1O
#650000
0!
0M
0N
#655000
1!
1M
1N
1Q
1W
18
09
0,
1-
1R
0O
#660000
0!
0M
0N
#665000
1!
1M
1N
1S
0Q
19
0:
0+
1,
1T
0R
#670000
0!
0M
0N
#675000
1!
1M
1N
1U
0S
1:
0;
0*
1+
0V
0T
#680000
0!
0M
0N
#685000
1!
1M
1N
0U
0W
08
1;
1*
0-
1V
1O
#690000
0!
0M
0N
#695000
1!
1M
1N
1Q
1W
18
09
0,
1-
1R
0O
#700000
0!
0M
0N
#705000
1!
1M
1N
1S
0Q
19
0:
0+
1,
1T
0R
#710000
0!
0M
0N
#715000
1!
1M
1N
1U
0S
1:
0;
0*
1+
0V
0T
#720000
0!
0M
0N
#725000
1!
1M
1N
0U
0W
08
1;
1*
0-
1V
1O
#730000
0!
0M
0N
#735000
1!
1M
1N
1Q
1W
18
09
0,
1-
1R
0O
#740000
0!
0M
0N
#745000
1!
1M
1N
1S
0Q
19
0:
0+
1,
1T
0R
#750000
0!
0M
0N
#755000
1!
1M
1N
1U
0S
1:
0;
0*
1+
0V
0T
#760000
0!
0M
0N
#765000
1!
1M
1N
0U
0W
08
1;
1*
0-
1V
1O
#770000
0!
0M
0N
#775000
1!
1M
1N
1Q
1W
18
09
0,
1-
1R
0O
#780000
0!
0M
0N
#785000
1!
1M
1N
1S
0Q
19
0:
0+
1,
1T
0R
#790000
0!
0M
0N
#795000
1!
1M
1N
1U
0S
1:
0;
0*
1+
0V
0T
#800000
0!
0M
0N
#805000
1!
1M
1N
0U
0W
08
1;
1*
0-
1V
1O
#810000
0!
0M
0N
#815000
1!
1M
1N
1Q
1W
18
09
0,
1-
1R
0O
#820000
0!
0M
0N
#825000
1!
1M
1N
1S
0Q
19
0:
0+
1,
1T
0R
#830000
0!
0M
0N
#835000
1!
1M
1N
1U
0S
1:
0;
0*
1+
0V
0T
#840000
0!
0M
0N
#845000
1!
1M
1N
0U
0W
08
1;
1*
0-
1V
1O
#850000
0!
0M
0N
#855000
1!
1M
1N
1Q
1W
18
09
0,
1-
1R
0O
#860000
0!
0M
0N
#865000
1!
1M
1N
1S
0Q
19
0:
0+
1,
1T
0R
#870000
0!
0M
0N
#875000
1!
1M
1N
1U
0S
1:
0;
0*
1+
0V
0T
#880000
0!
0M
0N
#885000
1!
1M
1N
0U
0W
08
1;
1*
0-
1V
1O
#890000
0!
0M
0N
#895000
1!
1M
1N
1Q
1W
18
09
0,
1-
1R
0O
#900000
0!
0M
0N
#905000
1!
1M
1N
1S
0Q
19
0:
0+
1,
1T
0R
#910000
0!
0M
0N
#915000
1!
1M
1N
1U
0S
1:
0;
0*
1+
0V
0T
#920000
0!
0M
0N
#925000
1!
1M
1N
0U
0W
08
1;
1*
0-
1V
1O
#930000
0!
0M
0N
#935000
1!
1M
1N
1Q
1W
18
09
0,
1-
1R
0O
#940000
0!
0M
0N
#945000
1!
1M
1N
1S
0Q
19
0:
0+
1,
1T
0R
#950000
0!
0M
0N
#955000
1!
1M
1N
1U
0S
1:
0;
0*
1+
0V
0T
#960000
0!
0M
0N
#965000
1!
1M
1N
0U
0W
08
1;
1*
0-
1V
1O
#970000
0!
0M
0N
#975000
1!
1M
1N
1Q
1W
18
09
0,
1-
1R
0O
#980000
0!
0M
0N
#985000
1!
1M
1N
1S
0Q
19
0:
0+
1,
1T
0R
#990000
0!
0M
0N
#995000
1!
1M
1N
1U
0S
1:
0;
0*
1+
0V
0T
