projeto01/simulation/qsim/projeto01.msim.vcd
$comment
	File created using the following command:
		vcd file projeto01.msim.vcd -direction
$end
$date
	Fri Aug 02 21:18:20 2024
$end
$version
	ModelSim Version 10.5b
$end
$timescale
	1ps
$end

$scope module Concatener_vlg_vec_tst $end
$var reg 4 ! ten [3:0] $end
$var reg 4 " unit [3:0] $end
$var wire 1 # dout [6] $end
$var wire 1 $ dout [5] $end
$var wire 1 % dout [4] $end
$var wire 1 & dout [3] $end
$var wire 1 ' dout [2] $end
$var wire 1 ( dout [1] $end
$var wire 1 ) dout [0] $end

$scope module i1 $end
$var wire 1 * gnd $end
$var wire 1 + vcc $end
$var wire 1 , unknown $end
$var tri1 1 - devclrn $end
$var tri1 1 . devpor $end
$var tri1 1 / devoe $end
$var wire 1 0 dout[0]~output_o $end
$var wire 1 1 dout[1]~output_o $end
$var wire 1 2 dout[2]~output_o $end
$var wire 1 3 dout[3]~output_o $end
$var wire 1 4 dout[4]~output_o $end
$var wire 1 5 dout[5]~output_o $end
$var wire 1 6 dout[6]~output_o $end
$var wire 1 7 unit[0]~input_o $end
$var wire 1 8 ten[0]~input_o $end
$var wire 1 9 unit[1]~input_o $end
$var wire 1 : Add1~0_combout $end
$var wire 1 ; unit[2]~input_o $end
$var wire 1 < ten[1]~input_o $end
$var wire 1 = Add1~1 $end
$var wire 1 > Add1~2_combout $end
$var wire 1 ? unit[3]~input_o $end
$var wire 1 @ ten[2]~input_o $end
$var wire 1 A Add0~0_combout $end
$var wire 1 B Add1~3 $end
$var wire 1 C Add1~4_combout $end
$var wire 1 D ten[3]~input_o $end
$var wire 1 E Add0~1_combout $end
$var wire 1 F Add1~5 $end
$var wire 1 G Add1~6_combout $end
$var wire 1 H Add0~2_combout $end
$var wire 1 I Add1~7 $end
$var wire 1 J Add1~8_combout $end
$var wire 1 K Add0~3_combout $end
$var wire 1 L Add1~9 $end
$var wire 1 M Add1~10_combout $end
$upscope $end
$upscope $end
$enddefinitions $end
#0
$dumpvars
b1 !
b0 "
0)
1(
0'
1&
0%
0$
0#
0*
1+
x,
1-
1.
1/
00
11
02
13
04
05
06
07
18
09
1:
0;
0<
0=
0>
0?
0@
1A
1B
1C
0D
0E
0F
0G
0H
1I
0J
0K
0L
0M
$end
#125000
b11 !
b10 !
08
1<
1E
0A
0:
1>
12
01
0(
1'
1G
0C
03
14
1%
0&
#250000
b1 "
b11 !
18
17
10
1A
1)
1:
11
1(
1C
13
1&
#375000
b111 !
b101 !
b100 !
08
0<
1@
0E
0:
0>
1J
15
02
01
0(
0'
1$
0G
04
0%
#500000
b11 "
b10 "
b101 !
18
19
07
00
1E
0A
1=
0)
1G
0C
1>
12
03
14
1%
0&
1'
#625000
b111 !
b110 !
08
1<
1A
0=
0B
1:
0>
02
11
1F
1B
1(
0'
1>
12
0I
0F
1'
0G
1C
13
04
1L
1I
0%
1&
0J
1G
14
05
0L
0$
1%
1M
1J
15
16
1#
1$
0M
06
0#
#750000
b11 "
b111 !
18
17
10
1K
1H
0E
0A
1=
1)
0:
01
0B
0(
1M
0J
0G
0C
0>
02
03
04
05
16
1#
0$
0%
0&
0'
1C
13
1&
#875000
b1111 !
b1011 !
b1001 !
b1000 !
08
0<
0@
1D
0K
0H
1E
0=
1B
1:
1>
1J
0M
06
15
12
11
1(
1'
1$
0#
1M
0J
1G
0>
0C
03
02
14
05
16
1#
0$
1%
0'
0&
