projeto01/simulation/qsim/projeto01.msim.vcd
$comment
	File created using the following command:
		vcd file projeto01.msim.vcd -direction
$end
$date
	Fri Aug 16 15:02:33 2024
$end
$version
	ModelSim Version 10.5b
$end
$timescale
	1ps
$end

$scope module keypadEncoder_vlg_vec_tst $end
$var reg 3 ! Col [2:0] $end
$var reg 1 " clk $end
$var reg 1 # reset $end
$var wire 1 $ Row [3] $end
$var wire 1 % Row [2] $end
$var wire 1 & Row [1] $end
$var wire 1 ' Row [0] $end
$var wire 1 ( d [3] $end
$var wire 1 ) d [2] $end
$var wire 1 * d [1] $end
$var wire 1 + d [0] $end
$var wire 1 , dav $end

$scope module i1 $end
$var wire 1 - gnd $end
$var wire 1 . vcc $end
$var wire 1 / unknown $end
$var tri1 1 0 devclrn $end
$var tri1 1 1 devpor $end
$var tri1 1 2 devoe $end
$var wire 1 3 Row[0]~output_o $end
$var wire 1 4 Row[1]~output_o $end
$var wire 1 5 Row[2]~output_o $end
$var wire 1 6 Row[3]~output_o $end
$var wire 1 7 d[0]~output_o $end
$var wire 1 8 d[1]~output_o $end
$var wire 1 9 d[2]~output_o $end
$var wire 1 : d[3]~output_o $end
$var wire 1 ; dav~output_o $end
$var wire 1 < clk~input_o $end
$var wire 1 = clk~inputclkctrl_outclk $end
$var wire 1 > inst01|ring.1101~0_combout $end
$var wire 1 ? reset~input_o $end
$var wire 1 @ Col[1]~input_o $end
$var wire 1 A Col[2]~input_o $end
$var wire 1 B Col[0]~input_o $end
$var wire 1 C Freeze~0_combout $end
$var wire 1 D inst01|ring.1101~q $end
$var wire 1 E inst01|ring.1011~q $end
$var wire 1 F inst01|ring.0111~feeder_combout $end
$var wire 1 G inst01|ring.0111~q $end
$var wire 1 H inst01|ring.1110~0_combout $end
$var wire 1 I inst01|ring.1110~q $end
$var wire 1 J Freeze~0clkctrl_outclk $end
$var wire 1 K inst03|ColOut~1_combout $end
$var wire 1 L inst02|rowOut[0]~0_combout $end
$var wire 1 M inst03|ColOut~0_combout $end
$var wire 1 N inst02|rowOut[1]~1_combout $end
$var wire 1 O inst04|WideOr3~0_combout $end
$var wire 1 P d[0]~reg0feeder_combout $end
$var wire 1 Q d[0]~reg0_q $end
$var wire 1 R inst04|WideOr2~0_combout $end
$var wire 1 S d[1]~reg0feeder_combout $end
$var wire 1 T d[1]~reg0_q $end
$var wire 1 U inst04|WideOr1~0_combout $end
$var wire 1 V inst04|WideOr1~1_combout $end
$var wire 1 W inst04|WideOr1~2_combout $end
$var wire 1 X d[2]~reg0_q $end
$var wire 1 Y inst04|WideOr0~0_combout $end
$var wire 1 Z d[3]~reg0_q $end
$upscope $end
$upscope $end
$enddefinitions $end
#0
$dumpvars
b111 !
0"
1#
x'
x&
x%
x$
x+
x*
x)
x(
x,
0-
1.
x/
10
11
12
x3
x4
x5
x6
x7
x8
x9
x:
x;
0<
x=
x>
1?
1@
1A
1B
xC
0D
0E
xF
0G
xH
0I
xJ
xK
xL
xM
xN
xO
xP
0Q
xR
xS
0T
xU
xV
xW
0X
xY
0Z
$end
#173
0=
#506
1H
#665
0F
#682
1>
#684
1L
#865
1N
#1147
0W
#1374
0Y
#3462
08
0*
#3479
07
0+
#3489
0V
#3492
0M
#3512
03
0'
#3646
09
0)
#3688
0:
0(
#3692
0U
#3701
15
1%
#3751
16
1$
#3758
1C
#3802
14
1&
#3996
0K
#4929
1J
#5000
1"
#5672
0O
#5720
1<
#5907
1=
#6193
0R
#6940
0P
#7531
0;
0,
#7590
0S
#10000
0"
#10826
0<
#10999
0=
#15000
1"
#15720
1<
#15907
1=
#20000
0"
#20826
0<
#20999
0=
#25000
1"
#25720
1<
#25907
1=
#30000
0"
#30826
0<
#30999
0=
#35000
1"
#35720
1<
#35907
1=
#40000
0"
#40826
0<
#40999
0=
#45000
1"
#45720
1<
#45907
1=
#50000
0"
#50826
0<
#50999
0=
#55000
1"
#55720
1<
#55907
1=
#60000
0#
0"
#60756
0?
#60826
0<
#60999
0=
#65000
1"
#65720
1<
#65907
1=
#68301
1D
1I
#68892
0>
#68919
0L
#68933
1U
#70000
0"
#70826
0<
#70999
0=
#71846
13
1'
#72151
04
0&
#75000
1"
#75720
1<
#75907
1=
#78301
0D
1E
#78882
1F
#78988
1L
#79145
0N
#80000
0"
#80826
0<
#80999
0=
#82068
05
0%
#82103
14
1&
#85000
1"
#85720
1<
#85907
1=
#88301
0E
1G
#88718
0H
#88963
0U
#88966
0F
#89079
0L
#90000
0"
#90826
0<
#90999
0=
#92002
15
1%
#92116
06
0$
#95000
1"
#95720
1<
#95907
1=
#98301
0G
0I
#98807
1H
#98983
1>
#98985
1L
#99166
1N
#100000
0"
#100826
0<
#100999
0=
#101813
03
0'
#102052
16
1$
#105000
1"
#105720
1<
#105907
1=
#108301
1D
1I
#108892
0>
#108919
0L
#108933
1U
#110000
0"
#110826
0<
#110999
0=
#111846
13
1'
#112151
04
0&
#115000
1"
#115720
1<
#115907
1=
#118301
0D
1E
#118882
1F
#118988
1L
#119145
0N
#120000
0"
#120826
0<
#120999
0=
#122068
05
0%
#122103
14
1&
#125000
1"
#125720
1<
#125907
1=
#128301
0E
1G
#128718
0H
#128963
0U
#128966
0F
#129079
0L
#130000
0"
#130826
0<
#130999
0=
#132002
15
1%
#132116
06
0$
#135000
1"
#135720
1<
#135907
1=
#138301
0G
0I
#138807
1H
#138983
1>
#138985
1L
#139166
1N
#140000
0"
#140826
0<
#140999
0=
#141813
03
0'
#142052
16
1$
#145000
1"
#145720
1<
#145907
1=
#148301
1D
1I
#148892
0>
#148919
0L
#148933
1U
#150000
0"
#150826
0<
#150999
0=
#151846
13
1'
#152151
04
0&
#155000
1"
#155720
1<
#155907
1=
#158301
0D
1E
#158882
1F
#158988
1L
#159145
0N
#160000
0"
#160826
0<
#160999
0=
#162068
05
0%
#162103
14
1&
#165000
1"
#165720
1<
#165907
1=
#168301
0E
1G
#168718
0H
#168963
0U
#168966
0F
#169079
0L
#170000
0"
#170826
0<
#170999
0=
#172002
15
1%
#172116
06
0$
#175000
1"
#175720
1<
#175907
1=
#178301
0G
0I
#178807
1H
#178983
1>
#178985
1L
#179166
1N
#180000
0"
#180826
0<
#180999
0=
#181813
03
0'
#182052
16
1$
#185000
1"
#185720
1<
#185907
1=
#188301
1D
1I
#188892
0>
#188919
0L
#188933
1U
#190000
0"
#190826
0<
#190999
0=
#191846
13
1'
#192151
04
0&
#195000
1"
#195720
1<
#195907
1=
#198301
0D
1E
#198882
1F
#198988
1L
#199145
0N
#200000
b110 !
0"
#200775
0B
#200826
0<
#200999
0=
#201773
1M
#201774
1K
#201775
0C
#202068
05
0%
#202103
14
1&
#202911
0J
#203633
1W
#203999
1O
#204000
1R
#205000
1"
#205279
1P
#205413
1S
#205454
1;
1,
#205720
1<
#205907
1=
#210000
0"
#210826
0<
#210999
0=
#215000
1"
#215720
1<
#215907
1=
#220000
0"
#220826
0<
#220999
0=
#225000
1"
#225720
1<
#225907
1=
#230000
b111 !
0"
#230669
1B
#230826
0<
#230999
0=
#231690
0K
0M
#231721
1C
#232892
1J
#233496
0W
#233870
0O
#233887
0R
#235000
1"
#235138
0P
#235284
0S
#235494
0;
0,
#235720
1<
#235907
1=
#238301
0E
1G
#238718
0H
#238963
0U
#238966
0F
#239079
0L
#240000
0"
#240826
0<
#240999
0=
#242002
15
1%
#242116
06
0$
#245000
1"
#245720
1<
#245907
1=
#248301
0G
0I
#248807
1H
#248983
1>
#248985
1L
#249166
1N
#250000
0"
#250826
0<
#250999
0=
#251813
03
0'
#252052
16
1$
#255000
1"
#255720
1<
#255907
1=
#258301
1D
1I
#258892
0>
#258919
0L
#258933
1U
#260000
0"
#260826
0<
#260999
0=
#261846
13
1'
#262151
04
0&
#265000
1"
#265720
1<
#265907
1=
#268301
0D
1E
#268882
1F
#268988
1L
#269145
0N
#270000
0"
#270826
0<
#270999
0=
#272068
05
0%
#272103
14
1&
#275000
1"
#275720
1<
#275907
1=
#278301
0E
1G
#278718
0H
#278963
0U
#278966
0F
#279079
0L
#280000
0"
#280826
0<
#280999
0=
#282002
15
1%
#282116
06
0$
#285000
1"
#285720
1<
#285907
1=
#288301
0G
0I
#288807
1H
#288983
1>
#288985
1L
#289166
1N
#290000
0"
#290826
0<
#290999
0=
#291813
03
0'
#292052
16
1$
#295000
1"
#295720
1<
#295907
1=
#298301
1D
1I
#298892
0>
#298919
0L
#298933
1U
#300000
0"
#300826
0<
#300999
0=
#301846
13
1'
#302151
04
0&
#305000
1"
#305720
1<
#305907
1=
#308301
0D
1E
#308882
1F
#308988
1L
#309145
0N
#310000
0"
#310826
0<
#310999
0=
#312068
05
0%
#312103
14
1&
#315000
1"
#315720
1<
#315907
1=
#318301
0E
1G
#318718
0H
#318963
0U
#318966
0F
#319079
0L
#320000
b101 !
0"
#320795
0@
#320826
0<
#320999
0=
#322002
15
1%
#322116
06
0$
#324546
1V
#324796
0C
#324996
1K
#325000
1"
#325720
1<
#325907
1=
#325932
0J
#328301
0G
0I
#328475
1;
1,
#328807
1H
#328983
1>
#328985
1L
#329166
1N
#329722
1R
#330000
0"
#330826
0<
#330999
0=
#331135
1S
#331813
03
0'
#332052
16
1$
#335000
1"
#335720
1<
#335907
1=
#340000
0"
#340826
0<
#340999
0=
#345000
1"
#345720
1<
#345907
1=
#350000
0"
#350826
0<
#350999
0=
#355000
1"
#355720
1<
#355907
1=
#360000
0"
#360826
0<
#360999
0=
#365000
1"
#365720
1<
#365907
1=
#370000
b111 !
0"
#370689
1@
#370826
0<
#370999
0=
#374178
0V
#374447
1C
#374685
0K
#375000
1"
#375618
1J
#375720
1<
#375907
1=
#376882
0R
#378220
0;
0,
#378279
0S
#378301
1D
1I
#378892
0>
#378919
0L
#378933
1U
#380000
0"
#380826
0<
#380999
0=
#381846
13
1'
#382151
04
0&
#385000
1"
#385720
1<
#385907
1=
#388301
0D
1E
#388882
1F
#388988
1L
#389145
0N
#390000
0"
#390826
0<
#390999
0=
#392068
05
0%
#392103
14
1&
#395000
1"
#395720
1<
#395907
1=
#398301
0E
1G
#398718
0H
#398963
0U
#398966
0F
#399079
0L
#400000
0"
#400826
0<
#400999
0=
#402002
15
1%
#402116
06
0$
#405000
1"
#405720
1<
#405907
1=
#408301
0G
0I
#408807
1H
#408983
1>
#408985
1L
#409166
1N
#410000
0"
#410826
0<
#410999
0=
#411813
03
0'
#412052
16
1$
#415000
1"
#415720
1<
#415907
1=
#418301
1D
1I
#418892
0>
#418919
0L
#418933
1U
#420000
0"
#420826
0<
#420999
0=
#421846
13
1'
#422151
04
0&
#425000
1"
#425720
1<
#425907
1=
#428301
0D
1E
#428882
1F
#428988
1L
#429145
0N
#430000
0"
#430826
0<
#430999
0=
#432068
05
0%
#432103
14
1&
#435000
1"
#435720
1<
#435907
1=
#438301
0E
1G
#438718
0H
#438963
0U
#438966
0F
#439079
0L
#440000
0"
#440826
0<
#440999
0=
#442002
15
1%
#442116
06
0$
#445000
1"
#445720
1<
#445907
1=
#448301
0G
0I
#448807
1H
#448983
1>
#448985
1L
#449166
1N
#450000
0"
#450826
0<
#450999
0=
#451813
03
0'
#452052
16
1$
#455000
1"
#455720
1<
#455907
1=
#458301
1D
1I
#458892
0>
#458919
0L
#458933
1U
#460000
0"
#460826
0<
#460999
0=
#461846
13
1'
#462151
04
0&
#465000
1"
#465720
1<
#465907
1=
#468301
0D
1E
#468882
1F
#468988
1L
#469145
0N
#470000
b11 !
0"
#470805
0A
#470826
0<
#470999
0=
#472068
05
0%
#472103
14
1&
#474541
0C
#474545
1M
#474686
1V
#474741
0U
#475000
1"
#475677
0J
#475720
1<
#475907
1=
#476635
1Y
#476771
1O
#478051
1P
#478220
1;
1,
#480000
0"
#480826
0<
#480999
0=
#485000
1"
#485720
1<
#485907
1=
#490000
0"
#490826
0<
#490999
0=
#495000
1"
#495720
1<
#495907
1=
#500000
0"
#500826
0<
#500999
0=
#505000
1"
#505720
1<
#505907
1=
#510000
0"
#510826
0<
#510999
0=
#515000
1"
#515720
1<
#515907
1=
#520000
0"
#520826
0<
#520999
0=
#525000
1"
#525720
1<
#525907
1=
#530000
0"
#530826
0<
#530999
0=
#535000
1"
#535720
1<
#535907
1=
#540000
b111 !
0"
#540699
1A
#540826
0<
#540999
0=
#544191
0M
#544197
1C
#544334
0V
#544389
1U
#544880
1W
#545000
1"
#545099
0W
#545368
1J
#545720
1<
#545907
1=
#546221
0Y
#546371
0O
#547639
0P
#547970
0;
0,
#548301
0E
1G
#548718
0H
#548963
0U
#548966
0F
#549079
0L
#550000
0"
#550826
0<
#550999
0=
#552002
15
1%
#552116
06
0$
#555000
1"
#555720
1<
#555907
1=
#558301
0G
0I
#558807
1H
#558983
1>
#558985
1L
#559166
1N
#560000
0"
#560826
0<
#560999
0=
#561813
03
0'
#562052
16
1$
#565000
1"
#565720
1<
#565907
1=
#568301
1D
1I
#568892
0>
#568919
0L
#568933
1U
#570000
0"
#570826
0<
#570999
0=
#571846
13
1'
#572151
04
0&
#575000
1"
#575720
1<
#575907
1=
#578301
0D
1E
#578882
1F
#578988
1L
#579145
0N
#580000
0"
#580826
0<
#580999
0=
#582068
05
0%
#582103
14
1&
#585000
1"
#585720
1<
#585907
1=
#588301
0E
1G
#588718
0H
#588963
0U
#588966
0F
#589079
0L
#590000
0"
#590826
0<
#590999
0=
#592002
15
1%
#592116
06
0$
#595000
1"
#595720
1<
#595907
1=
#598301
0G
0I
#598807
1H
#598983
1>
#598985
1L
#599166
1N
#600000
0"
#600826
0<
#600999
0=
#601813
03
0'
#602052
16
1$
#605000
1"
#605720
1<
#605907
1=
#608301
1D
1I
#608892
0>
#608919
0L
#608933
1U
#610000
0"
#610826
0<
#610999
0=
#611846
13
1'
#612151
04
0&
#615000
1"
#615720
1<
#615907
1=
#618301
0D
1E
#618882
1F
#618988
1L
#619145
0N
#620000
0"
#620826
0<
#620999
0=
#622068
05
0%
#622103
14
1&
#625000
1"
#625720
1<
#625907
1=
#628301
0E
1G
#628718
0H
#628963
0U
#628966
0F
#629079
0L
#630000
0"
#630826
0<
#630999
0=
#632002
15
1%
#632116
06
0$
#635000
1"
#635720
1<
#635907
1=
#638301
0G
0I
#638807
1H
#638983
1>
#638985
1L
#639166
1N
#640000
0"
#640826
0<
#640999
0=
#641813
03
0'
#642052
16
1$
#645000
1"
#645720
1<
#645907
1=
#648301
1D
1I
#648892
0>
#648919
0L
#648933
1U
#650000
0"
#650826
0<
#650999
0=
#651846
13
1'
#652151
04
0&
#655000
1"
#655720
1<
#655907
1=
#658301
0D
1E
#658882
1F
#658988
1L
#659145
0N
#660000
0"
#660826
0<
#660999
0=
#662068
05
0%
#662103
14
1&
#665000
1"
#665720
1<
#665907
1=
#668301
0E
1G
#668718
0H
#668963
0U
#668966
0F
#669079
0L
#670000
0"
#670826
0<
#670999
0=
#672002
15
1%
#672116
06
0$
#675000
1"
#675720
1<
#675907
1=
#678301
0G
0I
#678807
1H
#678983
1>
#678985
1L
#679166
1N
#680000
0"
#680826
0<
#680999
0=
#681813
03
0'
#682052
16
1$
#685000
1"
#685720
1<
#685907
1=
#688301
1D
1I
#688892
0>
#688919
0L
#688933
1U
#690000
0"
#690826
0<
#690999
0=
#691846
13
1'
#692151
04
0&
#695000
1"
#695720
1<
#695907
1=
#698301
0D
1E
#698882
1F
#698988
1L
#699145
0N
#700000
0"
#700826
0<
#700999
0=
#702068
05
0%
#702103
14
1&
#705000
1"
#705720
1<
#705907
1=
#708301
0E
1G
#708718
0H
#708963
0U
#708966
0F
#709079
0L
#710000
0"
#710826
0<
#710999
0=
#712002
15
1%
#712116
06
0$
#715000
1"
#715720
1<
#715907
1=
#718301
0G
0I
#718807
1H
#718983
1>
#718985
1L
#719166
1N
#720000
0"
#720826
0<
#720999
0=
#721813
03
0'
#722052
16
1$
#725000
1"
#725720
1<
#725907
1=
#728301
1D
1I
#728892
0>
#728919
0L
#728933
1U
#730000
0"
#730826
0<
#730999
0=
#731846
13
1'
#732151
04
0&
#735000
1"
#735720
1<
#735907
1=
#738301
0D
1E
#738882
1F
#738988
1L
#739145
0N
#740000
0"
#740826
0<
#740999
0=
#742068
05
0%
#742103
14
1&
#745000
1"
#745720
1<
#745907
1=
#748301
0E
1G
#748718
0H
#748963
0U
#748966
0F
#749079
0L
#750000
0"
#750826
0<
#750999
0=
#752002
15
1%
#752116
06
0$
#755000
1"
#755720
1<
#755907
1=
#758301
0G
0I
#758807
1H
#758983
1>
#758985
1L
#759166
1N
#760000
0"
#760826
0<
#760999
0=
#761813
03
0'
#762052
16
1$
#765000
1"
#765720
1<
#765907
1=
#768301
1D
1I
#768892
0>
#768919
0L
#768933
1U
#770000
0"
#770826
0<
#770999
0=
#771846
13
1'
#772151
04
0&
#775000
1"
#775720
1<
#775907
1=
#778301
0D
1E
#778882
1F
#778988
1L
#779145
0N
#780000
0"
#780826
0<
#780999
0=
#782068
05
0%
#782103
14
1&
#785000
1"
#785720
1<
#785907
1=
#788301
0E
1G
#788718
0H
#788963
0U
#788966
0F
#789079
0L
#790000
0"
#790826
0<
#790999
0=
#792002
15
1%
#792116
06
0$
#795000
1"
#795720
1<
#795907
1=
#798301
0G
0I
#798807
1H
#798983
1>
#798985
1L
#799166
1N
#800000
0"
#800826
0<
#800999
0=
#801813
03
0'
#802052
16
1$
#805000
1"
#805720
1<
#805907
1=
#808301
1D
1I
#808892
0>
#808919
0L
#808933
1U
#810000
0"
#810826
0<
#810999
0=
#811846
13
1'
#812151
04
0&
#815000
1"
#815720
1<
#815907
1=
#818301
0D
1E
#818882
1F
#818988
1L
#819145
0N
#820000
0"
#820826
0<
#820999
0=
#822068
05
0%
#822103
14
1&
#825000
1"
#825720
1<
#825907
1=
#828301
0E
1G
#828718
0H
#828963
0U
#828966
0F
#829079
0L
#830000
0"
#830826
0<
#830999
0=
#832002
15
1%
#832116
06
0$
#835000
1"
#835720
1<
#835907
1=
#838301
0G
0I
#838807
1H
#838983
1>
#838985
1L
#839166
1N
#840000
0"
#840826
0<
#840999
0=
#841813
03
0'
#842052
16
1$
#845000
1"
#845720
1<
#845907
1=
#848301
1D
1I
#848892
0>
#848919
0L
#848933
1U
#850000
0"
#850826
0<
#850999
0=
#851846
13
1'
#852151
04
0&
#855000
1"
#855720
1<
#855907
1=
#858301
0D
1E
#858882
1F
#858988
1L
#859145
0N
#860000
0"
#860826
0<
#860999
0=
#862068
05
0%
#862103
14
1&
#865000
1"
#865720
1<
#865907
1=
#868301
0E
1G
#868718
0H
#868963
0U
#868966
0F
#869079
0L
#870000
0"
#870826
0<
#870999
0=
#872002
15
1%
#872116
06
0$
#875000
1"
#875720
1<
#875907
1=
#878301
0G
0I
#878807
1H
#878983
1>
#878985
1L
#879166
1N
#880000
0"
#880826
0<
#880999
0=
#881813
03
0'
#882052
16
1$
#885000
1"
#885720
1<
#885907
1=
#888301
1D
1I
#888892
0>
#888919
0L
#888933
1U
#890000
0"
#890826
0<
#890999
0=
#891846
13
1'
#892151
04
0&
#895000
1"
#895720
1<
#895907
1=
#898301
0D
1E
#898882
1F
#898988
1L
#899145
0N
#900000
0"
#900826
0<
#900999
0=
#902068
05
0%
#902103
14
1&
#905000
1"
#905720
1<
#905907
1=
#908301
0E
1G
#908718
0H
#908963
0U
#908966
0F
#909079
0L
#910000
0"
#910826
0<
#910999
0=
#912002
15
1%
#912116
06
0$
#915000
1"
#915720
1<
#915907
1=
#918301
0G
0I
#918807
1H
#918983
1>
#918985
1L
#919166
1N
#920000
0"
#920826
0<
#920999
0=
#921813
03
0'
#922052
16
1$
#925000
1"
#925720
1<
#925907
1=
#928301
1D
1I
#928892
0>
#928919
0L
#928933
1U
#930000
0"
#930826
0<
#930999
0=
#931846
13
1'
#932151
04
0&
#935000
1"
#935720
1<
#935907
1=
#938301
0D
1E
#938882
1F
#938988
1L
#939145
0N
#940000
0"
#940826
0<
#940999
0=
#942068
05
0%
#942103
14
1&
#945000
1"
#945720
1<
#945907
1=
#948301
0E
1G
#948718
0H
#948963
0U
#948966
0F
#949079
0L
#950000
0"
#950826
0<
#950999
0=
#952002
15
1%
#952116
06
0$
#955000
1"
#955720
1<
#955907
1=
#958301
0G
0I
#958807
1H
#958983
1>
#958985
1L
#959166
1N
#960000
0"
#960826
0<
#960999
0=
#961813
03
0'
#962052
16
1$
#965000
1"
#965720
1<
#965907
1=
#968301
1D
1I
#968892
0>
#968919
0L
#968933
1U
#970000
0"
#970826
0<
#970999
0=
#971846
13
1'
#972151
04
0&
#975000
1"
#975720
1<
#975907
1=
#978301
0D
1E
#978882
1F
#978988
1L
#979145
0N
#980000
0"
#980826
0<
#980999
0=
#982068
05
0%
#982103
14
1&
#985000
1"
#985720
1<
#985907
1=
#988301
0E
1G
#988718
0H
#988963
0U
#988966
0F
#989079
0L
#990000
0"
#990826
0<
#990999
0=
#992002
15
1%
#992116
06
0$
#995000
1"
#995720
1<
#995907
1=
#998301
0G
0I
#998807
1H
#998983
1>
#998985
1L
#999166
1N
