projeto01/simulation/qsim/projeto01.msim.vcd
$comment
	File created using the following command:
		vcd file projeto01.msim.vcd -direction
$end
$date
	Fri Aug 02 22:15:19 2024
$end
$version
	ModelSim Version 10.5b
$end
$timescale
	1ps
$end

$scope module Sistema_vlg_vec_tst $end
$var reg 1 ! clock $end
$var reg 1 " clock1Hz $end
$var reg 4 # dataIn [3:0] $end
$var reg 1 $ reset $end
$var wire 1 % timeRemaining [6] $end
$var wire 1 & timeRemaining [5] $end
$var wire 1 ' timeRemaining [4] $end
$var wire 1 ( timeRemaining [3] $end
$var wire 1 ) timeRemaining [2] $end
$var wire 1 * timeRemaining [1] $end
$var wire 1 + timeRemaining [0] $end
$var wire 1 , trigger $end

$scope module i1 $end
$var wire 1 - gnd $end
$var wire 1 . vcc $end
$var wire 1 / unknown $end
$var tri1 1 0 devclrn $end
$var tri1 1 1 devpor $end
$var tri1 1 2 devoe $end
$var wire 1 3 clock~input_o $end
$var wire 1 4 dataIn[0]~input_o $end
$var wire 1 5 dataIn[1]~input_o $end
$var wire 1 6 dataIn[2]~input_o $end
$var wire 1 7 dataIn[3]~input_o $end
$var wire 1 8 trigger~output_o $end
$var wire 1 9 timeRemaining[0]~output_o $end
$var wire 1 : timeRemaining[1]~output_o $end
$var wire 1 ; timeRemaining[2]~output_o $end
$var wire 1 < timeRemaining[3]~output_o $end
$var wire 1 = timeRemaining[4]~output_o $end
$var wire 1 > timeRemaining[5]~output_o $end
$var wire 1 ? timeRemaining[6]~output_o $end
$var wire 1 @ clock1Hz~input_o $end
$var wire 1 A clock1Hz~inputclkctrl_outclk $end
$var wire 1 B Timer01|Add0~0_combout $end
$var wire 1 C Timer01|counter~4_combout $end
$var wire 1 D reset~input_o $end
$var wire 1 E reset~inputclkctrl_outclk $end
$var wire 1 F Timer01|Add0~1 $end
$var wire 1 G Timer01|Add0~2_combout $end
$var wire 1 H Timer01|counter~3_combout $end
$var wire 1 I Timer01|Add0~3 $end
$var wire 1 J Timer01|Add0~4_combout $end
$var wire 1 K Timer01|counter~2_combout $end
$var wire 1 L Timer01|Add0~5 $end
$var wire 1 M Timer01|Add0~6_combout $end
$var wire 1 N Timer01|counter~1_combout $end
$var wire 1 O Timer01|Add0~7 $end
$var wire 1 P Timer01|Add0~8_combout $end
$var wire 1 Q Timer01|counter~0_combout $end
$var wire 1 R Timer01|Add0~9 $end
$var wire 1 S Timer01|Add0~10_combout $end
$var wire 1 T Timer01|Add0~11 $end
$var wire 1 U Timer01|Add0~12_combout $end
$var wire 1 V Timer01|Equal0~0_combout $end
$var wire 1 W Timer01|Equal0~1_combout $end
$var wire 1 X Timer01|trigger~feeder_combout $end
$var wire 1 Y Timer01|trigger~q $end
$var wire 1 Z Timer01|timeRemaining[0]~6_combout $end
$var wire 1 [ Timer01|timeRemaining[1]~8_cout $end
$var wire 1 \ Timer01|timeRemaining[1]~9_combout $end
$var wire 1 ] Timer01|timeRemaining[1]~10 $end
$var wire 1 ^ Timer01|timeRemaining[2]~11_combout $end
$var wire 1 _ Timer01|timeRemaining[2]~12 $end
$var wire 1 ` Timer01|timeRemaining[3]~13_combout $end
$var wire 1 a Timer01|timeRemaining[3]~14 $end
$var wire 1 b Timer01|timeRemaining[4]~15_combout $end
$var wire 1 c Timer01|timeRemaining[4]~16 $end
$var wire 1 d Timer01|timeRemaining[5]~17_combout $end
$var wire 1 e Timer01|timeRemaining[5]~18 $end
$var wire 1 f Timer01|timeRemaining[6]~19_combout $end
$var wire 1 g Timer01|timeRemaining [6] $end
$var wire 1 h Timer01|timeRemaining [5] $end
$var wire 1 i Timer01|timeRemaining [4] $end
$var wire 1 j Timer01|timeRemaining [3] $end
$var wire 1 k Timer01|timeRemaining [2] $end
$var wire 1 l Timer01|timeRemaining [1] $end
$var wire 1 m Timer01|timeRemaining [0] $end
$var wire 1 n Timer01|counter [6] $end
$var wire 1 o Timer01|counter [5] $end
$var wire 1 p Timer01|counter [4] $end
$var wire 1 q Timer01|counter [3] $end
$var wire 1 r Timer01|counter [2] $end
$var wire 1 s Timer01|counter [1] $end
$var wire 1 t Timer01|counter [0] $end
$upscope $end
$upscope $end
$enddefinitions $end
#0
$dumpvars
0!
0"
b0 #
1$
0+
0*
0)
0(
0'
0&
0%
0,
0-
1.
x/
10
11
12
03
04
05
06
07
08
09
0:
0;
0<
0=
0>
0?
0@
0A
1B
1C
1D
1E
0F
0G
0H
1I
0J
0K
0L
0M
0N
1O
0P
0Q
0R
0S
1T
0U
0V
0W
0X
0Y
0Z
1[
1\
0]
1^
1_
1`
0a
1b
1c
0d
0e
0f
0m
0l
0k
0j
0i
0h
0g
0t
0s
0r
0q
0p
0o
0n
$end
#5000
1!
1"
13
1@
1A
#10000
0!
0"
03
0@
0A
#15000
1!
1"
13
1@
1A
#20000
0$
0!
0"
0D
03
0@
0E
0A
#25000
1!
1"
13
1@
1A
1t
1i
1j
1k
1l
1:
1;
1<
1=
0[
1F
0B
1'
1(
1)
1*
1Z
1G
0\
0C
1H
#30000
0!
0"
03
0@
0A
#35000
1!
1"
13
1@
1A
1s
0t
0l
1m
19
0:
1]
0I
0G
1[
0F
1B
0*
1+
1\
0Z
1J
0]
1I
1G
0^
0H
0\
1C
0J
1K
1^
1H
0K
#40000
0!
0"
03
0@
0A
#45000
1!
1"
13
1@
1A
1t
0m
09
0[
1F
0B
0+
1Z
1]
0I
0G
1\
0C
1J
0^
0H
1K
#50000
0!
0"
03
0@
0A
#55000
1!
1"
13
1@
1A
1r
0s
0t
0k
1l
1m
19
1:
0;
0_
1L
0J
0]
1I
1G
1[
0F
1B
0)
1*
1+
1^
0\
0Z
1M
1_
0L
1J
0G
0`
0K
0^
1H
1\
1C
0M
1N
1`
1K
0H
0N
#60000
0!
0"
03
0@
0A
#65000
1!
1"
13
1@
1A
1t
0m
09
0[
1F
0B
0+
1Z
1G
0\
0C
1H
#70000
0!
0"
03
0@
0A
#75000
1!
1"
13
1@
1A
1s
0t
0l
1m
19
0:
1]
0I
0G
1[
0F
1B
0*
1+
1\
0Z
0_
1L
0J
0]
1I
1G
1^
0H
0\
1C
1M
1_
0L
1J
0`
0K
0^
1H
0M
1N
1`
1K
0N
#80000
0!
0"
03
0@
0A
#85000
1!
1"
13
1@
1A
1t
0m
09
0[
1F
0B
0+
1Z
1]
0I
0G
1\
0C
0_
1L
0J
1^
0H
1M
0`
0K
1N
#90000
0!
0"
03
0@
0A
#95000
1!
1"
13
1@
1A
1q
0r
0s
0t
0j
1k
1l
1m
19
1:
1;
0<
1a
0O
0M
1_
0L
1J
0]
1I
1G
1[
0F
1B
0(
1)
1*
1+
1`
0^
0\
0Z
1P
0a
1O
1M
0J
0G
0b
0N
0`
1K
1^
1H
1\
1C
0P
1Q
1b
1N
0K
0H
0Q
#100000
0!
0"
03
0@
0A
#105000
1!
1"
13
1@
1A
1t
0m
09
0[
1F
0B
0+
1Z
1G
0\
0C
1H
#110000
0!
0"
03
0@
0A
#115000
1!
1"
13
1@
1A
1s
0t
0l
1m
19
0:
1]
0I
0G
1[
0F
1B
0*
1+
1\
0Z
1J
0]
1I
1G
0^
0H
0\
1C
0J
1K
1^
1H
0K
#120000
0!
0"
03
0@
0A
#125000
1!
1"
13
1@
1A
1t
0m
09
0[
1F
0B
0+
1Z
1]
0I
0G
1\
0C
1J
0^
0H
1K
#130000
0!
0"
03
0@
0A
#135000
1!
1"
13
1@
1A
1r
0s
0t
0k
1l
1m
19
1:
0;
0_
1L
0J
0]
1I
1G
1[
0F
1B
0)
1*
1+
1^
0\
0Z
1a
0O
0M
1_
0L
1J
0G
1`
0K
0^
1H
1\
1C
1P
0a
1O
1M
0b
0N
0`
1K
0H
0P
1Q
1b
1N
0Q
#140000
0!
0"
03
0@
0A
#145000
1!
1"
13
1@
1A
1t
0m
09
0[
1F
0B
0+
1Z
1G
0\
0C
1H
#150000
0!
0"
03
0@
0A
#155000
1!
1"
13
1@
1A
1s
0t
0l
1m
19
0:
1]
0I
0G
1[
0F
1B
0*
1+
1\
0Z
0_
1L
0J
0]
1I
1G
1^
0H
0\
1C
1a
0O
0M
1_
0L
1J
1`
0K
0^
1H
1P
0a
1O
1M
0b
0N
0`
1K
0P
1Q
1b
1N
0Q
#160000
0!
0"
03
0@
0A
#165000
1!
1"
13
1@
1A
1t
0m
09
0[
1F
0B
0+
1Z
1]
0I
0G
1\
0C
0_
1L
0J
1^
0H
1a
0O
0M
1`
0K
1P
0b
0N
1Q
#170000
0!
0"
03
0@
0A
#175000
1!
1"
13
1@
1A
1p
0q
0r
0s
0t
0i
1j
1k
1l
1m
19
1:
1;
1<
0=
0c
1R
0P
0a
1O
1M
1_
0L
1J
0]
1I
1G
1[
0F
1B
0'
1(
1)
1*
1+
1b
0`
0^
0\
0Z
1e
1c
0R
1P
0M
0J
0G
1d
1S
0Q
0b
1N
1`
1K
1^
1H
1\
1C
0e
1f
0d
0S
1Q
0N
0K
0H
0f
#180000
0!
0"
03
0@
0A
#185000
1!
1"
13
1@
1A
1t
0m
09
0[
1F
0B
0+
1Z
1G
0\
0C
1H
#190000
0!
0"
03
0@
0A
#195000
1!
1"
13
1@
1A
1s
0t
0l
1m
19
0:
1]
0I
0G
1[
0F
1B
0*
1+
1\
0Z
1J
0]
1I
1G
0^
0H
0\
1C
0J
1K
1^
1H
0K
#200000
0!
0"
03
0@
0A
#205000
1!
1"
13
1@
1A
1t
0m
09
0[
1F
0B
0+
1Z
1]
0I
0G
1\
0C
1J
0^
0H
1K
#210000
0!
0"
03
0@
0A
#215000
1!
1"
13
1@
1A
1r
0s
0t
0k
1l
1m
19
1:
0;
0_
1L
0J
0]
1I
1G
1[
0F
1B
0)
1*
1+
1^
0\
0Z
1M
1_
0L
1J
0G
0`
0K
0^
1H
1\
1C
0M
1N
1`
1K
0H
0N
#220000
0!
0"
03
0@
0A
#225000
1!
1"
13
1@
1A
1t
0m
09
0[
1F
0B
0+
1Z
1G
0\
0C
1H
#230000
0!
0"
03
0@
0A
#235000
1!
1"
13
1@
1A
1s
0t
0l
1m
19
0:
1]
0I
0G
1[
0F
1B
0*
1+
1\
0Z
0_
1L
0J
0]
1I
1G
1^
0H
0\
1C
1M
1_
0L
1J
0`
0K
0^
1H
0M
1N
1`
1K
0N
#240000
0!
0"
03
0@
0A
#245000
1!
1"
13
1@
1A
1t
0m
09
0[
1F
0B
0+
1Z
1]
0I
0G
1\
0C
0_
1L
0J
1^
0H
1M
0`
0K
1N
#250000
0!
0"
03
0@
0A
#255000
1!
1"
13
1@
1A
1q
0r
0s
0t
0j
1k
1l
1m
19
1:
1;
0<
1a
1V
0O
0M
1_
0L
1J
0]
1I
1G
1[
0F
1B
0(
1)
1*
1+
1`
0^
0\
0Z
0c
1R
0P
0a
1O
1M
0J
0G
1b
0N
0`
1K
1^
1H
1\
1C
1e
1c
0R
1P
1d
1S
0Q
0b
1N
0K
0H
0e
1f
0d
0S
1Q
0f
#260000
0!
0"
03
0@
0A
#265000
1!
1"
13
1@
1A
1t
0m
09
0[
1F
0B
0+
1Z
1G
0\
0C
1H
#270000
0!
0"
03
0@
0A
#275000
1!
1"
13
1@
1A
1s
0t
0l
1m
19
0:
1]
0I
0G
1[
0F
1B
0*
1+
1\
0Z
1J
0]
1I
1G
0^
0H
0\
1C
0J
1K
1^
1H
0K
#280000
0!
0"
03
0@
0A
#285000
1!
1"
13
1@
1A
1t
0m
09
0[
1F
0B
0+
1Z
1]
0I
0G
1\
0C
1J
0^
0H
1K
#290000
0!
0"
03
0@
0A
#295000
1!
1"
13
1@
1A
1r
0s
0t
0k
1l
1m
19
1:
0;
0_
1L
0J
0]
1I
1G
1[
0F
1B
0)
1*
1+
1^
0\
0Z
1a
0O
0M
1_
0L
1J
0G
1`
0K
0^
1H
1\
1C
0c
1R
0P
0a
1O
1M
1b
0N
0`
1K
0H
1e
1c
0R
1P
1d
1S
0Q
0b
1N
0e
1f
0d
0S
1Q
0f
#300000
0!
0"
03
0@
0A
#305000
1!
1"
13
1@
1A
1t
0m
09
0[
1F
0B
0+
1Z
1G
0\
0C
1H
#310000
0!
0"
03
0@
0A
#315000
1!
1"
13
1@
1A
1s
0t
0l
1m
19
0:
1]
1W
0I
0G
1[
0F
1B
0*
1+
1\
0Z
0_
1L
0J
0]
1I
1G
1^
1X
0Q
0N
0K
0H
0\
1a
0O
0M
1_
0L
1J
1`
0^
0c
1R
0P
0a
1O
1M
1b
0`
1e
1c
0R
1P
1d
1S
0b
0e
1f
0d
0S
0f
#320000
0!
0"
03
0@
0A
#325000
1!
1"
13
1@
1A
0p
0q
0r
0s
0m
1Y
18
09
0V
0P
0M
0W
0J
0G
0+
1,
1b
1`
1^
1\
0X
1C
#330000
0!
0"
03
0@
0A
#335000
1!
1"
13
1@
1A
1t
1i
1j
1k
1l
0Y
08
1:
1;
1<
1=
0[
1F
0B
1'
1(
1)
1*
0,
1Z
1G
0\
0C
1H
#340000
0!
0"
03
0@
0A
#345000
1!
1"
13
1@
1A
1s
0t
0l
1m
19
0:
1]
0I
0G
1[
0F
1B
0*
1+
1\
0Z
1J
0]
1I
1G
0^
0H
0\
1C
0J
1K
1^
1H
0K
#350000
0!
0"
03
0@
0A
#355000
1!
1"
13
1@
1A
1t
0m
09
0[
1F
0B
0+
1Z
1]
0I
0G
1\
0C
1J
0^
0H
1K
#360000
0!
0"
03
0@
0A
#365000
1!
1"
13
1@
1A
1r
0s
0t
0k
1l
1m
19
1:
0;
0_
1L
0J
0]
1I
1G
1[
0F
1B
0)
1*
1+
1^
0\
0Z
1M
1_
0L
1J
0G
0`
0K
0^
1H
1\
1C
0M
1N
1`
1K
0H
0N
#370000
0!
0"
03
0@
0A
#375000
1!
1"
13
1@
1A
1t
0m
09
0[
1F
0B
0+
1Z
1G
0\
0C
1H
#380000
0!
0"
03
0@
0A
#385000
1!
1"
13
1@
1A
1s
0t
0l
1m
19
0:
1]
0I
0G
1[
0F
1B
0*
1+
1\
0Z
0_
1L
0J
0]
1I
1G
1^
0H
0\
1C
1M
1_
0L
1J
0`
0K
0^
1H
0M
1N
1`
1K
0N
#390000
0!
0"
03
0@
0A
#395000
1!
1"
13
1@
1A
1t
0m
09
0[
1F
0B
0+
1Z
1]
0I
0G
1\
0C
0_
1L
0J
1^
0H
1M
0`
0K
1N
#400000
0!
0"
03
0@
0A
#405000
1!
1"
13
1@
1A
1q
0r
0s
0t
0j
1k
1l
1m
19
1:
1;
0<
1a
0O
0M
1_
0L
1J
0]
1I
1G
1[
0F
1B
0(
1)
1*
1+
1`
0^
0\
0Z
1P
0a
1O
1M
0J
0G
0b
0N
0`
1K
1^
1H
1\
1C
0P
1Q
1b
1N
0K
0H
0Q
#410000
0!
0"
03
0@
0A
#415000
1!
1"
13
1@
1A
1t
0m
09
0[
1F
0B
0+
1Z
1G
0\
0C
1H
#420000
0!
0"
03
0@
0A
#425000
1!
1"
13
1@
1A
1s
0t
0l
1m
19
0:
1]
0I
0G
1[
0F
1B
0*
1+
1\
0Z
1J
0]
1I
1G
0^
0H
0\
1C
0J
1K
1^
1H
0K
#430000
0!
0"
03
0@
0A
#435000
1!
1"
13
1@
1A
1t
0m
09
0[
1F
0B
0+
1Z
1]
0I
0G
1\
0C
1J
0^
0H
1K
#440000
0!
0"
03
0@
0A
#445000
1!
1"
13
1@
1A
1r
0s
0t
0k
1l
1m
19
1:
0;
0_
1L
0J
0]
1I
1G
1[
0F
1B
0)
1*
1+
1^
0\
0Z
1a
0O
0M
1_
0L
1J
0G
1`
0K
0^
1H
1\
1C
1P
0a
1O
1M
0b
0N
0`
1K
0H
0P
1Q
1b
1N
0Q
#450000
0!
0"
03
0@
0A
#455000
1!
1"
13
1@
1A
1t
0m
09
0[
1F
0B
0+
1Z
1G
0\
0C
1H
#460000
0!
0"
03
0@
0A
#465000
1!
1"
13
1@
1A
1s
0t
0l
1m
19
0:
1]
0I
0G
1[
0F
1B
0*
1+
1\
0Z
0_
1L
0J
0]
1I
1G
1^
0H
0\
1C
1a
0O
0M
1_
0L
1J
1`
0K
0^
1H
1P
0a
1O
1M
0b
0N
0`
1K
0P
1Q
1b
1N
0Q
#470000
0!
0"
03
0@
0A
#475000
1!
1"
13
1@
1A
1t
0m
09
0[
1F
0B
0+
1Z
1]
0I
0G
1\
0C
0_
1L
0J
1^
0H
1a
0O
0M
1`
0K
1P
0b
0N
1Q
#480000
0!
0"
03
0@
0A
#485000
1!
1"
13
1@
1A
1p
0q
0r
0s
0t
0i
1j
1k
1l
1m
19
1:
1;
1<
0=
0c
1R
0P
0a
1O
1M
1_
0L
1J
0]
1I
1G
1[
0F
1B
0'
1(
1)
1*
1+
1b
0`
0^
0\
0Z
1e
1c
0R
1P
0M
0J
0G
1d
1S
0Q
0b
1N
1`
1K
1^
1H
1\
1C
0e
1f
0d
0S
1Q
0N
0K
0H
0f
#490000
0!
0"
03
0@
0A
#495000
1!
1"
13
1@
1A
1t
0m
09
0[
1F
0B
0+
1Z
1G
0\
0C
1H
#500000
0!
0"
03
0@
0A
#505000
1!
1"
13
1@
1A
1s
0t
0l
1m
19
0:
1]
0I
0G
1[
0F
1B
0*
1+
1\
0Z
1J
0]
1I
1G
0^
0H
0\
1C
0J
1K
1^
1H
0K
#510000
0!
0"
03
0@
0A
#515000
1!
1"
13
1@
1A
1t
0m
09
0[
1F
0B
0+
1Z
1]
0I
0G
1\
0C
1J
0^
0H
1K
#520000
0!
0"
03
0@
0A
#525000
1!
1"
13
1@
1A
1r
0s
0t
0k
1l
1m
19
1:
0;
0_
1L
0J
0]
1I
1G
1[
0F
1B
0)
1*
1+
1^
0\
0Z
1M
1_
0L
1J
0G
0`
0K
0^
1H
1\
1C
0M
1N
1`
1K
0H
0N
#530000
0!
0"
03
0@
0A
#535000
1!
1"
13
1@
1A
1t
0m
09
0[
1F
0B
0+
1Z
1G
0\
0C
1H
#540000
0!
0"
03
0@
0A
#545000
1!
1"
13
1@
1A
1s
0t
0l
1m
19
0:
1]
0I
0G
1[
0F
1B
0*
1+
1\
0Z
0_
1L
0J
0]
1I
1G
1^
0H
0\
1C
1M
1_
0L
1J
0`
0K
0^
1H
0M
1N
1`
1K
0N
#550000
0!
0"
03
0@
0A
#555000
1!
1"
13
1@
1A
1t
0m
09
0[
1F
0B
0+
1Z
1]
0I
0G
1\
0C
0_
1L
0J
1^
0H
1M
0`
0K
1N
#560000
0!
0"
03
0@
0A
#565000
1!
1"
13
1@
1A
1q
0r
0s
0t
0j
1k
1l
1m
19
1:
1;
0<
1a
1V
0O
0M
1_
0L
1J
0]
1I
1G
1[
0F
1B
0(
1)
1*
1+
1`
0^
0\
0Z
0c
1R
0P
0a
1O
1M
0J
0G
1b
0N
0`
1K
1^
1H
1\
1C
1e
1c
0R
1P
1d
1S
0Q
0b
1N
0K
0H
0e
1f
0d
0S
1Q
0f
#570000
0!
0"
03
0@
0A
#575000
1!
1"
13
1@
1A
1t
0m
09
0[
1F
0B
0+
1Z
1G
0\
0C
1H
#580000
0!
0"
03
0@
0A
#585000
1!
1"
13
1@
1A
1s
0t
0l
1m
19
0:
1]
0I
0G
1[
0F
1B
0*
1+
1\
0Z
1J
0]
1I
1G
0^
0H
0\
1C
0J
1K
1^
1H
0K
#590000
0!
0"
03
0@
0A
#595000
1!
1"
13
1@
1A
1t
0m
09
0[
1F
0B
0+
1Z
1]
0I
0G
1\
0C
1J
0^
0H
1K
#600000
0!
0"
03
0@
0A
#605000
1!
1"
13
1@
1A
1r
0s
0t
0k
1l
1m
19
1:
0;
0_
1L
0J
0]
1I
1G
1[
0F
1B
0)
1*
1+
1^
0\
0Z
1a
0O
0M
1_
0L
1J
0G
1`
0K
0^
1H
1\
1C
0c
1R
0P
0a
1O
1M
1b
0N
0`
1K
0H
1e
1c
0R
1P
1d
1S
0Q
0b
1N
0e
1f
0d
0S
1Q
0f
#610000
0!
0"
03
0@
0A
#615000
1!
1"
13
1@
1A
1t
0m
09
0[
1F
0B
0+
1Z
1G
0\
0C
1H
#620000
0!
0"
03
0@
0A
#625000
1!
1"
13
1@
1A
1s
0t
0l
1m
19
0:
1]
1W
0I
0G
1[
0F
1B
0*
1+
1\
0Z
0_
1L
0J
0]
1I
1G
1^
1X
0Q
0N
0K
0H
0\
1a
0O
0M
1_
0L
1J
1`
0^
0c
1R
0P
0a
1O
1M
1b
0`
1e
1c
0R
1P
1d
1S
0b
0e
1f
0d
0S
0f
#630000
0!
0"
03
0@
0A
#635000
1!
1"
13
1@
1A
0p
0q
0r
0s
0m
1Y
18
09
0V
0P
0M
0W
0J
0G
0+
1,
1b
1`
1^
1\
0X
1C
#640000
0!
0"
03
0@
0A
#645000
1!
1"
13
1@
1A
1t
1i
1j
1k
1l
0Y
08
1:
1;
1<
1=
0[
1F
0B
1'
1(
1)
1*
0,
1Z
1G
0\
0C
1H
#650000
0!
0"
03
0@
0A
#655000
1!
1"
13
1@
1A
1s
0t
0l
1m
19
0:
1]
0I
0G
1[
0F
1B
0*
1+
1\
0Z
1J
0]
1I
1G
0^
0H
0\
1C
0J
1K
1^
1H
0K
#660000
0!
0"
03
0@
0A
#665000
1!
1"
13
1@
1A
1t
0m
09
0[
1F
0B
0+
1Z
1]
0I
0G
1\
0C
1J
0^
0H
1K
#670000
0!
0"
03
0@
0A
#675000
1!
1"
13
1@
1A
1r
0s
0t
0k
1l
1m
19
1:
0;
0_
1L
0J
0]
1I
1G
1[
0F
1B
0)
1*
1+
1^
0\
0Z
1M
1_
0L
1J
0G
0`
0K
0^
1H
1\
1C
0M
1N
1`
1K
0H
0N
#680000
0!
0"
03
0@
0A
#685000
1!
1"
13
1@
1A
1t
0m
09
0[
1F
0B
0+
1Z
1G
0\
0C
1H
#690000
0!
0"
03
0@
0A
#695000
1!
1"
13
1@
1A
1s
0t
0l
1m
19
0:
1]
0I
0G
1[
0F
1B
0*
1+
1\
0Z
0_
1L
0J
0]
1I
1G
1^
0H
0\
1C
1M
1_
0L
1J
0`
0K
0^
1H
0M
1N
1`
1K
0N
#700000
0!
0"
03
0@
0A
#705000
1!
1"
13
1@
1A
1t
0m
09
0[
1F
0B
0+
1Z
1]
0I
0G
1\
0C
0_
1L
0J
1^
0H
1M
0`
0K
1N
#710000
0!
0"
03
0@
0A
#715000
1!
1"
13
1@
1A
1q
0r
0s
0t
0j
1k
1l
1m
19
1:
1;
0<
1a
0O
0M
1_
0L
1J
0]
1I
1G
1[
0F
1B
0(
1)
1*
1+
1`
0^
0\
0Z
1P
0a
1O
1M
0J
0G
0b
0N
0`
1K
1^
1H
1\
1C
0P
1Q
1b
1N
0K
0H
0Q
#720000
0!
0"
03
0@
0A
#725000
1!
1"
13
1@
1A
1t
0m
09
0[
1F
0B
0+
1Z
1G
0\
0C
1H
#730000
0!
0"
03
0@
0A
#735000
1!
1"
13
1@
1A
1s
0t
0l
1m
19
0:
1]
0I
0G
1[
0F
1B
0*
1+
1\
0Z
1J
0]
1I
1G
0^
0H
0\
1C
0J
1K
1^
1H
0K
#740000
0!
0"
03
0@
0A
#745000
1!
1"
13
1@
1A
1t
0m
09
0[
1F
0B
0+
1Z
1]
0I
0G
1\
0C
1J
0^
0H
1K
#750000
0!
0"
03
0@
0A
#755000
1!
1"
13
1@
1A
1r
0s
0t
0k
1l
1m
19
1:
0;
0_
1L
0J
0]
1I
1G
1[
0F
1B
0)
1*
1+
1^
0\
0Z
1a
0O
0M
1_
0L
1J
0G
1`
0K
0^
1H
1\
1C
1P
0a
1O
1M
0b
0N
0`
1K
0H
0P
1Q
1b
1N
0Q
#760000
0!
0"
03
0@
0A
#765000
1!
1"
13
1@
1A
1t
0m
09
0[
1F
0B
0+
1Z
1G
0\
0C
1H
#770000
0!
0"
03
0@
0A
#775000
1!
1"
13
1@
1A
1s
0t
0l
1m
19
0:
1]
0I
0G
1[
0F
1B
0*
1+
1\
0Z
0_
1L
0J
0]
1I
1G
1^
0H
0\
1C
1a
0O
0M
1_
0L
1J
1`
0K
0^
1H
1P
0a
1O
1M
0b
0N
0`
1K
0P
1Q
1b
1N
0Q
#780000
0!
0"
03
0@
0A
#785000
1!
1"
13
1@
1A
1t
0m
09
0[
1F
0B
0+
1Z
1]
0I
0G
1\
0C
0_
1L
0J
1^
0H
1a
0O
0M
1`
0K
1P
0b
0N
1Q
#790000
0!
0"
03
0@
0A
#795000
1!
1"
13
1@
1A
1p
0q
0r
0s
0t
0i
1j
1k
1l
1m
19
1:
1;
1<
0=
0c
1R
0P
0a
1O
1M
1_
0L
1J
0]
1I
1G
1[
0F
1B
0'
1(
1)
1*
1+
1b
0`
0^
0\
0Z
1e
1c
0R
1P
0M
0J
0G
1d
1S
0Q
0b
1N
1`
1K
1^
1H
1\
1C
0e
1f
0d
0S
1Q
0N
0K
0H
0f
#800000
0!
0"
03
0@
0A
#805000
1!
1"
13
1@
1A
1t
0m
09
0[
1F
0B
0+
1Z
1G
0\
0C
1H
#810000
0!
0"
03
0@
0A
#815000
1!
1"
13
1@
1A
1s
0t
0l
1m
19
0:
1]
0I
0G
1[
0F
1B
0*
1+
1\
0Z
1J
0]
1I
1G
0^
0H
0\
1C
0J
1K
1^
1H
0K
#820000
0!
0"
03
0@
0A
#825000
1!
1"
13
1@
1A
1t
0m
09
0[
1F
0B
0+
1Z
1]
0I
0G
1\
0C
1J
0^
0H
1K
#830000
0!
0"
03
0@
0A
#835000
1!
1"
13
1@
1A
1r
0s
0t
0k
1l
1m
19
1:
0;
0_
1L
0J
0]
1I
1G
1[
0F
1B
0)
1*
1+
1^
0\
0Z
1M
1_
0L
1J
0G
0`
0K
0^
1H
1\
1C
0M
1N
1`
1K
0H
0N
#840000
0!
0"
03
0@
0A
#845000
1!
1"
13
1@
1A
1t
0m
09
0[
1F
0B
0+
1Z
1G
0\
0C
1H
#850000
0!
0"
03
0@
0A
#855000
1!
1"
13
1@
1A
1s
0t
0l
1m
19
0:
1]
0I
0G
1[
0F
1B
0*
1+
1\
0Z
0_
1L
0J
0]
1I
1G
1^
0H
0\
1C
1M
1_
0L
1J
0`
0K
0^
1H
0M
1N
1`
1K
0N
#860000
0!
0"
03
0@
0A
#865000
1!
1"
13
1@
1A
1t
0m
09
0[
1F
0B
0+
1Z
1]
0I
0G
1\
0C
0_
1L
0J
1^
0H
1M
0`
0K
1N
#870000
0!
0"
03
0@
0A
#875000
1!
1"
13
1@
1A
1q
0r
0s
0t
0j
1k
1l
1m
19
1:
1;
0<
1a
1V
0O
0M
1_
0L
1J
0]
1I
1G
1[
0F
1B
0(
1)
1*
1+
1`
0^
0\
0Z
0c
1R
0P
0a
1O
1M
0J
0G
1b
0N
0`
1K
1^
1H
1\
1C
1e
1c
0R
1P
1d
1S
0Q
0b
1N
0K
0H
0e
1f
0d
0S
1Q
0f
#880000
0!
0"
03
0@
0A
#885000
1!
1"
13
1@
1A
1t
0m
09
0[
1F
0B
0+
1Z
1G
0\
0C
1H
#890000
0!
0"
03
0@
0A
#895000
1!
1"
13
1@
1A
1s
0t
0l
1m
19
0:
1]
0I
0G
1[
0F
1B
0*
1+
1\
0Z
1J
0]
1I
1G
0^
0H
0\
1C
0J
1K
1^
1H
0K
#900000
0!
0"
03
0@
0A
#905000
1!
1"
13
1@
1A
1t
0m
09
0[
1F
0B
0+
1Z
1]
0I
0G
1\
0C
1J
0^
0H
1K
#910000
0!
0"
03
0@
0A
#915000
1!
1"
13
1@
1A
1r
0s
0t
0k
1l
1m
19
1:
0;
0_
1L
0J
0]
1I
1G
1[
0F
1B
0)
1*
1+
1^
0\
0Z
1a
0O
0M
1_
0L
1J
0G
1`
0K
0^
1H
1\
1C
0c
1R
0P
0a
1O
1M
1b
0N
0`
1K
0H
1e
1c
0R
1P
1d
1S
0Q
0b
1N
0e
1f
0d
0S
1Q
0f
#920000
0!
0"
03
0@
0A
#925000
1!
1"
13
1@
1A
1t
0m
09
0[
1F
0B
0+
1Z
1G
0\
0C
1H
#930000
0!
0"
03
0@
0A
#935000
1!
1"
13
1@
1A
1s
0t
0l
1m
19
0:
1]
1W
0I
0G
1[
0F
1B
0*
1+
1\
0Z
0_
1L
0J
0]
1I
1G
1^
1X
0Q
0N
0K
0H
0\
1a
0O
0M
1_
0L
1J
1`
0^
0c
1R
0P
0a
1O
1M
1b
0`
1e
1c
0R
1P
1d
1S
0b
0e
1f
0d
0S
0f
#940000
0!
0"
03
0@
0A
#945000
1!
1"
13
1@
1A
0p
0q
0r
0s
0m
1Y
18
09
0V
0P
0M
0W
0J
0G
0+
1,
1b
1`
1^
1\
0X
1C
#950000
0!
0"
03
0@
0A
#955000
1!
1"
13
1@
1A
1t
1i
1j
1k
1l
0Y
08
1:
1;
1<
1=
0[
1F
0B
1'
1(
1)
1*
0,
1Z
1G
0\
0C
1H
#960000
0!
0"
03
0@
0A
#965000
1!
1"
13
1@
1A
1s
0t
0l
1m
19
0:
1]
0I
0G
1[
0F
1B
0*
1+
1\
0Z
1J
0]
1I
1G
0^
0H
0\
1C
0J
1K
1^
1H
0K
#970000
0!
0"
03
0@
0A
#975000
1!
1"
13
1@
1A
1t
0m
09
0[
1F
0B
0+
1Z
1]
0I
0G
1\
0C
1J
0^
0H
1K
#980000
0!
0"
03
0@
0A
#985000
1!
1"
13
1@
1A
1r
0s
0t
0k
1l
1m
19
1:
0;
0_
1L
0J
0]
1I
1G
1[
0F
1B
0)
1*
1+
1^
0\
0Z
1M
1_
0L
1J
0G
0`
0K
0^
1H
1\
1C
0M
1N
1`
1K
0H
0N
#990000
0!
0"
03
0@
0A
#995000
1!
1"
13
1@
1A
1t
0m
09
0[
1F
0B
0+
1Z
1G
0\
0C
1H
