projeto01/simulation/qsim/projeto01.msim.vcd
$comment
	File created using the following command:
		vcd file projeto01.msim.vcd -direction
$end
$date
	Wed Aug 07 14:34:09 2024
$end
$version
	ModelSim Version 10.5b
$end
$timescale
	1ps
$end

$scope module Saida_vlg_vec_tst $end
$var reg 2 ! PhraseSel [1:0] $end
$var reg 2 " Principal_Pedestrian [1:0] $end
$var reg 3 # Principal_Road [2:0] $end
$var reg 2 $ Secondary_Pedestrian [1:0] $end
$var reg 3 % Secondary_Road [2:0] $end
$var reg 2 & StateFlag [1:0] $end
$var reg 7 ' Ta [6:0] $end
$var reg 7 ( Tpv [6:0] $end
$var reg 7 ) Tsv [6:0] $end
$var reg 1 * clock50MHz $end
$var reg 1 + clock500Hz $end
$var reg 1 , reset $end
$var reg 7 - timeRemaining [6:0] $end
$var wire 1 . DB [7] $end
$var wire 1 / DB [6] $end
$var wire 1 0 DB [5] $end
$var wire 1 1 DB [4] $end
$var wire 1 2 DB [3] $end
$var wire 1 3 DB [2] $end
$var wire 1 4 DB [1] $end
$var wire 1 5 DB [0] $end
$var wire 1 6 E $end
$var wire 1 7 RS $end
$var wire 1 8 RW $end

$scope module i1 $end
$var wire 1 9 gnd $end
$var wire 1 : vcc $end
$var wire 1 ; unknown $end
$var tri1 1 < devclrn $end
$var tri1 1 = devpor $end
$var tri1 1 > devoe $end
$var wire 1 ? Tpv[0]~input_o $end
$var wire 1 @ Tpv[1]~input_o $end
$var wire 1 A Tpv[2]~input_o $end
$var wire 1 B Tpv[3]~input_o $end
$var wire 1 C Tpv[4]~input_o $end
$var wire 1 D Tpv[5]~input_o $end
$var wire 1 E Tpv[6]~input_o $end
$var wire 1 F Tsv[0]~input_o $end
$var wire 1 G Tsv[1]~input_o $end
$var wire 1 H Tsv[2]~input_o $end
$var wire 1 I Tsv[3]~input_o $end
$var wire 1 J Tsv[4]~input_o $end
$var wire 1 K Tsv[5]~input_o $end
$var wire 1 L Tsv[6]~input_o $end
$var wire 1 M Ta[0]~input_o $end
$var wire 1 N Ta[1]~input_o $end
$var wire 1 O Ta[2]~input_o $end
$var wire 1 P Ta[3]~input_o $end
$var wire 1 Q Ta[4]~input_o $end
$var wire 1 R Ta[5]~input_o $end
$var wire 1 S Ta[6]~input_o $end
$var wire 1 T timeRemaining[0]~input_o $end
$var wire 1 U timeRemaining[1]~input_o $end
$var wire 1 V timeRemaining[2]~input_o $end
$var wire 1 W timeRemaining[3]~input_o $end
$var wire 1 X timeRemaining[4]~input_o $end
$var wire 1 Y timeRemaining[5]~input_o $end
$var wire 1 Z timeRemaining[6]~input_o $end
$var wire 1 [ Principal_Road[0]~input_o $end
$var wire 1 \ Principal_Road[1]~input_o $end
$var wire 1 ] Principal_Road[2]~input_o $end
$var wire 1 ^ Secondary_Road[0]~input_o $end
$var wire 1 _ Secondary_Road[1]~input_o $end
$var wire 1 ` Secondary_Road[2]~input_o $end
$var wire 1 a Principal_Pedestrian[0]~input_o $end
$var wire 1 b Principal_Pedestrian[1]~input_o $end
$var wire 1 c Secondary_Pedestrian[0]~input_o $end
$var wire 1 d Secondary_Pedestrian[1]~input_o $end
$var wire 1 e StateFlag[0]~input_o $end
$var wire 1 f StateFlag[1]~input_o $end
$var wire 1 g RS~output_o $end
$var wire 1 h RW~output_o $end
$var wire 1 i E~output_o $end
$var wire 1 j DB[0]~output_o $end
$var wire 1 k DB[1]~output_o $end
$var wire 1 l DB[2]~output_o $end
$var wire 1 m DB[3]~output_o $end
$var wire 1 n DB[4]~output_o $end
$var wire 1 o DB[5]~output_o $end
$var wire 1 p DB[6]~output_o $end
$var wire 1 q DB[7]~output_o $end
$var wire 1 r clock500Hz~input_o $end
$var wire 1 s clock500Hz~inputclkctrl_outclk $end
$var wire 1 t inst02|PresentState.FS1~feeder_combout $end
$var wire 1 u reset~input_o $end
$var wire 1 v reset~inputclkctrl_outclk $end
$var wire 1 w inst02|PresentState.FS1~q $end
$var wire 1 x inst02|PresentState.FS2~0_combout $end
$var wire 1 y inst02|PresentState.FS2~q $end
$var wire 1 z inst02|PresentState.FS3~feeder_combout $end
$var wire 1 { inst02|PresentState.FS3~q $end
$var wire 1 | inst02|PresentState.FS4~q $end
$var wire 1 } inst02|char_index[1]~12_combout $end
$var wire 1 ~ inst02|Add0~0_combout $end
$var wire 1 !! inst02|char_index~10_combout $end
$var wire 1 "! inst02|Add0~1 $end
$var wire 1 #! inst02|Add0~2_combout $end
$var wire 1 $! inst02|Add0~3 $end
$var wire 1 %! inst02|Add0~4_combout $end
$var wire 1 &! inst02|Selector10~1_combout $end
$var wire 1 '! inst02|Equal0~0_combout $end
$var wire 1 (! inst02|NextState.SetAddress~0_combout $end
$var wire 1 )! inst02|PresentState.SetAddress~q $end
$var wire 1 *! inst02|Add0~5 $end
$var wire 1 +! inst02|Add0~6_combout $end
$var wire 1 ,! inst02|Equal1~0_combout $end
$var wire 1 -! inst02|char_index~11_combout $end
$var wire 1 .! inst02|Selector8~0_combout $end
$var wire 1 /! inst02|PresentState.ClearDisplay~q $end
$var wire 1 0! inst02|PresentState.DisplayControl~feeder_combout $end
$var wire 1 1! inst02|PresentState.DisplayControl~q $end
$var wire 1 2! inst02|PresentState.EntryMode~q $end
$var wire 1 3! inst02|Selector9~0_combout $end
$var wire 1 4! inst02|Selector9~1_combout $end
$var wire 1 5! inst02|PresentState.WriteChar~q $end
$var wire 1 6! PhraseSel[1]~input_o $end
$var wire 1 7! PhraseSel[0]~input_o $end
$var wire 1 8! inst02|Selector1~0_combout $end
$var wire 1 9! clock50MHz~input_o $end
$var wire 1 :! clock50MHz~inputclkctrl_outclk $end
$var wire 1 ;! inst02|char_index[2]~14_combout $end
$var wire 1 <! inst02|char_index[3]~13_combout $end
$var wire 1 =! inst02|Selector10~0_combout $end
$var wire 1 >! inst01|inst01|phrase~1_combout $end
$var wire 1 ?! inst01|inst01|phrase~0_combout $end
$var wire 1 @! inst01|inst01|phrase~2_combout $end
$var wire 1 A! inst02|Selector7~0_combout $end
$var wire 1 B! inst01|inst01|phrase~3_combout $end
$var wire 1 C! inst01|inst01|phrase~4_combout $end
$var wire 1 D! inst01|inst01|phrase~5_combout $end
$var wire 1 E! inst02|Selector6~0_combout $end
$var wire 1 F! inst01|inst01|phrase~13_combout $end
$var wire 1 G! inst01|inst01|phrase~14_combout $end
$var wire 1 H! inst02|Selector5~0_combout $end
$var wire 1 I! inst02|Selector4~0_combout $end
$var wire 1 J! inst01|inst01|phrase~11_combout $end
$var wire 1 K! inst01|inst01|phrase~12_combout $end
$var wire 1 L! inst02|Selector4~1_combout $end
$var wire 1 M! inst01|inst01|phrase~6_combout $end
$var wire 1 N! inst01|inst01|phrase~7_combout $end
$var wire 1 O! inst01|inst01|phrase~8_combout $end
$var wire 1 P! inst02|Selector3~0_combout $end
$var wire 1 Q! inst01|inst01|phrase~9_combout $end
$var wire 1 R! inst02|Selector2~0_combout $end
$var wire 1 S! inst01|inst01|phrase~10_combout $end
$var wire 1 T! inst02|Selector1~1_combout $end
$var wire 1 U! inst01|inst01|dataOut [7] $end
$var wire 1 V! inst01|inst01|dataOut [6] $end
$var wire 1 W! inst01|inst01|dataOut [5] $end
$var wire 1 X! inst01|inst01|dataOut [4] $end
$var wire 1 Y! inst01|inst01|dataOut [3] $end
$var wire 1 Z! inst01|inst01|dataOut [2] $end
$var wire 1 [! inst01|inst01|dataOut [1] $end
$var wire 1 \! inst01|inst01|dataOut [0] $end
$upscope $end
$upscope $end
$enddefinitions $end
#0
$dumpvars
b0 !
b0 "
b0 #
b0 $
b0 %
b0 &
b0 '
b0 (
b0 )
0*
0+
1,
b0 -
05
04
03
12
11
10
0/
0.
06
07
08
09
1:
x;
1<
1=
1>
0?
0@
0A
0B
0C
0D
0E
0F
0G
0H
0I
0J
0K
0L
0M
0N
0O
0P
0Q
0R
0S
0T
0U
0V
0W
0X
0Y
0Z
0[
0\
0]
0^
0_
0`
0a
0b
0c
0d
0e
0f
0g
0h
0i
0j
0k
0l
1m
1n
1o
0p
0q
0r
0s
1t
1u
1v
0w
1x
0y
0z
0{
0|
0}
0~
0!!
0"!
0#!
1$!
0%!
0&!
0'!
0(!
0)!
0*!
0+!
1,!
0-!
0.!
0/!
00!
01!
02!
03!
04!
05!
06!
07!
08!
09!
0:!
0;!
0<!
0=!
0>!
0?!
0@!
0A!
0B!
0C!
0D!
0E!
0F!
0G!
0H!
0I!
0J!
0K!
1L!
0M!
0N!
1O!
1P!
0Q!
1R!
1S!
0T!
0\!
0[!
0Z!
0Y!
0X!
0W!
0V!
zU!
$end
#500
1*
19!
1:!
1V!
1X!
#1000
0*
09!
0:!
#1500
1*
19!
1:!
#2000
0*
09!
0:!
#2500
1*
19!
1:!
#3000
0*
09!
0:!
#3500
1*
19!
1:!
#4000
0*
09!
0:!
#4500
1*
19!
1:!
#5000
1+
0*
09!
0:!
1r
1s
1i
16
#5500
1*
19!
1:!
#6000
0*
09!
0:!
#6500
1*
19!
1:!
#7000
0*
09!
0:!
#7500
1*
19!
1:!
#8000
0*
09!
0:!
#8500
1*
19!
1:!
#9000
0*
09!
0:!
#9500
1*
19!
1:!
#10000
0+
0*
09!
0:!
0r
0s
0i
06
#10500
1*
19!
1:!
#11000
0*
09!
0:!
#11500
1*
19!
1:!
#12000
0*
09!
0:!
#12500
1*
19!
1:!
#13000
0*
09!
0:!
#13500
1*
19!
1:!
#14000
0*
09!
0:!
#14500
1*
19!
1:!
#15000
1+
0*
09!
0:!
1r
1s
1i
16
#15500
1*
19!
1:!
#16000
0*
09!
0:!
#16500
1*
19!
1:!
#17000
0*
09!
0:!
#17500
1*
19!
1:!
#18000
0*
09!
0:!
#18500
1*
19!
1:!
#19000
0*
09!
0:!
#19500
1*
19!
1:!
#20000
0+
0*
09!
0:!
0r
0s
0i
06
#20500
1*
19!
1:!
#21000
0*
09!
0:!
#21500
1*
19!
1:!
#22000
0*
09!
0:!
#22500
1*
19!
1:!
#23000
0*
09!
0:!
#23500
1*
19!
1:!
#24000
0*
09!
0:!
#24500
1*
19!
1:!
#25000
1+
0*
09!
0:!
1r
1s
1i
16
#25500
1*
19!
1:!
#26000
0*
09!
0:!
#26500
1*
19!
1:!
#27000
0*
09!
0:!
#27500
1*
19!
1:!
#28000
0*
09!
0:!
#28500
1*
19!
1:!
#29000
0*
09!
0:!
#29500
1*
19!
1:!
#30000
0,
0+
0*
0u
09!
0v
0:!
0r
0s
0i
06
#30500
1*
19!
1:!
#31000
0*
09!
0:!
#31500
1*
19!
1:!
#32000
0*
09!
0:!
#32500
1*
19!
1:!
#33000
0*
09!
0:!
#33500
1*
19!
1:!
#34000
0*
09!
0:!
#34500
1*
19!
1:!
#35000
1+
0*
09!
0:!
1r
1s
1i
16
1y
1w
1z
0x
#35500
1*
19!
1:!
#36000
0*
09!
0:!
#36500
1*
19!
1:!
#37000
0*
09!
0:!
#37500
1*
19!
1:!
#38000
0*
09!
0:!
#38500
1*
19!
1:!
#39000
0*
09!
0:!
#39500
1*
19!
1:!
#40000
0+
0*
09!
0:!
0r
0s
0i
06
#40500
1*
19!
1:!
#41000
0*
09!
0:!
#41500
1*
19!
1:!
#42000
0*
09!
0:!
#42500
1*
19!
1:!
#43000
0*
09!
0:!
#43500
1*
19!
1:!
#44000
0*
09!
0:!
#44500
1*
19!
1:!
#45000
1+
0*
09!
0:!
1r
1s
1i
16
1{
0y
0z
#45500
1*
19!
1:!
#46000
0*
09!
0:!
#46500
1*
19!
1:!
#47000
0*
09!
0:!
#47500
1*
19!
1:!
#48000
0*
09!
0:!
#48500
1*
19!
1:!
#49000
0*
09!
0:!
#49500
1*
19!
1:!
#50000
0+
0*
09!
0:!
0r
0s
0i
06
#50500
1*
19!
1:!
#51000
0*
09!
0:!
#51500
1*
19!
1:!
#52000
0*
09!
0:!
#52500
1*
19!
1:!
#53000
0*
09!
0:!
#53500
1*
19!
1:!
#54000
0*
09!
0:!
#54500
1*
19!
1:!
#55000
1+
0*
09!
0:!
1r
1s
1i
16
1|
0{
1.!
#55500
1*
19!
1:!
#56000
0*
09!
0:!
#56500
1*
19!
1:!
#57000
0*
09!
0:!
#57500
1*
19!
1:!
#58000
0*
09!
0:!
#58500
1*
19!
1:!
#59000
0*
09!
0:!
#59500
1*
19!
1:!
#60000
0+
0*
09!
0:!
0r
0s
0i
06
#60500
1*
19!
1:!
#61000
0*
09!
0:!
#61500
1*
19!
1:!
#62000
0*
09!
0:!
#62500
1*
19!
1:!
#63000
0*
09!
0:!
#63500
1*
19!
1:!
#64000
0*
09!
0:!
#64500
1*
19!
1:!
#65000
1+
0*
09!
0:!
1r
1s
1i
16
1/!
0|
1I!
1A!
10!
0.!
1j
15
0R!
0P!
0L!
0m
0n
0o
00
01
02
#65500
1*
19!
1:!
#66000
0*
09!
0:!
#66500
1*
19!
1:!
#67000
0*
09!
0:!
#67500
1*
19!
1:!
#68000
0*
09!
0:!
#68500
1*
19!
1:!
#69000
0*
09!
0:!
#69500
1*
19!
1:!
#70000
0+
0*
09!
0:!
0r
0s
0i
06
#70500
1*
19!
1:!
#71000
0*
09!
0:!
#71500
1*
19!
1:!
#72000
0*
09!
0:!
#72500
1*
19!
1:!
#73000
0*
09!
0:!
#73500
1*
19!
1:!
#74000
0*
09!
0:!
#74500
1*
19!
1:!
#75000
1+
0*
09!
0:!
1r
1s
1i
16
11!
0/!
1L!
1H!
0A!
00!
0j
1l
1m
12
13
05
#75500
1*
19!
1:!
#76000
0*
09!
0:!
#76500
1*
19!
1:!
#77000
0*
09!
0:!
#77500
1*
19!
1:!
#78000
0*
09!
0:!
#78500
1*
19!
1:!
#79000
0*
09!
0:!
#79500
1*
19!
1:!
#80000
0+
0*
09!
0:!
0r
0s
0i
06
#80500
1*
19!
1:!
#81000
0*
09!
0:!
#81500
1*
19!
1:!
#82000
0*
09!
0:!
#82500
1*
19!
1:!
#83000
0*
09!
0:!
#83500
1*
19!
1:!
#84000
0*
09!
0:!
#84500
1*
19!
1:!
#85000
1+
0*
09!
0:!
1r
1s
1i
16
12!
01!
13!
1E!
0L!
0m
1k
14
02
14!
#85500
1*
19!
1:!
#86000
0*
09!
0:!
#86500
1*
19!
1:!
#87000
0*
09!
0:!
#87500
1*
19!
1:!
#88000
0*
09!
0:!
#88500
1*
19!
1:!
#89000
0*
09!
0:!
#89500
1*
19!
1:!
#90000
0+
0*
09!
0:!
0r
0s
0i
06
#90500
1*
19!
1:!
#91000
0*
09!
0:!
#91500
1*
19!
1:!
#92000
0*
09!
0:!
#92500
1*
19!
1:!
#93000
0*
09!
0:!
#93500
1*
19!
1:!
#94000
0*
09!
0:!
#94500
1*
19!
1:!
