pratica02/simulation/qsim/atv02.msim.vcd
$comment
	File created using the following command:
		vcd file atv02.msim.vcd -direction
$end
$date
	Wed Apr 10 16:33:46 2024
$end
$version
	ModelSim Version 10.5b
$end
$timescale
	1ps
$end

$scope module testsomador_vhd_vec_tst $end
$var wire 1 ! A [3] $end
$var wire 1 " A [2] $end
$var wire 1 # A [1] $end
$var wire 1 $ A [0] $end
$var wire 1 % B [3] $end
$var wire 1 & B [2] $end
$var wire 1 ' B [1] $end
$var wire 1 ( B [0] $end
$var wire 1 ) Sum [4] $end
$var wire 1 * Sum [3] $end
$var wire 1 + Sum [2] $end
$var wire 1 , Sum [1] $end
$var wire 1 - Sum [0] $end

$scope module i1 $end
$var wire 1 . gnd $end
$var wire 1 / vcc $end
$var wire 1 0 unknown $end
$var wire 1 1 devoe $end
$var wire 1 2 devclrn $end
$var wire 1 3 devpor $end
$var wire 1 4 ww_devoe $end
$var wire 1 5 ww_devclrn $end
$var wire 1 6 ww_devpor $end
$var wire 1 7 ww_Sum [4] $end
$var wire 1 8 ww_Sum [3] $end
$var wire 1 9 ww_Sum [2] $end
$var wire 1 : ww_Sum [1] $end
$var wire 1 ; ww_Sum [0] $end
$var wire 1 < ww_A [3] $end
$var wire 1 = ww_A [2] $end
$var wire 1 > ww_A [1] $end
$var wire 1 ? ww_A [0] $end
$var wire 1 @ ww_B [3] $end
$var wire 1 A ww_B [2] $end
$var wire 1 B ww_B [1] $end
$var wire 1 C ww_B [0] $end
$var wire 1 D \Sum[4]~output_o\ $end
$var wire 1 E \Sum[3]~output_o\ $end
$var wire 1 F \Sum[2]~output_o\ $end
$var wire 1 G \Sum[1]~output_o\ $end
$var wire 1 H \Sum[0]~output_o\ $end
$var wire 1 I \A[3]~input_o\ $end
$var wire 1 J \B[3]~input_o\ $end
$var wire 1 K \B[2]~input_o\ $end
$var wire 1 L \A[2]~input_o\ $end
$var wire 1 M \A[1]~input_o\ $end
$var wire 1 N \B[1]~input_o\ $end
$var wire 1 O \A[0]~input_o\ $end
$var wire 1 P \B[0]~input_o\ $end
$var wire 1 Q \inst|Sum[0]~1\ $end
$var wire 1 R \inst|Sum[1]~3\ $end
$var wire 1 S \inst|Sum[2]~5\ $end
$var wire 1 T \inst|Sum[3]~7\ $end
$var wire 1 U \inst|Sum[4]~8_combout\ $end
$var wire 1 V \inst|Sum[3]~6_combout\ $end
$var wire 1 W \inst|Sum[2]~4_combout\ $end
$var wire 1 X \inst|Sum[1]~2_combout\ $end
$var wire 1 Y \inst|Sum[0]~0_combout\ $end
$upscope $end
$upscope $end
$enddefinitions $end
#0
$dumpvars
0.
1/
x0
11
12
13
14
15
16
0D
0E
0F
0G
0H
0I
0J
0K
0L
0M
0N
0O
0P
0Q
1R
0S
1T
0U
0V
0W
0X
0Y
0!
0"
0#
0$
0%
0&
0'
0(
07
08
09
0:
0;
0<
0=
0>
0?
0@
0A
0B
0C
0)
0*
0+
0,
0-
$end
#50000
1$
1?
1O
1Y
1H
1;
1-
#100000
0$
1#
1(
0?
1>
1C
1P
1M
0O
1X
1G
1:
1,
#150000
1$
1?
1O
0Y
1Q
0X
0R
1W
0H
0;
0G
0-
0:
1F
0,
19
1+
#200000
0$
0#
0(
1"
1'
0?
0>
1=
0C
1B
1N
0P
1L
0M
0O
0W
1S
0Q
1X
1R
1V
1W
0S
0F
0V
09
1E
1G
0+
18
1:
1F
1,
1*
19
0E
1+
08
0*
#250000
1$
1?
1O
1Y
1H
1;
1-
#300000
0$
1#
1(
0?
1>
1C
1P
1M
0O
0X
0R
0W
1S
1V
0G
0:
0F
0,
09
1E
0+
18
1*
#350000
1$
1?
1O
0Y
1Q
1X
0H
0;
1G
0-
1:
1,
#400000
0$
0#
0(
0"
0'
1!
1&
0?
0>
0=
1<
0C
0B
1A
1K
0N
0P
1I
0L
0M
0O
0V
0T
0Q
1R
1W
0S
0X
1U
1V
1T
0E
0U
08
1D
0G
1F
0*
17
0:
19
1E
0,
1+
1)
18
0D
1*
07
0)
#450000
1$
1?
1O
1Y
1H
1;
1-
#500000
0$
1#
1(
0?
1>
1C
1P
1M
0O
1X
1G
1:
1,
#550000
1$
1?
1O
0Y
1Q
0X
0R
0W
1S
0H
0V
0T
0;
0G
0-
1U
0:
0F
0,
09
0E
0+
08
1D
0*
17
1)
#600000
0$
0#
0(
1"
1'
0?
0>
1=
0C
1B
1N
0P
1L
0M
0O
1W
0Q
1X
1R
0W
1F
19
1G
1+
1:
0F
1,
09
0+
#650000
1$
1?
1O
1Y
1H
1;
1-
#700000
0$
1#
1(
0?
1>
1C
1P
1M
0O
0X
0R
1W
0G
0:
1F
0,
19
1+
#750000
1$
1?
1O
0Y
1Q
1X
0H
0;
1G
0-
1:
1,
#800000
0$
0#
0(
0"
0'
0!
0&
1%
0?
0>
0=
0<
0C
0B
0A
1@
1J
0K
0N
0P
0I
0L
0M
0O
0Q
1R
0S
1V
1T
0W
0X
0U
0G
0F
1E
0:
09
18
0D
0,
0+
1*
07
0)
#850000
1$
1?
1O
1Y
1H
1;
1-
#900000
0$
1#
1(
0?
1>
1C
1P
1M
0O
1X
1G
1:
1,
#950000
1$
1?
1O
0Y
1Q
0X
0R
1W
0H
0;
0G
0-
0:
1F
0,
19
1+
