pratica02/simulation/qsim/atv02.msim.vcd
$comment
	File created using the following command:
		vcd file atv02.msim.vcd -direction
$end
$date
	Thu Jun 13 18:30:33 2024
$end
$version
	ModelSim Version 10.5b
$end
$timescale
	1ps
$end

$scope module mod8counter_vhd_vec_tst $end
$var wire 1 ! CLK $end
$var wire 1 " dv $end
$var wire 1 # reset $end

$scope module i1 $end
$var wire 1 $ gnd $end
$var wire 1 % vcc $end
$var wire 1 & unknown $end
$var wire 1 ' devoe $end
$var wire 1 ( devclrn $end
$var wire 1 ) devpor $end
$var wire 1 * ww_devoe $end
$var wire 1 + ww_devclrn $end
$var wire 1 , ww_devpor $end
$var wire 1 - ww_CLK $end
$var wire 1 . ww_reset $end
$var wire 1 / ww_dv $end
$var wire 1 0 \CLK~inputclkctrl_INCLK_bus\ [3] $end
$var wire 1 1 \CLK~inputclkctrl_INCLK_bus\ [2] $end
$var wire 1 2 \CLK~inputclkctrl_INCLK_bus\ [1] $end
$var wire 1 3 \CLK~inputclkctrl_INCLK_bus\ [0] $end
$var wire 1 4 \dv~output_o\ $end
$var wire 1 5 \CLK~input_o\ $end
$var wire 1 6 \CLK~inputclkctrl_outclk\ $end
$var wire 1 7 \CountBuffer[0]~2_combout\ $end
$var wire 1 8 \reset~input_o\ $end
$var wire 1 9 \CountBuffer[1]~1_combout\ $end
$var wire 1 : \CountBuffer[2]~0_combout\ $end
$var wire 1 ; \LessThan0~0_combout\ $end
$var wire 1 < CountBuffer [2] $end
$var wire 1 = CountBuffer [1] $end
$var wire 1 > CountBuffer [0] $end
$var wire 1 ? \ALT_INV_LessThan0~0_combout\ $end
$upscope $end
$upscope $end
$enddefinitions $end
#0
$dumpvars
0!
0"
0#
0$
1%
x&
1'
1(
1)
1*
1+
1,
0-
0.
0/
04
05
06
17
08
09
0:
1;
0?
0<
0=
0>
10
11
12
03
$end
#10000
1!
1-
15
13
16
#20000
0!
0-
05
03
06
#30000
1!
1-
15
13
16
#40000
0!
0-
05
03
06
#50000
1!
1-
15
13
16
#60000
0!
0-
05
03
06
#70000
1!
1-
15
13
16
#80000
0!
0-
05
03
06
#90000
1!
1-
15
13
16
#100000
0!
0-
05
03
06
#110000
1!
1-
15
13
16
#120000
0!
0-
05
03
06
#130000
1!
1-
15
13
16
#140000
0!
0-
05
03
06
#150000
1!
1-
15
13
16
#160000
0!
0-
05
03
06
#170000
1!
1-
15
13
16
#180000
0!
0-
05
03
06
#190000
1!
1-
15
13
16
#200000
0!
0-
05
03
06
#210000
1!
1-
15
13
16
#220000
0!
0-
05
03
06
#230000
1!
1-
15
13
16
#240000
0!
0-
05
03
06
#250000
1!
1-
15
13
16
#260000
0!
0-
05
03
06
#270000
1!
1-
15
13
16
#280000
0!
0-
05
03
06
#290000
1!
1-
15
13
16
#300000
0!
0-
05
03
06
#310000
1!
1-
15
13
16
#320000
0!
0-
05
03
06
#330000
1!
1-
15
13
16
#340000
0!
0-
05
03
06
#350000
1!
1-
15
13
16
#360000
0!
0-
05
03
06
#370000
1!
1-
15
13
16
#380000
0!
0-
05
03
06
#390000
1!
1-
15
13
16
#400000
0!
0-
05
03
06
#410000
1!
1-
15
13
16
#420000
0!
0-
05
03
06
#430000
1!
1-
15
13
16
#440000
0!
0-
05
03
06
#450000
1!
1-
15
13
16
#460000
0!
0-
05
03
06
#470000
1!
1-
15
13
16
#480000
0!
0-
05
03
06
#490000
1!
1-
15
13
16
#500000
0!
1#
0-
1.
18
05
03
06
#510000
1!
1-
15
13
16
1>
07
19
#520000
0!
0-
05
03
06
#530000
1!
1-
15
13
16
0>
1=
17
#540000
0!
0-
05
03
06
#550000
1!
1-
15
13
16
1>
07
09
1:
#560000
0!
0-
05
03
06
#570000
1!
1-
15
13
16
0>
0=
1<
17
#580000
0!
0-
05
03
06
#590000
1!
1-
15
13
16
1>
07
19
#600000
0!
0-
05
03
06
#610000
1!
1-
15
13
16
0>
1=
17
#620000
0!
0-
05
03
06
#630000
1!
1-
15
13
16
1>
07
09
0:
0;
1?
14
1/
1"
#640000
0!
0-
05
03
06
#650000
1!
1-
15
13
16
0>
0=
0<
17
1;
0?
04
0/
0"
#660000
0!
0-
05
03
06
#670000
1!
1-
15
13
16
1>
07
19
#680000
0!
0-
05
03
06
#690000
1!
1-
15
13
16
0>
1=
17
#700000
0!
0-
05
03
06
#710000
1!
1-
15
13
16
1>
07
09
1:
#720000
0!
0-
05
03
06
#730000
1!
1-
15
13
16
0>
0=
1<
17
#740000
0!
0-
05
03
06
#750000
1!
1-
15
13
16
1>
07
19
#760000
0!
0-
05
03
06
#770000
1!
1-
15
13
16
0>
1=
17
#780000
0!
0-
05
03
06
#790000
1!
1-
15
13
16
1>
07
09
0:
0;
1?
14
1/
1"
#800000
0!
0-
05
03
06
#810000
1!
1-
15
13
16
0>
0=
0<
17
1;
0?
04
0/
0"
#820000
0!
0-
05
03
06
#830000
1!
1-
15
13
16
1>
07
19
#840000
0!
0-
05
03
06
#850000
1!
1-
15
13
16
0>
1=
17
#860000
0!
0-
05
03
06
#870000
1!
1-
15
13
16
1>
07
09
1:
#880000
0!
0-
05
03
06
#890000
1!
1-
15
13
16
0>
0=
1<
17
#900000
0!
0-
05
03
06
#910000
1!
1-
15
13
16
1>
07
19
#920000
0!
0-
05
03
06
#930000
1!
1-
15
13
16
0>
1=
17
#940000
0!
0-
05
03
06
#950000
1!
1-
15
13
16
1>
07
09
0:
0;
1?
14
1/
1"
#960000
0!
0-
05
03
06
#970000
1!
1-
15
13
16
0>
0=
0<
17
1;
0?
04
0/
0"
#980000
0!
0-
05
03
06
#990000
1!
1-
15
13
16
1>
07
19
