pratica05/simulation/qsim/pratica05.msim.vcd
$comment
	File created using the following command:
		vcd file pratica05.msim.vcd -direction
$end
$date
	Fri Aug 23 14:22:20 2024
$end
$version
	ModelSim Version 10.5b
$end
$timescale
	1ps
$end

$scope module Sistema_vlg_vec_tst $end
$var reg 4 ! AddressIn [3:0] $end
$var reg 4 " KeypadData [3:0] $end
$var reg 1 # clock1Hz $end
$var reg 1 $ clock50MHz $end
$var reg 1 % dav $end
$var reg 1 & reset $end
$var wire 1 ' DataOut [3] $end
$var wire 1 ( DataOut [2] $end
$var wire 1 ) DataOut [1] $end
$var wire 1 * DataOut [0] $end
$var wire 1 + PresentStateDEBUG [1] $end
$var wire 1 , PresentStateDEBUG [0] $end

$scope module i1 $end
$var wire 1 - gnd $end
$var wire 1 . vcc $end
$var wire 1 / unknown $end
$var tri1 1 0 devclrn $end
$var tri1 1 1 devpor $end
$var tri1 1 2 devoe $end
$var wire 1 3 dav~input_o $end
$var wire 1 4 DataOut[0]~output_o $end
$var wire 1 5 DataOut[1]~output_o $end
$var wire 1 6 DataOut[2]~output_o $end
$var wire 1 7 DataOut[3]~output_o $end
$var wire 1 8 PresentStateDEBUG[0]~output_o $end
$var wire 1 9 PresentStateDEBUG[1]~output_o $end
$var wire 1 : clock50MHz~input_o $end
$var wire 1 ; clock50MHz~inputclkctrl_outclk $end
$var wire 1 < AddressIn[3]~input_o $end
$var wire 1 = AddressIn[0]~input_o $end
$var wire 1 > KeypadData[0]~input_o $end
$var wire 1 ? inst02|RamBlock~52feeder_combout $end
$var wire 1 @ AddressIn[1]~input_o $end
$var wire 1 A AddressIn[2]~input_o $end
$var wire 1 B inst02|RamBlock~128_combout $end
$var wire 1 C clock1Hz~input_o $end
$var wire 1 D clock1Hz~inputclkctrl_outclk $end
$var wire 1 E inst00|PresentState.Read~feeder_combout $end
$var wire 1 F reset~input_o $end
$var wire 1 G reset~inputclkctrl_outclk $end
$var wire 1 H inst01|counter[0]~7_combout $end
$var wire 1 I inst01|counter[0]~8 $end
$var wire 1 J inst01|counter[1]~9_combout $end
$var wire 1 K inst01|counter[1]~10 $end
$var wire 1 L inst01|counter[2]~11_combout $end
$var wire 1 M inst01|counter[2]~12 $end
$var wire 1 N inst01|counter[3]~13_combout $end
$var wire 1 O inst01|counter[3]~14 $end
$var wire 1 P inst01|counter[4]~15_combout $end
$var wire 1 Q inst01|counter[4]~16 $end
$var wire 1 R inst01|counter[5]~17_combout $end
$var wire 1 S inst01|counter[5]~18 $end
$var wire 1 T inst01|counter[6]~19_combout $end
$var wire 1 U inst01|Equal0~0_combout $end
$var wire 1 V inst01|Equal0~1_combout $end
$var wire 1 W inst01|Equal0~2_combout $end
$var wire 1 X inst01|trigger~feeder_combout $end
$var wire 1 Y inst01|trigger~q $end
$var wire 1 Z inst00|PresentState.Read~q $end
$var wire 1 [ inst00|PresentState.Idle~0_combout $end
$var wire 1 \ inst00|PresentState.Idle~q $end
$var wire 1 ] inst00|PresentState.Write~0_combout $end
$var wire 1 ^ inst00|PresentState.Write~q $end
$var wire 1 _ inst02|RamBlock~129_combout $end
$var wire 1 ` inst02|RamBlock~52_q $end
$var wire 1 a inst02|RamBlock~134_combout $end
$var wire 1 b inst02|RamBlock~135_combout $end
$var wire 1 c inst02|RamBlock~60_q $end
$var wire 1 d inst02|RamBlock~132_combout $end
$var wire 1 e inst02|RamBlock~133_combout $end
$var wire 1 f inst02|RamBlock~48_q $end
$var wire 1 g inst02|RamBlock~56feeder_combout $end
$var wire 1 h inst02|RamBlock~130_combout $end
$var wire 1 i inst02|RamBlock~131_combout $end
$var wire 1 j inst02|RamBlock~56_q $end
$var wire 1 k inst02|RamBlock~71_combout $end
$var wire 1 l inst02|RamBlock~72_combout $end
$var wire 1 m inst02|RamBlock~40feeder_combout $end
$var wire 1 n inst02|RamBlock~104_combout $end
$var wire 1 o inst02|RamBlock~105_combout $end
$var wire 1 p inst02|RamBlock~40_q $end
$var wire 1 q inst02|RamBlock~108_combout $end
$var wire 1 r inst02|RamBlock~109_combout $end
$var wire 1 s inst02|RamBlock~32_q $end
$var wire 1 t inst02|RamBlock~106_combout $end
$var wire 1 u inst02|RamBlock~107_combout $end
$var wire 1 v inst02|RamBlock~36_q $end
$var wire 1 w inst02|RamBlock~64_combout $end
$var wire 1 x inst02|RamBlock~110_combout $end
$var wire 1 y inst02|RamBlock~111_combout $end
$var wire 1 z inst02|RamBlock~44_q $end
$var wire 1 { inst02|RamBlock~65_combout $end
$var wire 1 | inst02|RamBlock~8feeder_combout $end
$var wire 1 } inst02|RamBlock~120_combout $end
$var wire 1 ~ inst02|RamBlock~121_combout $end
$var wire 1 !! inst02|RamBlock~8_q $end
$var wire 1 "! inst02|RamBlock~126_combout $end
$var wire 1 #! inst02|RamBlock~127_combout $end
$var wire 1 $! inst02|RamBlock~12_q $end
$var wire 1 %! inst02|RamBlock~124_combout $end
$var wire 1 &! inst02|RamBlock~125_combout $end
$var wire 1 '! inst02|RamBlock~0_q $end
$var wire 1 (! inst02|RamBlock~122_combout $end
$var wire 1 )! inst02|RamBlock~123_combout $end
$var wire 1 *! inst02|RamBlock~4_q $end
$var wire 1 +! inst02|RamBlock~68_combout $end
$var wire 1 ,! inst02|RamBlock~69_combout $end
$var wire 1 -! inst02|RamBlock~20feeder_combout $end
$var wire 1 .! inst02|RamBlock~112_combout $end
$var wire 1 /! inst02|RamBlock~113_combout $end
$var wire 1 0! inst02|RamBlock~20_q $end
$var wire 1 1! inst02|RamBlock~28feeder_combout $end
$var wire 1 2! inst02|RamBlock~118_combout $end
$var wire 1 3! inst02|RamBlock~119_combout $end
$var wire 1 4! inst02|RamBlock~28_q $end
$var wire 1 5! inst02|RamBlock~116_combout $end
$var wire 1 6! inst02|RamBlock~117_combout $end
$var wire 1 7! inst02|RamBlock~16_q $end
$var wire 1 8! inst02|RamBlock~24feeder_combout $end
$var wire 1 9! inst02|RamBlock~114_combout $end
$var wire 1 :! inst02|RamBlock~115_combout $end
$var wire 1 ;! inst02|RamBlock~24_q $end
$var wire 1 <! inst02|RamBlock~66_combout $end
$var wire 1 =! inst02|RamBlock~67_combout $end
$var wire 1 >! inst02|RamBlock~70_combout $end
$var wire 1 ?! inst02|RamBlock~73_combout $end
$var wire 1 @! KeypadData[1]~input_o $end
$var wire 1 A! inst02|RamBlock~25_q $end
$var wire 1 B! inst02|RamBlock~57_q $end
$var wire 1 C! inst02|RamBlock~41_q $end
$var wire 1 D! inst02|RamBlock~9_q $end
$var wire 1 E! inst02|RamBlock~74_combout $end
$var wire 1 F! inst02|RamBlock~75_combout $end
$var wire 1 G! inst02|RamBlock~45_q $end
$var wire 1 H! inst02|RamBlock~61_q $end
$var wire 1 I! inst02|RamBlock~13_q $end
$var wire 1 J! inst02|RamBlock~29_q $end
$var wire 1 K! inst02|RamBlock~81_combout $end
$var wire 1 L! inst02|RamBlock~82_combout $end
$var wire 1 M! inst02|RamBlock~17_q $end
$var wire 1 N! inst02|RamBlock~49_q $end
$var wire 1 O! inst02|RamBlock~1_q $end
$var wire 1 P! inst02|RamBlock~33feeder_combout $end
$var wire 1 Q! inst02|RamBlock~33_q $end
$var wire 1 R! inst02|RamBlock~78_combout $end
$var wire 1 S! inst02|RamBlock~79_combout $end
$var wire 1 T! inst02|RamBlock~53feeder_combout $end
$var wire 1 U! inst02|RamBlock~53_q $end
$var wire 1 V! inst02|RamBlock~37feeder_combout $end
$var wire 1 W! inst02|RamBlock~37_q $end
$var wire 1 X! inst02|RamBlock~5_q $end
$var wire 1 Y! inst02|RamBlock~21_q $end
$var wire 1 Z! inst02|RamBlock~76_combout $end
$var wire 1 [! inst02|RamBlock~77_combout $end
$var wire 1 \! inst02|RamBlock~80_combout $end
$var wire 1 ]! inst02|RamBlock~83_combout $end
$var wire 1 ^! KeypadData[2]~input_o $end
$var wire 1 _! inst02|RamBlock~62feeder_combout $end
$var wire 1 `! inst02|RamBlock~62_q $end
$var wire 1 a! inst02|RamBlock~58_q $end
$var wire 1 b! inst02|RamBlock~50_q $end
$var wire 1 c! inst02|RamBlock~54feeder_combout $end
$var wire 1 d! inst02|RamBlock~54_q $end
$var wire 1 e! inst02|RamBlock~91_combout $end
$var wire 1 f! inst02|RamBlock~92_combout $end
$var wire 1 g! inst02|RamBlock~18_q $end
$var wire 1 h! inst02|RamBlock~22_q $end
$var wire 1 i! inst02|RamBlock~84_combout $end
$var wire 1 j! inst02|RamBlock~26_q $end
$var wire 1 k! inst02|RamBlock~30_q $end
$var wire 1 l! inst02|RamBlock~85_combout $end
$var wire 1 m! inst02|RamBlock~6_q $end
$var wire 1 n! inst02|RamBlock~14_q $end
$var wire 1 o! inst02|RamBlock~2_q $end
$var wire 1 p! inst02|RamBlock~10feeder_combout $end
$var wire 1 q! inst02|RamBlock~10_q $end
$var wire 1 r! inst02|RamBlock~88_combout $end
$var wire 1 s! inst02|RamBlock~89_combout $end
$var wire 1 t! inst02|RamBlock~38_q $end
$var wire 1 u! inst02|RamBlock~46_q $end
$var wire 1 v! inst02|RamBlock~34_q $end
$var wire 1 w! inst02|RamBlock~42feeder_combout $end
$var wire 1 x! inst02|RamBlock~42_q $end
$var wire 1 y! inst02|RamBlock~86_combout $end
$var wire 1 z! inst02|RamBlock~87_combout $end
$var wire 1 {! inst02|RamBlock~90_combout $end
$var wire 1 |! inst02|RamBlock~93_combout $end
$var wire 1 }! KeypadData[3]~input_o $end
$var wire 1 ~! inst02|RamBlock~31feeder_combout $end
$var wire 1 !" inst02|RamBlock~31_q $end
$var wire 1 "" inst02|RamBlock~63_q $end
$var wire 1 #" inst02|RamBlock~47_q $end
$var wire 1 $" inst02|RamBlock~15feeder_combout $end
$var wire 1 %" inst02|RamBlock~15_q $end
$var wire 1 &" inst02|RamBlock~101_combout $end
$var wire 1 '" inst02|RamBlock~102_combout $end
$var wire 1 (" inst02|RamBlock~55feeder_combout $end
$var wire 1 )" inst02|RamBlock~55_q $end
$var wire 1 *" inst02|RamBlock~23feeder_combout $end
$var wire 1 +" inst02|RamBlock~23_q $end
$var wire 1 ," inst02|RamBlock~7_q $end
$var wire 1 -" inst02|RamBlock~39feeder_combout $end
$var wire 1 ." inst02|RamBlock~39_q $end
$var wire 1 /" inst02|RamBlock~94_combout $end
$var wire 1 0" inst02|RamBlock~95_combout $end
$var wire 1 1" inst02|RamBlock~43feeder_combout $end
$var wire 1 2" inst02|RamBlock~43_q $end
$var wire 1 3" inst02|RamBlock~59_q $end
$var wire 1 4" inst02|RamBlock~11_q $end
$var wire 1 5" inst02|RamBlock~27feeder_combout $end
$var wire 1 6" inst02|RamBlock~27_q $end
$var wire 1 7" inst02|RamBlock~96_combout $end
$var wire 1 8" inst02|RamBlock~97_combout $end
$var wire 1 9" inst02|RamBlock~3_q $end
$var wire 1 :" inst02|RamBlock~19feeder_combout $end
$var wire 1 ;" inst02|RamBlock~19_q $end
$var wire 1 <" inst02|RamBlock~98_combout $end
$var wire 1 =" inst02|RamBlock~51_q $end
$var wire 1 >" inst02|RamBlock~35feeder_combout $end
$var wire 1 ?" inst02|RamBlock~35_q $end
$var wire 1 @" inst02|RamBlock~99_combout $end
$var wire 1 A" inst02|RamBlock~100_combout $end
$var wire 1 B" inst02|RamBlock~103_combout $end
$var wire 1 C" inst01|counter [6] $end
$var wire 1 D" inst01|counter [5] $end
$var wire 1 E" inst01|counter [4] $end
$var wire 1 F" inst01|counter [3] $end
$var wire 1 G" inst01|counter [2] $end
$var wire 1 H" inst01|counter [1] $end
$var wire 1 I" inst01|counter [0] $end
$var wire 1 J" inst02|data_out [3] $end
$var wire 1 K" inst02|data_out [2] $end
$var wire 1 L" inst02|data_out [1] $end
$var wire 1 M" inst02|data_out [0] $end
$upscope $end
$upscope $end
$enddefinitions $end
#0
$dumpvars
b0 !
b1 "
0#
0$
0%
1&
0*
0)
0(
0'
0,
0+
0-
1.
x/
10
11
12
03
04
05
06
07
08
09
0:
0;
0<
0=
1>
1?
0@
0A
0B
0C
0D
0E
1F
1G
1H
0I
0J
1K
0L
0M
0N
1O
0P
0Q
0R
1S
0T
0U
1V
0W
0X
0Y
0Z
1[
0\
1]
0^
0_
0`
0a
0b
0c
0d
0e
0f
1g
0h
0i
0j
0k
0l
1m
0n
0o
0p
0q
0r
0s
0t
0u
0v
0w
0x
0y
0z
0{
1|
0}
0~
0!!
0"!
0#!
0$!
1%!
0&!
0'!
0(!
0)!
0*!
0+!
0,!
1-!
0.!
0/!
00!
11!
02!
03!
04!
05!
06!
07!
18!
09!
0:!
0;!
0<!
0=!
0>!
0?!
0@!
0A!
0B!
0C!
0D!
0E!
0F!
0G!
0H!
0I!
0J!
0K!
0L!
0M!
0N!
0O!
0P!
0Q!
0R!
0S!
0T!
0U!
0V!
0W!
0X!
0Y!
0Z!
0[!
0\!
0]!
0^!
0_!
0`!
0a!
0b!
0c!
0d!
0e!
0f!
0g!
0h!
0i!
0j!
0k!
0l!
0m!
0n!
0o!
0p!
0q!
0r!
0s!
0t!
0u!
0v!
0w!
0x!
0y!
0z!
0{!
0|!
0}!
0~!
0!"
0""
0#"
0$"
0%"
0&"
0'"
0("
0)"
0*"
0+"
0,"
0-"
0."
0/"
00"
01"
02"
03"
04"
05"
06"
07"
08"
09"
0:"
0;"
0<"
0="
0>"
0?"
0@"
0A"
0B"
0I"
0H"
0G"
0F"
0E"
0D"
0C"
0M"
0L"
0K"
0J"
$end
#2500
1$
1:
1;
#5000
1#
0$
1C
0:
0;
1D
#7500
1$
1:
1;
#10000
0#
0$
0C
0:
0;
0D
#12500
1$
1:
1;
#15000
1#
0$
1C
0:
0;
1D
#17500
1$
1:
1;
#20000
0#
0$
0C
0:
0;
0D
#22500
1$
1:
1;
#25000
1#
0$
1C
0:
0;
1D
#27500
1$
1:
1;
#30000
0&
0#
0$
0F
0C
0:
0G
0;
0D
#32500
1$
1:
1;
#35000
1#
0$
1C
0:
0;
1D
1I"
1I
0H
1J
#37500
1$
1:
1;
#40000
0#
0$
0C
0:
0;
0D
#42500
1$
1:
1;
#45000
1#
0$
1C
0:
0;
1D
1H"
0I"
0K
0I
0J
1H
1K
1L
1J
0L
#47500
1$
1:
1;
#50000
1%
b1 !
0#
0$
13
1=
0C
0:
0;
0D
1(!
0%!
#52500
1$
1:
1;
#55000
1#
0$
1C
0:
0;
1D
1I"
1I
0H
0K
0J
1L
#57500
1$
1:
1;
#60000
0#
0$
0C
0:
0;
0D
#62500
1$
1:
1;
#65000
1#
0$
1C
0:
0;
1D
1G"
0H"
0I"
1M
1K
0I
0L
1J
1H
0M
1N
1L
0J
0N
#67500
1$
1:
1;
#70000
0#
0$
0C
0:
0;
0D
#72500
1$
1:
1;
#75000
1#
0$
1C
0:
0;
1D
1I"
1U
1I
0H
1W
1J
1X
#77500
1$
1:
1;
#80000
0#
0$
0C
0:
0;
0D
#82500
1$
1:
1;
#85000
1#
0$
1C
0:
0;
1D
1Y
0G"
0I"
0U
0I
0L
1H
0W
0J
0X
#87500
1$
1:
1;
#90000
0#
0$
0C
0:
0;
0D
#92500
1$
1:
1;
#95000
1#
0$
1C
0:
0;
1D
1\
0Y
1I"
1^
18
0V
1I
1)!
1,
0]
0H
1E
1J
#97500
1$
1:
1;
1*!
1+!
1,!
1>!
1?!
#100000
b11 !
0%
b10 !
0#
0$
0=
1@
03
0C
0:
0;
0D
0+!
0(!
1}
0,!
0)!
1~
0>!
0?!
#102500
1$
1:
1;
1!!
1,!
1>!
1?!
#105000
1#
0$
1C
0:
0;
1D
1H"
0I"
1U
0K
0I
0J
1H
1K
1L
1J
0L
#107500
1$
1:
1;
#110000
0#
0$
0C
0:
0;
0D
#112500
1$
1:
1;
#115000
1#
0$
1C
0:
0;
1D
1I"
0U
1I
0H
0K
0J
1L
#117500
1$
1:
1;
#120000
0#
0$
0C
0:
0;
0D
#122500
1$
1:
1;
#125000
b11 "
b10 "
1#
0$
0>
1@!
1C
0:
0;
1D
08!
01!
0-!
0|
0m
0g
0?
1V!
1T!
1P!
1G"
0H"
0I"
1M
1K
0I
0L
1J
1H
0M
1N
1L
0J
0N
#127500
1$
1:
1;
1D!
0!!
1E!
0,!
1F!
0>!
1]!
0?!
#130000
0#
0$
0C
0:
0;
0D
#132500
1$
1:
1;
#135000
1#
0$
1C
0:
0;
1D
1I"
1I
0H
1J
#137500
1$
1:
1;
#140000
0#
0$
0C
0:
0;
0D
#142500
1$
1:
1;
#145000
1#
0$
1C
0:
0;
1D
1H"
0I"
0K
0I
0J
1H
1M
1K
0L
1J
0M
1N
1L
0N
#147500
1$
1:
1;
#150000
1%
b11 !
0#
0$
13
1=
0C
0:
0;
0D
1A"
1y!
1r!
1i!
1e!
1\!
1<!
1+!
1"!
0}
1w
1k
1#!
0~
0]!
#152500
1$
1:
1;
1I!
1K!
1L!
1]!
#155000
1#
0$
1C
0:
0;
1D
1I"
1I
0H
0K
0J
1M
0L
1N
#157500
1$
1:
1;
#160000
0#
0$
0C
0:
0;
0D
#162500
1$
1:
1;
#165000
1#
0$
1C
0:
0;
1D
1F"
0G"
0H"
0I"
1V
0O
0M
1K
0I
0N
1L
1J
1H
1O
1P
1N
0L
0J
0P
#167500
1$
1:
1;
#170000
0#
0$
0C
0:
0;
0D
#172500
1$
1:
1;
#175000
1#
0$
1C
0:
0;
1D
1I"
1I
0H
1J
#177500
1$
1:
1;
#180000
0#
0$
0C
0:
0;
0D
#182500
1$
1:
1;
#185000
1#
0$
1C
0:
0;
1D
1H"
0I"
1U
0K
0I
0J
1H
1W
1K
1L
1J
1X
0L
#187500
1$
1:
1;
#190000
0#
0$
0C
0:
0;
0D
#192500
1$
1:
1;
#195000
1#
0$
1C
0:
0;
1D
1Y
0F"
0H"
0V
0U
0N
0J
0W
0X
#197500
1$
1:
1;
#200000
b111 !
b101 !
0%
b100 !
0#
0$
0=
0@
1A
03
0C
0:
0;
0D
0A"
1z!
0y!
1s!
0r!
0i!
0e!
0\!
1=!
0<!
15!
0+!
0"!
0w
1l
0k
1l!
1f!
1,!
1{
0K!
0F!
0E!
1B"
0z!
0s!
0l!
0f!
1>!
0=!
16!
0,!
0#!
0{
0l
0L!
0B"
0]!
1|!
0>!
0|!
1?!
0?!
#202500
1$
1:
1;
1M!
1S!
1\!
1]!
#205000
1#
0$
1C
0:
0;
1D
0Y
1I"
0^
1Z
19
08
1I
06!
0,
1+
0H
0E
0[
1J
#207500
1$
1:
1;
1L"
15
1)
#210000
0#
0$
0C
0:
0;
0D
#212500
1$
1:
1;
#215000
1#
0$
1C
0:
0;
1D
1H"
0I"
1U
0K
0I
0J
1H
1K
1L
1J
0L
#217500
1$
1:
1;
#220000
0#
0$
0C
0:
0;
0D
#222500
1$
1:
1;
#225000
1#
0$
1C
0:
0;
1D
1I"
0U
1I
0H
0K
0J
1L
#227500
1$
1:
1;
#230000
0#
0$
0C
0:
0;
0D
#232500
1$
1:
1;
#235000
1#
0$
1C
0:
0;
1D
1G"
0H"
0I"
1M
1K
0I
0L
1J
1H
0M
1N
1L
0J
0N
#237500
1$
1:
1;
#240000
0#
0$
0C
0:
0;
0D
#242500
1$
1:
1;
#245000
1#
0$
1C
0:
0;
1D
1I"
1I
0H
1J
#247500
1$
1:
1;
#250000
b11 "
1%
b101 !
0#
0$
13
1=
1>
0C
0:
0;
0D
0\!
05!
1.!
1+!
18!
11!
1-!
1|
1m
1g
1?
1,!
0]!
#252500
1$
1:
1;
0L"
05
0)
#255000
1#
0$
1C
0:
0;
1D
1H"
0I"
0K
0I
0J
1H
1M
1K
0L
1J
0M
1N
1L
0N
#257500
1$
1:
1;
#260000
0#
0$
0C
0:
0;
0D
#262500
1$
1:
1;
#265000
1#
0$
1C
0:
0;
1D
1I"
1I
0H
0K
0J
1M
0L
1N
#267500
1$
1:
1;
#270000
0#
0$
0C
0:
0;
0D
#272500
1$
1:
1;
#275000
1#
0$
1C
0:
0;
1D
1F"
0G"
0H"
0I"
1V
0O
0M
1K
0I
0N
1L
1J
1H
1O
1P
1N
0L
0J
0P
#277500
1$
1:
1;
#280000
0#
0$
0C
0:
0;
0D
#282500
1$
1:
1;
#285000
1#
0$
1C
0:
0;
1D
1I"
1I
0H
1J
#287500
1$
1:
1;
#290000
0#
0$
0C
0:
0;
0D
#292500
1$
1:
1;
#295000
1#
0$
1C
0:
0;
1D
1H"
0I"
1U
0K
0I
0J
1H
1W
1K
1L
1J
1X
0L
#297500
1$
1:
1;
#300000
b111 !
0%
b110 !
0#
0$
0=
1@
03
0C
0:
0;
0D
19!
0.!
0+!
0,!
#302500
1$
1:
1;
#305000
1#
0$
1C
0:
0;
1D
1Y
0F"
0H"
0V
0U
0N
0J
0W
0X
#307500
1$
1:
1;
#310000
0#
0$
0C
0:
0;
0D
#312500
1$
1:
1;
#315000
1#
0$
1C
0:
0;
1D
0\
0Y
1I"
0Z
09
1V
1I
0+
1]
0H
1[
1J
#317500
1$
1:
1;
#320000
0#
0$
0C
0:
0;
0D
#322500
1$
1:
1;
#325000
1#
0$
1C
0:
0;
1D
1H"
0I"
0K
0I
0J
1H
1K
1L
1J
0L
#327500
1$
1:
1;
#330000
0#
0$
0C
0:
0;
0D
#332500
1$
1:
1;
#335000
1#
0$
1C
0:
0;
1D
1I"
1I
0H
0K
0J
1L
#337500
1$
1:
1;
#340000
0#
0$
0C
0:
0;
0D
#342500
1$
1:
1;
#345000
1#
0$
1C
0:
0;
1D
1G"
0H"
0I"
1M
1K
0I
0L
1J
1H
0M
1N
1L
0J
0N
#347500
1$
1:
1;
#350000
1%
b111 !
0#
0$
13
1=
0C
0:
0;
0D
1A"
1y!
1r!
1i!
1e!
1\!
1<!
09!
12!
1+!
1w
1k
#352500
1$
1:
1;
#355000
1#
0$
1C
0:
0;
1D
1I"
1U
1I
0H
1W
1J
1X
#357500
1$
1:
1;
#360000
0#
0$
0C
0:
0;
0D
#362500
1$
1:
1;
#365000
1#
0$
1C
0:
0;
1D
1Y
0G"
0I"
0U
0I
0L
1H
0W
0J
0X
#367500
1$
1:
1;
#370000
0#
0$
0C
0:
0;
0D
#372500
1$
1:
1;
#375000
b111 "
b101 "
b100 "
1#
0$
0>
0@!
1^!
1C
0:
0;
1D
08!
01!
0-!
0|
0m
0g
0?
0V!
0T!
0P!
1w!
1p!
1c!
1_!
1\
0Y
1I"
1^
18
0V
1I
13!
1,
0]
0H
1E
1J
#377500
1$
1:
1;
1k!
1l!
1|!
#380000
0#
0$
0C
0:
0;
0D
#382500
1$
1:
1;
#385000
1#
0$
1C
0:
0;
1D
1H"
0I"
1U
0K
0I
0J
1H
1K
1L
1J
0L
#387500
1$
1:
1;
#390000
0#
0$
0C
0:
0;
0D
#392500
1$
1:
1;
#395000
1#
0$
1C
0:
0;
1D
1I"
0U
1I
0H
0K
0J
1L
#397500
1$
1:
1;
#400000
b1111 !
b1011 !
b1001 !
0%
b1000 !
0#
0$
0=
0@
0A
1<
03
0C
0:
0;
0D
0A"
1z!
0y!
1s!
0r!
0i!
0e!
1=!
0<!
02!
0+!
0w
1q
1l
0k
1f!
1,!
1{
0S!
1B"
1]!
0|!
1{!
0z!
0s!
0l!
0f!
0=!
03!
0,!
0{
1r
0l
0\!
0B"
1?!
0{!
1|!
0?!
0]!
0|!
#402500
1$
1:
1;
1v!
1y!
1z!
1{!
1|!
#405000
1#
0$
1C
0:
0;
1D
1G"
0H"
0I"
1M
1K
0I
0L
1J
1H
0M
1N
1L
0J
0N
#407500
1$
1:
1;
#410000
0#
0$
0C
0:
0;
0D
#412500
1$
1:
1;
#415000
1#
0$
1C
0:
0;
1D
1I"
1I
0H
1J
#417500
1$
1:
1;
#420000
0#
0$
0C
0:
0;
0D
#422500
1$
1:
1;
#425000
1#
0$
1C
0:
0;
1D
1H"
0I"
0K
0I
0J
1H
1M
1K
0L
1J
0M
1N
1L
0N
#427500
1$
1:
1;
#430000
0#
0$
0C
0:
0;
0D
#432500
1$
1:
1;
#435000
1#
0$
1C
0:
0;
1D
1I"
1I
0H
0K
0J
1M
0L
1N
#437500
1$
1:
1;
#440000
0#
0$
0C
0:
0;
0D
#442500
1$
1:
1;
#445000
1#
0$
1C
0:
0;
1D
1F"
0G"
0H"
0I"
1V
0O
0M
1K
0I
0N
1L
1J
1H
1O
1P
1N
0L
0J
0P
#447500
1$
1:
1;
#450000
1%
b1001 !
0#
0$
13
1=
0C
0:
0;
0D
0z!
0y!
1+!
1t
0q
0{!
1,!
1u
0r
0|!
#452500
1$
1:
1;
1t!
1z!
1{!
1|!
#455000
1#
0$
1C
0:
0;
1D
1I"
1I
0H
1J
#457500
1$
1:
1;
#460000
0#
0$
0C
0:
0;
0D
#462500
1$
1:
1;
#465000
1#
0$
1C
0:
0;
1D
1H"
0I"
1U
0K
0I
0J
1H
1W
1K
1L
1J
1X
0L
#467500
1$
1:
1;
#470000
0#
0$
0C
0:
0;
0D
#472500
1$
1:
1;
#475000
1#
0$
1C
0:
0;
1D
1Y
0F"
0H"
0V
0U
0N
0J
0W
0X
#477500
1$
1:
1;
#480000
0#
0$
0C
0:
0;
0D
#482500
1$
1:
1;
#485000
1#
0$
1C
0:
0;
1D
0Y
1I"
0^
1Z
19
08
1I
0u
0,
1+
0H
0E
0[
1J
#487500
1$
1:
1;
1K"
16
1(
#490000
0#
0$
0C
0:
0;
0D
#492500
1$
1:
1;
#495000
1#
0$
1C
0:
0;
1D
1H"
0I"
1U
0K
0I
0J
1H
1K
1L
1J
0L
#497500
1$
1:
1;
#500000
b101 "
b1011 !
0%
b1010 !
0#
0$
0=
1@
1>
03
0C
0:
0;
0D
0z!
0+!
0t
1n
0,!
18!
11!
1-!
1|
1m
1g
1?
0{!
0|!
#502500
1$
1:
1;
0K"
06
0(
#505000
1#
0$
1C
0:
0;
1D
1I"
0U
1I
0H
0K
0J
1L
#507500
1$
1:
1;
#510000
0#
0$
0C
0:
0;
0D
#512500
1$
1:
1;
#515000
1#
0$
1C
0:
0;
1D
1G"
0H"
0I"
1M
1K
0I
0L
1J
1H
0M
1N
1L
0J
0N
#517500
1$
1:
1;
#520000
0#
0$
0C
0:
0;
0D
#522500
1$
1:
1;
#525000
1#
0$
1C
0:
0;
1D
1I"
1I
0H
1J
#527500
1$
1:
1;
#530000
0#
0$
0C
0:
0;
0D
#532500
1$
1:
1;
#535000
1#
0$
1C
0:
0;
1D
1H"
0I"
0K
0I
0J
1H
1M
1K
0L
1J
0M
1N
1L
0N
#537500
1$
1:
1;
#540000
0#
0$
0C
0:
0;
0D
#542500
1$
1:
1;
#545000
1#
0$
1C
0:
0;
1D
1I"
1I
0H
0K
0J
1M
0L
1N
#547500
1$
1:
1;
#550000
1%
b1011 !
0#
0$
13
1=
0C
0:
0;
0D
1A"
1z!
1y!
1r!
1i!
1e!
1\!
1<!
1+!
1x
1w
0n
1k
1{!
0z!
1l!
0{!
1|!
0|!
#552500
1$
1:
1;
#555000
1#
0$
1C
0:
0;
1D
1F"
0G"
0H"
0I"
1V
0O
0M
1K
0I
0N
1L
1J
1H
1O
1P
1N
0L
0J
0P
#557500
1$
1:
1;
#560000
0#
0$
0C
0:
0;
0D
#562500
1$
1:
1;
#565000
1#
0$
1C
0:
0;
1D
1I"
1I
0H
1J
#567500
1$
1:
1;
#570000
0#
0$
0C
0:
0;
0D
#572500
1$
1:
1;
#575000
1#
0$
1C
0:
0;
1D
1H"
0I"
1U
0K
0I
0J
1H
1W
1K
1L
1J
1X
0L
#577500
1$
1:
1;
#580000
0#
0$
0C
0:
0;
0D
#582500
1$
1:
1;
#585000
1#
0$
1C
0:
0;
1D
1Y
0F"
0H"
0V
0U
0N
0J
0W
0X
#587500
1$
1:
1;
#590000
0#
0$
0C
0:
0;
0D
#592500
1$
1:
1;
#595000
1#
0$
1C
0:
0;
1D
0\
0Y
1I"
0Z
09
1V
1I
0+
1]
0H
1[
1J
#597500
1$
1:
1;
#600000
b1111 !
b1101 !
0%
b1100 !
0#
0$
0=
0@
1A
03
0C
0:
0;
0D
0A"
1z!
1s!
0r!
0i!
0e!
0\!
1=!
0<!
0+!
0x
0w
1l
0k
1d
1f!
1,!
1{
1<"
17"
1/"
1&"
1{!
1Z!
1S!
1R!
1K!
1E!
1>!
1B"
1]!
1|!
0s!
0l!
0f!
0=!
0,!
0{
0l
1\!
0S!
0B"
0]!
1?!
0\!
0|!
0?!
1]!
0]!
#602500
1$
1:
1;
#605000
1#
0$
1C
0:
0;
1D
1H"
0I"
0K
0I
0J
1H
1K
1L
1J
0L
#607500
1$
1:
1;
#610000
0#
0$
0C
0:
0;
0D
#612500
1$
1:
1;
#615000
1#
0$
1C
0:
0;
1D
1I"
1I
0H
0K
0J
1L
#617500
1$
1:
1;
#620000
0#
0$
0C
0:
0;
0D
#622500
1$
1:
1;
#625000
b111 "
b110 "
1#
0$
0>
1@!
1C
0:
0;
1D
08!
01!
0-!
0|
0m
0g
0?
1V!
1T!
1P!
1G"
0H"
0I"
1M
1K
0I
0L
1J
1H
0M
1N
1L
0J
0N
#627500
1$
1:
1;
#630000
0#
0$
0C
0:
0;
0D
#632500
1$
1:
1;
#635000
1#
0$
1C
0:
0;
1D
1I"
1U
1I
0H
1W
1J
1X
#637500
1$
1:
1;
#640000
0#
0$
0C
0:
0;
0D
#642500
1$
1:
1;
#645000
1#
0$
1C
0:
0;
1D
1Y
0G"
0I"
0U
0I
0L
1H
0W
0J
0X
#647500
1$
1:
1;
#650000
1%
b1101 !
0#
0$
13
1=
0C
0:
0;
0D
0z!
0y!
1+!
0d
1B
1z!
1,!
#652500
1$
1:
1;
#655000
1#
0$
1C
0:
0;
1D
1\
0Y
1I"
1^
18
0V
1I
1_
1,
0]
0H
1E
1J
#657500
1$
1:
1;
1d!
1U!
1e!
1[!
1f!
1\!
1|!
1]!
