pratica05/simulation/qsim/pratica05.msim.vcd
$comment
	File created using the following command:
		vcd file pratica05.msim.vcd -direction
$end
$date
	Fri Aug 23 18:07:57 2024
$end
$version
	ModelSim Version 10.5b
$end
$timescale
	1ps
$end

$scope module Saida_vlg_vec_tst $end
$var reg 4 ! AddressIn [3:0] $end
$var reg 4 " DataIn [3:0] $end
$var reg 4 # KeypadDataIn [3:0] $end
$var reg 2 $ PresentStateFlag [1:0] $end
$var reg 1 % clock50MHz $end
$var reg 1 & clock500Hz $end
$var reg 1 ' reset $end
$var wire 1 ( DB [7] $end
$var wire 1 ) DB [6] $end
$var wire 1 * DB [5] $end
$var wire 1 + DB [4] $end
$var wire 1 , DB [3] $end
$var wire 1 - DB [2] $end
$var wire 1 . DB [1] $end
$var wire 1 / DB [0] $end
$var wire 1 0 E $end
$var wire 1 1 LCD_Blon $end
$var wire 1 2 LCD_On $end
$var wire 1 3 RS $end
$var wire 1 4 RW $end

$scope module i1 $end
$var wire 1 5 gnd $end
$var wire 1 6 vcc $end
$var wire 1 7 unknown $end
$var tri1 1 8 devclrn $end
$var tri1 1 9 devpor $end
$var tri1 1 : devoe $end
$var wire 1 ; RS~output_o $end
$var wire 1 < RW~output_o $end
$var wire 1 = E~output_o $end
$var wire 1 > DB[0]~output_o $end
$var wire 1 ? DB[1]~output_o $end
$var wire 1 @ DB[2]~output_o $end
$var wire 1 A DB[3]~output_o $end
$var wire 1 B DB[4]~output_o $end
$var wire 1 C DB[5]~output_o $end
$var wire 1 D DB[6]~output_o $end
$var wire 1 E DB[7]~output_o $end
$var wire 1 F LCD_Blon~output_o $end
$var wire 1 G LCD_On~output_o $end
$var wire 1 H clock500Hz~input_o $end
$var wire 1 I clock500Hz~inputclkctrl_outclk $end
$var wire 1 J inst02|Add0~0_combout $end
$var wire 1 K inst02|char_index[0]~4_combout $end
$var wire 1 L reset~input_o $end
$var wire 1 M inst02|Add0~1 $end
$var wire 1 N inst02|Add0~3 $end
$var wire 1 O inst02|Add0~4_combout $end
$var wire 1 P inst02|char_index[2]~1_combout $end
$var wire 1 Q inst02|Add0~5 $end
$var wire 1 R inst02|Add0~6_combout $end
$var wire 1 S inst02|char_index[3]~2_combout $end
$var wire 1 T inst02|char_index[3]~feeder_combout $end
$var wire 1 U inst02|Add0~7 $end
$var wire 1 V inst02|Add0~8_combout $end
$var wire 1 W inst02|char_index[4]~0_combout $end
$var wire 1 X inst02|Equal0~0_combout $end
$var wire 1 Y inst02|Add0~10_combout $end
$var wire 1 Z inst02|Add0~2_combout $end
$var wire 1 [ inst02|char_index[1]~3_combout $end
$var wire 1 \ inst02|Equal0~1_combout $end
$var wire 1 ] inst02|NextState.ReturnHome~0_combout $end
$var wire 1 ^ inst02|PresentState.ReturnHome~q $end
$var wire 1 _ inst02|PresentState.FS1~feeder_combout $end
$var wire 1 ` inst02|PresentState.FS1~q $end
$var wire 1 a inst02|PresentState.FS2~0_combout $end
$var wire 1 b inst02|PresentState.FS2~q $end
$var wire 1 c inst02|PresentState.FS3~feeder_combout $end
$var wire 1 d inst02|PresentState.FS3~q $end
$var wire 1 e inst02|PresentState.FS4~q $end
$var wire 1 f inst02|PresentState.ClearDisplay~q $end
$var wire 1 g inst02|PresentState.DisplayControl~q $end
$var wire 1 h inst02|PresentState.EntryMode~q $end
$var wire 1 i inst02|NextState.SetAddress~0_combout $end
$var wire 1 j inst02|PresentState.SetAddress~q $end
$var wire 1 k inst02|Selector8~1_combout $end
$var wire 1 l inst02|Selector8~2_combout $end
$var wire 1 m inst02|PresentState.WriteChar~q $end
$var wire 1 n inst01|Numbers.raddr_a[0]~20_combout $end
$var wire 1 o inst01|Phrase~3_combout $end
$var wire 1 p inst01|Phrase~12_combout $end
$var wire 1 q inst02|Selector7~0_combout $end
$var wire 1 r clock50MHz~input_o $end
$var wire 1 s clock50MHz~inputclkctrl_outclk $end
$var wire 1 t inst01|inst01|phrase~0_combout $end
$var wire 1 u inst01|inst01|phrase~1_combout $end
$var wire 1 v inst01|Equal2~4_combout $end
$var wire 1 w PresentStateFlag[1]~input_o $end
$var wire 1 x inst02|Selector7~1_combout $end
$var wire 1 y inst02|Selector7~2_combout $end
$var wire 1 z inst01|Equal0~0_combout $end
$var wire 1 { inst01|Equal4~0_combout $end
$var wire 1 | KeypadDataIn[3]~input_o $end
$var wire 1 } KeypadDataIn[2]~input_o $end
$var wire 1 ~ KeypadDataIn[1]~input_o $end
$var wire 1 !! inst01|inst00|Mod2|auto_generated|divider|divider|add_sub_3_result_int[1]~1 $end
$var wire 1 "! inst01|inst00|Mod2|auto_generated|divider|divider|add_sub_3_result_int[2]~3 $end
$var wire 1 #! inst01|inst00|Mod2|auto_generated|divider|divider|add_sub_3_result_int[3]~4_combout $end
$var wire 1 $! inst01|inst00|Mod2|auto_generated|divider|divider|add_sub_3_result_int[3]~5 $end
$var wire 1 %! inst01|inst00|Mod2|auto_generated|divider|divider|add_sub_3_result_int[4]~6_combout $end
$var wire 1 &! inst01|Numbers.raddr_a[3]~17_combout $end
$var wire 1 '! inst01|Equal5~0_combout $end
$var wire 1 (! inst01|Equal5~1_combout $end
$var wire 1 )! inst01|Numbers.raddr_a[0]~21_combout $end
$var wire 1 *! AddressIn[3]~input_o $end
$var wire 1 +! AddressIn[2]~input_o $end
$var wire 1 ,! AddressIn[1]~input_o $end
$var wire 1 -! inst01|inst00|Mod0|auto_generated|divider|divider|add_sub_3_result_int[1]~1 $end
$var wire 1 .! inst01|inst00|Mod0|auto_generated|divider|divider|add_sub_3_result_int[2]~3 $end
$var wire 1 /! inst01|inst00|Mod0|auto_generated|divider|divider|add_sub_3_result_int[3]~4_combout $end
$var wire 1 0! inst01|inst00|Mod0|auto_generated|divider|divider|add_sub_3_result_int[3]~5 $end
$var wire 1 1! inst01|inst00|Mod0|auto_generated|divider|divider|add_sub_3_result_int[4]~6_combout $end
$var wire 1 2! inst01|Equal1~1_combout $end
$var wire 1 3! inst01|Numbers.raddr_a[3]~16_combout $end
$var wire 1 4! DataIn[3]~input_o $end
$var wire 1 5! DataIn[2]~input_o $end
$var wire 1 6! DataIn[1]~input_o $end
$var wire 1 7! inst01|inst00|Mod1|auto_generated|divider|divider|add_sub_3_result_int[1]~1 $end
$var wire 1 8! inst01|inst00|Mod1|auto_generated|divider|divider|add_sub_3_result_int[2]~3 $end
$var wire 1 9! inst01|inst00|Mod1|auto_generated|divider|divider|add_sub_3_result_int[3]~4_combout $end
$var wire 1 :! inst01|inst00|Mod1|auto_generated|divider|divider|add_sub_3_result_int[3]~5 $end
$var wire 1 ;! inst01|inst00|Mod1|auto_generated|divider|divider|add_sub_3_result_int[4]~6_combout $end
$var wire 1 <! inst01|Numbers.raddr_a[3]~18_combout $end
$var wire 1 =! inst01|Numbers.raddr_a[3]~19_combout $end
$var wire 1 >! inst01|inst00|Mod2|auto_generated|divider|divider|add_sub_3_result_int[2]~2_combout $end
$var wire 1 ?! inst01|Numbers.raddr_a[2]~13_combout $end
$var wire 1 @! inst01|inst00|Mod0|auto_generated|divider|divider|add_sub_3_result_int[2]~2_combout $end
$var wire 1 A! inst01|Numbers.raddr_a[2]~12_combout $end
$var wire 1 B! inst01|inst00|Mod1|auto_generated|divider|divider|add_sub_3_result_int[2]~2_combout $end
$var wire 1 C! inst01|Numbers.raddr_a[2]~14_combout $end
$var wire 1 D! inst01|Numbers.raddr_a[2]~15_combout $end
$var wire 1 E! inst01|Equal3~0_combout $end
$var wire 1 F! inst01|inst00|Div1|auto_generated|divider|divider|add_sub_3_result_int[1]~1_cout $end
$var wire 1 G! inst01|inst00|Div1|auto_generated|divider|divider|add_sub_3_result_int[2]~3_cout $end
$var wire 1 H! inst01|inst00|Div1|auto_generated|divider|divider|add_sub_3_result_int[3]~5_cout $end
$var wire 1 I! inst01|inst00|Div1|auto_generated|divider|divider|add_sub_3_result_int[4]~6_combout $end
$var wire 1 J! inst01|inst00|Div2|auto_generated|divider|divider|add_sub_3_result_int[1]~1_cout $end
$var wire 1 K! inst01|inst00|Div2|auto_generated|divider|divider|add_sub_3_result_int[2]~3_cout $end
$var wire 1 L! inst01|inst00|Div2|auto_generated|divider|divider|add_sub_3_result_int[3]~5_cout $end
$var wire 1 M! inst01|inst00|Div2|auto_generated|divider|divider|add_sub_3_result_int[4]~6_combout $end
$var wire 1 N! inst01|Numbers.raddr_a[0]~6_combout $end
$var wire 1 O! DataIn[0]~input_o $end
$var wire 1 P! KeypadDataIn[0]~input_o $end
$var wire 1 Q! inst01|Equal1~0_combout $end
$var wire 1 R! AddressIn[0]~input_o $end
$var wire 1 S! inst01|Numbers.raddr_a[0]~4_combout $end
$var wire 1 T! inst01|Equal0~1_combout $end
$var wire 1 U! inst01|inst00|Div0|auto_generated|divider|divider|add_sub_3_result_int[1]~1_cout $end
$var wire 1 V! inst01|inst00|Div0|auto_generated|divider|divider|add_sub_3_result_int[2]~3_cout $end
$var wire 1 W! inst01|inst00|Div0|auto_generated|divider|divider|add_sub_3_result_int[3]~5_cout $end
$var wire 1 X! inst01|inst00|Div0|auto_generated|divider|divider|add_sub_3_result_int[4]~6_combout $end
$var wire 1 Y! inst01|Numbers.raddr_a[0]~5_combout $end
$var wire 1 Z! inst01|Numbers.raddr_a[0]~7_combout $end
$var wire 1 [! inst01|inst00|Mod0|auto_generated|divider|divider|add_sub_3_result_int[1]~0_combout $end
$var wire 1 \! inst01|Numbers.raddr_a[1]~8_combout $end
$var wire 1 ]! inst01|inst00|Mod2|auto_generated|divider|divider|add_sub_3_result_int[1]~0_combout $end
$var wire 1 ^! inst01|Numbers.raddr_a[1]~9_combout $end
$var wire 1 _! inst01|inst00|Mod1|auto_generated|divider|divider|add_sub_3_result_int[1]~0_combout $end
$var wire 1 `! inst01|Numbers.raddr_a[1]~10_combout $end
$var wire 1 a! inst01|Numbers.raddr_a[1]~11_combout $end
$var wire 1 b! inst01|Numbers~0_combout $end
$var wire 1 c! inst02|Selector7~3_combout $end
$var wire 1 d! inst01|inst01|phrase~2_combout $end
$var wire 1 e! inst01|inst01|phrase~3_combout $end
$var wire 1 f! PresentStateFlag[0]~input_o $end
$var wire 1 g! inst02|Selector6~1_combout $end
$var wire 1 h! inst02|Selector6~0_combout $end
$var wire 1 i! inst02|Selector6~2_combout $end
$var wire 1 j! inst01|inst01|phrase~4_combout $end
$var wire 1 k! inst01|inst01|phrase~5_combout $end
$var wire 1 l! inst02|Selector5~0_combout $end
$var wire 1 m! inst02|Selector5~1_combout $end
$var wire 1 n! inst02|Selector5~2_combout $end
$var wire 1 o! inst02|Selector4~0_combout $end
$var wire 1 p! inst02|Selector4~3_combout $end
$var wire 1 q! inst01|inst01|phrase~6_combout $end
$var wire 1 r! inst01|inst01|phrase~7_combout $end
$var wire 1 s! inst02|Selector4~1_combout $end
$var wire 1 t! inst02|Selector4~2_combout $end
$var wire 1 u! inst02|Selector4~4_combout $end
$var wire 1 v! inst02|Selector3~0_combout $end
$var wire 1 w! inst01|inst01|dataOut[4]~0_combout $end
$var wire 1 x! inst01|inst01|phrase~8_combout $end
$var wire 1 y! inst02|Selector3~1_combout $end
$var wire 1 z! inst02|Selector3~2_combout $end
$var wire 1 {! inst01|inst01|phrase~9_combout $end
$var wire 1 |! inst01|inst01|phrase~10_combout $end
$var wire 1 }! inst02|Selector2~5_combout $end
$var wire 1 ~! inst02|Selector2~2_combout $end
$var wire 1 !" inst02|Selector2~3_combout $end
$var wire 1 "" inst01|Numbers~1_combout $end
$var wire 1 #" inst02|Selector2~4_combout $end
$var wire 1 $" inst01|inst01|phrase~11_combout $end
$var wire 1 %" inst01|inst01|phrase~12_combout $end
$var wire 1 &" inst01|Phrase~10_combout $end
$var wire 1 '" inst01|Phrase~9_combout $end
$var wire 1 (" inst01|Phrase~11_combout $end
$var wire 1 )" inst02|Selector1~0_combout $end
$var wire 1 *" inst02|Selector8~0_combout $end
$var wire 1 +" inst01|inst01|dataOut [7] $end
$var wire 1 ," inst01|inst01|dataOut [6] $end
$var wire 1 -" inst01|inst01|dataOut [5] $end
$var wire 1 ." inst01|inst01|dataOut [4] $end
$var wire 1 /" inst01|inst01|dataOut [3] $end
$var wire 1 0" inst01|inst01|dataOut [2] $end
$var wire 1 1" inst01|inst01|dataOut [1] $end
$var wire 1 2" inst01|inst01|dataOut [0] $end
$var wire 1 3" inst02|char_index [4] $end
$var wire 1 4" inst02|char_index [3] $end
$var wire 1 5" inst02|char_index [2] $end
$var wire 1 6" inst02|char_index [1] $end
$var wire 1 7" inst02|char_index [0] $end
$upscope $end
$upscope $end
$enddefinitions $end
#0
$dumpvars
b0 !
b0 "
b10 #
b0 $
0%
0&
1'
0/
0.
0-
1,
1+
1*
0)
0(
00
11
12
03
04
05
16
x7
18
19
1:
0;
0<
0=
0>
0?
0@
1A
1B
1C
0D
0E
1F
1G
0H
0I
1J
0K
1L
0M
1N
0O
0P
0Q
0R
0S
0T
1U
0V
0W
0X
0Y
0Z
0[
0\
0]
0^
1_
0`
1a
0b
0c
0d
0e
0f
0g
0h
0i
0j
0k
0l
0m
1n
1o
0p
0q
0r
0s
0t
1u
0v
0w
0x
0y
0z
0{
0|
0}
1~
1!!
0"!
1#!
0$!
1%!
0&!
0'!
0(!
1)!
0*!
0+!
0,!
0-!
1.!
0/!
00!
11!
02!
03!
04!
05!
06!
07!
18!
09!
0:!
1;!
0<!
0=!
0>!
0?!
1@!
0A!
1B!
0C!
0D!
0E!
0F!
1G!
0H!
1I!
1J!
0K!
0L!
1M!
0N!
0O!
0P!
0Q!
0R!
0S!
1T!
0U!
1V!
0W!
1X!
0Y!
0Z!
1[!
0\!
0]!
0^!
1_!
0`!
0a!
0b!
0c!
0d!
0e!
0f!
0g!
0h!
0i!
0j!
0k!
0l!
0m!
0n!
0o!
0p!
0q!
0r!
0s!
0t!
1u!
0v!
0w!
1x!
0y!
1z!
0{!
0|!
0}!
0~!
0!"
1""
1#"
0$"
1%"
1&"
1'"
0("
0)"
1*"
02"
01"
00"
0/"
0."
0-"
0,"
z+"
07"
06"
05"
04"
03"
$end
#1000
1%
1r
1s
1,"
12"
1("
#2000
0%
0r
0s
#2500
1&
1H
1I
1=
10
#3000
1%
1r
1s
#4000
0%
0r
0s
#5000
0&
1%
1r
1s
0H
0I
0=
00
#6000
0%
0r
0s
#7000
1%
1r
1s
#7500
1&
1H
1I
1=
10
#8000
0%
0r
0s
#9000
1%
1r
1s
#10000
0&
0%
0r
0s
0H
0I
0=
00
#11000
1%
1r
1s
#12000
0%
0r
0s
#12500
1&
1H
1I
1=
10
#13000
1%
1r
1s
#14000
0%
0r
0s
#15000
0&
1%
1r
1s
0H
0I
0=
00
#16000
0%
0r
0s
#17000
1%
1r
1s
#17500
1&
1H
1I
1=
10
#18000
0%
0r
0s
#19000
1%
1r
1s
#20000
0&
0%
0r
0s
0H
0I
0=
00
#21000
1%
1r
1s
#22000
0%
0r
0s
#22500
1&
1H
1I
1=
10
#23000
1%
1r
1s
#24000
0%
0r
0s
#25000
0&
1%
1r
1s
0H
0I
0=
00
#26000
0%
0r
0s
#27000
1%
1r
1s
#27500
1&
1H
1I
1=
10
#28000
0%
0r
0s
#29000
1%
1r
1s
#30000
0&
0%
0r
0s
0H
0I
0=
00
#31000
1%
1r
1s
#32000
0%
0r
0s
#32500
1&
1H
1I
1=
10
#33000
1%
1r
1s
#34000
0%
0r
0s
#35000
0&
1%
1r
1s
0H
0I
0=
00
#36000
0%
0r
0s
#37000
1%
1r
1s
#37500
1&
1H
1I
1=
10
#38000
0%
0r
0s
#39000
1%
1r
1s
#40000
0'
0&
0%
0L
0r
0s
0H
0I
0=
00
#41000
1%
1r
1s
#42000
0%
0r
0s
#42500
1&
1H
1I
1=
10
1b
1`
1c
0a
#43000
1%
1r
1s
#44000
0%
0r
0s
#45000
0&
1%
1r
1s
0H
0I
0=
00
#46000
0%
0r
0s
#47000
1%
1r
1s
#47500
1&
1H
1I
1=
10
1d
0b
0c
#48000
0%
0r
0s
#49000
1%
1r
1s
#50000
0&
0%
0r
0s
0H
0I
0=
00
#51000
1%
1r
1s
#52000
0%
0r
0s
#52500
1&
1H
1I
1=
10
1e
0d
#53000
1%
1r
1s
#54000
0%
0r
0s
#55000
0&
1%
1r
1s
0H
0I
0=
00
#56000
0%
0r
0s
#57000
1%
1r
1s
#57500
1&
1H
1I
1=
10
1f
0e
1p!
1c!
1>
1/
0#"
0z!
0u!
0A
0B
0C
0*
0+
0,
#58000
0%
0r
0s
#59000
1%
1r
1s
#60000
0&
0%
0r
0s
0H
0I
0=
00
#61000
1%
1r
1s
#62000
0%
0r
0s
#62500
1&
1H
1I
1=
10
1g
0f
1m!
1u!
0c!
0>
1A
1,
0/
1n!
1@
1-
#63000
1%
1r
1s
#64000
0%
0r
0s
#65000
0&
1%
1r
1s
0H
0I
0=
00
#66000
0%
0r
0s
#67000
1%
1r
1s
#67500
1&
1H
1I
1=
10
1h
0g
1k
1i!
0u!
0A
1?
1.
0,
1l
#68000
0%
0r
0s
#69000
1%
1r
1s
#70000
0&
0%
0r
0s
0H
0I
0=
00
#71000
1%
1r
1s
#72000
0%
0r
0s
#72500
1&
1H
1I
1=
10
0h
1m
1;
0m!
0k
1q
1Y
13
0i!
1)"
1D
0?
1x
0.
1)
0n!
1K
0@
0-
1c!
1>
1/
#73000
1%
1r
1s
#74000
0%
0r
0s
#75000
0&
1%
1r
1s
0H
0I
0=
00
#76000
0%
0r
0s
#77000
1%
1r
1s
#77500
1&
1H
1I
1=
10
17"
0T!
1M
0J
1|!
1r!
1Z
0K
1[
#78000
0%
0r
0s
#79000
1%
1r
1s
1-"
1/"
1}!
1s!
1~!
1t!
1#"
1u!
1A
1C
1*
1,
#80000
0&
0%
0r
0s
0H
0I
0=
00
#81000
1%
1r
1s
#82000
0%
0r
0s
#82500
1&
1H
1I
1=
10
16"
07"
1$"
0x!
1j!
1t
0N
0Z
1T!
0M
1J
1e!
1O
1N
1Z
1k!
0u
0[
1K
0O
1P
1[
0P
#83000
1%
1r
1s
10"
11"
02"
1l!
1g!
0x
1m!
1i!
0c!
0>
1?
1.
0/
1n!
1@
1-
#84000
0%
0r
0s
#85000
0&
1%
1r
1s
0H
0I
0=
00
#86000
0%
0r
0s
#87000
1%
1r
1s
#87500
1&
1H
1I
1=
10
17"
1x!
0j!
0T!
1M
0J
0%"
1w!
0N
0Z
0k!
0K
1O
0[
1P
#88000
0%
0r
0s
#89000
1%
1r
1s
0,"
1."
00"
0("
1y!
0l!
0m!
0)"
1z!
1B
0D
0)
1+
0n!
0@
0-
#90000
0&
0%
0r
0s
0H
0I
0=
00
#91000
1%
1r
1s
#92000
0%
0r
0s
#92500
1&
1H
1I
1=
10
06"
15"
07"
0$"
0x!
0)!
1z
0t
0n
1N
1Z
1d!
1Q
0O
1T!
0M
1J
0|!
0e!
1!"
0~!
0t!
1y
0q
0Q
1O
1R
0Z
1%"
1[
0P
1K
1v!
0R
1S
0u!
0z!
0i!
1P
0[
0?
0B
0A
0S
0,
0+
0.
1z!
1T
1B
1+
0T
#93000
1%
1r
1s
1,"
0-"
01"
1("
0}!
0g!
#94000
0%
0r
0s
#95000
0&
1%
1r
1s
0H
0I
0=
00
#96000
0%
0r
0s
#97000
1%
1r
1s
#97500
1&
1H
1I
1=
10
17"
1x!
0T!
1Q!
12!
1M
0J
1Z
0K
1[
#98000
0%
0r
0s
#99000
1%
1r
1s
#100000
0&
0%
0r
0s
0H
0I
0=
00
#101000
1%
1r
1s
#102000
0%
0r
0s
#102500
1&
1H
1I
1=
10
16"
07"
1$"
1j!
0Q!
1)!
0z
1t
1n
0N
0Z
1T!
02!
0M
1J
1|!
0w!
0r!
0!"
1t!
0y
1q
1Q
0O
1N
1Z
0%"
1)"
0[
1K
1D
0v!
1R
0Q
1O
1)
0#"
1u!
0P
1[
1A
0C
1S
0R
0*
1,
1P
0S
1T
0T
#103000
1%
1r
1s
0,"
1-"
0."
0/"
0("
1}!
0y!
0s!
1~!
0t!
0)"
0z!
0B
0D
0)
0+
1#"
0u!
0A
1C
1*
0,
#104000
0%
0r
0s
#105000
0&
1%
1r
1s
0H
0I
0=
00
#106000
0%
0r
0s
#107000
1%
1r
1s
#107500
1&
1H
1I
1=
10
17"
0x!
0j!
0T!
1M
0J
0N
0Z
0K
1Q
0O
0[
1R
0P
1S
1T
#108000
0%
0r
0s
#109000
1%
1r
1s
#110000
0&
0%
0r
0s
0H
0I
0=
00
#111000
1%
1r
1s
#112000
0%
0r
0s
#112500
1&
1H
1I
1=
10
06"
14"
05"
07"
0$"
1x!
1q!
0t
1N
1Z
1{!
0d!
0o
0U
0R
0Q
1O
1T!
0M
1J
0|!
1%"
0O
1V
0S
1U
1R
0Z
1u
1[
1e!
1P
1K
0V
1S
0P
1W
0T
0[
0W
1T
#113000
1%
1r
1s
1,"
0-"
1."
11"
12"
1("
0}!
1y!
1g!
1x
0~!
1)"
1z!
1i!
1c!
1>
1?
1B
1D
1)
1+
1.
1/
0#"
0C
0*
#114000
0%
0r
0s
#115000
0&
1%
1r
1s
0H
0I
0=
00
#116000
0%
0r
0s
#117000
1%
1r
1s
#117500
1&
1H
1I
1=
10
17"
1j!
1d!
0T!
1t
1o
1M
0J
1|!
1Z
1k!
0e!
0u
0K
1[
#118000
0%
0r
0s
#119000
1%
1r
1s
1-"
10"
01"
02"
1}!
1l!
0g!
0x
1~!
1m!
0i!
0c!
0>
0?
0.
0/
1#"
1n!
1@
1C
1*
1-
#120000
0&
0%
0r
0s
0H
0I
0=
00
#121000
1%
1r
1s
#122000
0%
0r
0s
#122500
1&
1H
1I
1=
10
16"
07"
0x!
0j!
0t
0N
0Z
0d!
1T!
0o
0M
1J
1O
1N
1Z
0k!
1u
0[
1K
0O
1P
1[
0P
#123000
1%
1r
1s
0."
00"
12"
0y!
0l!
1x
0m!
0z!
1c!
1>
0B
0+
1/
0n!
0@
0-
#124000
0%
0r
0s
#125000
b1 !
b11 #
b1 $
0&
1%
1f!
1P!
1R!
1r
1s
0H
0I
0=
00
#126000
0%
0r
0s
#127000
1%
1r
1s
#127500
1&
1H
1I
1=
10
17"
1x!
1j!
1d!
0T!
1t
1o
1M
0J
1w!
0N
0Z
1k!
0u
0K
1O
0[
1P
#128000
0%
0r
0s
#129000
1%
1r
1s
1."
10"
02"
1y!
1l!
0x
1m!
1z!
0c!
0>
1B
1+
0/
1n!
1@
1-
#130000
0&
0%
0r
0s
0H
0I
0=
00
#131000
1%
1r
1s
#132000
0%
0r
0s
#132500
1&
1H
1I
1=
10
06"
15"
07"
0x!
0j!
0t
1N
1Z
1Q
0O
1T!
0o
0M
1J
0k!
0Q
1O
0U
0R
0Z
1k!
1u
1[
0P
1K
1U
1R
1V
0S
1P
0[
0V
1S
1W
0T
0W
1T
#133000
1%
1r
1s
0."
12"
0y!
1x
0z!
1c!
1>
0B
0+
1/
#134000
0%
0r
0s
#135000
0&
1%
1r
1s
0H
0I
0=
00
#136000
0%
0r
0s
#137000
1%
1r
1s
#137500
1&
1H
1I
1=
10
17"
1x!
1j!
0d!
0T!
1t
1o
1M
0J
0%"
1r!
1Z
0k!
1e!
0u
0K
1[
#138000
0%
0r
0s
#139000
1%
1r
1s
0,"
1."
1/"
00"
11"
02"
0("
1y!
1s!
0l!
1g!
0x
1t!
0m!
0)"
1z!
1i!
0c!
0>
1?
1B
0D
0)
1+
1.
0/
1u!
0n!
0@
1A
1,
0-
#140000
0&
0%
0r
0s
0H
0I
0=
00
#141000
1%
1r
1s
#142000
0%
0r
0s
#142500
1&
1H
1I
1=
10
16"
07"
0j!
0t
1X
0N
0Z
1d!
1T!
0o
0M
1J
0|!
0w!
0e!
1%"
0}!
1v
1Q
0O
1N
1Z
1u
0[
1K
0~!
1("
0s!
1l!
1x
0U
0R
0Q
1O
0P
1[
0t!
1m!
1V
0S
1U
1R
0#"
1)"
1c!
1P
1>
1D
0C
0V
1S
0*
1)
1/
0u!
1n!
1W
0T
1@
0A
0,
1-
0W
1T
#143000
1%
1r
1s
1,"
0-"
01"
12"
#144000
0%
0r
0s
#145000
0&
1%
1r
1s
0H
0I
0=
00
#146000
0%
0r
0s
#147000
1%
1r
1s
#147500
1&
1H
1I
1=
10
17"
0x!
1j!
0d!
0T!
0v
1t
1o
1\
1M
0J
0%"
1|!
0r!
1s!
0l!
0g!
0N
0Z
0u
0l
1i
0K
1t!
0m!
1Q
0O
0i!
0[
0?
0U
0R
0.
1u!
0n!
0P
0@
1A
1V
0S
1,
0-
1W
0T
#148000
0%
0r
0s
#149000
1%
1r
1s
0,"
1-"
0."
0/"
02"
0("
1}!
0y!
0s!
0x
1~!
0t!
0)"
0z!
0c!
0>
0B
0D
0)
0+
0/
1#"
0u!
0A
1C
1*
0,
#150000
0&
0%
0r
0s
0H
0I
0=
00
#151000
1%
1r
1s
#152000
0%
0r
0s
#152500
1&
1H
1I
1=
10
1j
06"
13"
04"
05"
07"
0m
0;
0*"
1k
0q!
0\
0X
1N
1Z
0{!
0Y
0V
1U
1R
0Q
1O
0M
1J
0~!
0q
03
1)"
0|!
1k!
0i
1%"
1D
1E
0O
1V
0R
0Z
1(
1)
1l
0#"
0C
0*
#153000
1%
1r
1s
1,"
0-"
10"
1("
0}!
1l!
#154000
0%
0r
0s
#155000
0&
1%
1r
1s
0H
0I
0=
00
#156000
0%
0r
0s
#157000
1%
1r
1s
#157500
1&
1H
1I
1=
10
0j
1m
1;
1*"
0k
1q
1Y
13
0E
1m!
0(
1K
1n!
1@
1-
#158000
0%
0r
0s
#159000
1%
1r
1s
#160000
0&
0%
0r
0s
0H
0I
0=
00
#161000
1%
1r
1s
#162000
0%
0r
0s
#162500
1&
1H
1I
1=
10
17"
0j!
0t
1M
0J
1|!
1r!
1Z
0k!
1u
0K
1[
#163000
1%
1r
1s
1-"
1/"
00"
12"
1}!
1s!
0l!
1x
1~!
1t!
0m!
1c!
1>
1/
1#"
1u!
0n!
0@
1A
1C
1*
1,
0-
#164000
0%
0r
0s
#165000
0&
1%
1r
1s
0H
0I
0=
00
#166000
0%
0r
0s
#167000
1%
1r
1s
#167500
1&
1H
1I
1=
10
16"
07"
1$"
1x!
1j!
1t
0N
0Z
0M
1J
1e!
1O
1N
1Z
1k!
0u
0[
1K
0O
1P
1[
0P
#168000
0%
0r
0s
#169000
1%
1r
1s
10"
11"
02"
1l!
1g!
0x
1m!
1i!
0c!
0>
1?
1.
0/
1n!
1@
1-
#170000
0&
0%
0r
0s
0H
0I
0=
00
#171000
1%
1r
1s
#172000
0%
0r
0s
#172500
1&
1H
1I
1=
10
17"
0j!
1M
0J
0%"
1w!
0N
0Z
0k!
0K
1O
0[
1P
#173000
1%
1r
1s
0,"
1."
00"
0("
1y!
0l!
0m!
0)"
1z!
1B
0D
0)
1+
0n!
0@
0-
#174000
0%
0r
0s
#175000
0&
1%
1r
1s
0H
0I
0=
00
#176000
0%
0r
0s
#177000
1%
1r
1s
#177500
1&
1H
1I
1=
10
06"
15"
07"
0$"
1j!
0)!
1z
1p
1N
1Z
1d!
1'!
1Q
0O
0M
1J
0|!
0e!
1E!
1!"
0~!
0t!
1y
0q
0Q
1O
0&"
1R
0Z
1%"
1[
0P
1K
1v!
0R
1S
0u!
0z!
0i!
1P
0[
0?
0B
0A
0S
0,
0+
0.
1z!
1T
1B
1+
0T
#178000
0%
0r
0s
#179000
1%
1r
1s
1,"
0-"
01"
0}!
0g!
#180000
0&
0%
0r
0s
0H
0I
0=
00
#181000
1%
1r
1s
#182000
0%
0r
0s
#182500
1&
1H
1I
1=
10
17"
0j!
1Q!
0E!
1{
0t
1M
0J
1S!
1^!
1Z
0K
1Y!
1a!
1[
1Z!
1h!
1b!
1i!
1?
1.
1c!
1>
1/
#183000
1%
1r
1s
#184000
0%
0r
0s
#185000
0&
1%
1r
1s
0H
0I
0=
00
#186000
0%
0r
0s
#187000
1%
1r
1s
#187500
1&
1H
1I
1=
10
16"
07"
1&"
1$"
1j!
0Q!
1)!
0z
1t
0p
0N
0Z
1E!
0{
0M
1J
1|!
0w!
0r!
1("
0S!
0E!
0!"
1t!
0y
1q
1Q
0O
0^!
1N
1Z
0%"
0[
1K
0Y!
0v!
0h!
1R
0a!
0Q
1O
1)"
0#"
1u!
0c!
0P
1[
0>
1A
0C
1D
0Z!
1S
0R
1)
0*
1,
0/
0i!
1P
0?
0b!
0S
0.
1T
0T
#188000
0%
0r
0s
#189000
1%
1r
1s
0,"
1-"
0."
0/"
0("
1}!
0y!
0s!
1~!
0t!
0)"
0z!
0B
0D
0)
0+
1#"
0u!
0A
1C
1*
0,
#190000
0&
0%
0r
0s
0H
0I
0=
00
#191000
1%
1r
1s
#192000
0%
0r
0s
#192500
1&
1H
1I
1=
10
17"
0x!
0j!
1M
0J
0N
0Z
0K
1Q
0O
0[
1R
0P
1S
1T
#193000
1%
1r
1s
#194000
0%
0r
0s
#195000
0&
1%
1r
1s
0H
0I
0=
00
#196000
0%
0r
0s
#197000
1%
1r
1s
#197500
1&
1H
1I
1=
10
06"
14"
05"
07"
1j!
1N
1Z
1{!
0d!
0o
0U
0R
0'!
0Q
1O
0M
1J
0|!
1e!
1%"
0O
0V
0S
1U
1R
0Z
1k!
1[
0e!
1P
1K
1V
1S
0P
0W
0T
0[
1W
1T
#198000
0%
0r
0s
#199000
1%
1r
1s
1,"
0-"
10"
1("
0}!
1l!
0~!
1m!
1)"
1D
1)
0#"
1n!
1@
0C
0*
1-
#200000
0&
0%
0r
0s
0H
0I
0=
00
#201000
1%
1r
1s
#202000
0%
0r
0s
#202500
1&
1H
1I
1=
10
17"
0{!
1d!
0t
1o
1M
0J
1|!
1r!
1Z
1e!
1u
0K
1[
