pratica00/Quartus/simulation/qsim/atv00.msim.vcd
$comment
	File created using the following command:
		vcd file atv00.msim.vcd -direction
$end
$date
	Sun Mar 17 07:09:05 2024
$end
$version
	ModelSim Version 10.5b
$end
$timescale
	1ps
$end

$scope module arquitetura_vhd_vec_tst $end
$var wire 1 ! Clock $end
$var wire 1 " DataInput [7] $end
$var wire 1 # DataInput [6] $end
$var wire 1 $ DataInput [5] $end
$var wire 1 % DataInput [4] $end
$var wire 1 & DataInput [3] $end
$var wire 1 ' DataInput [2] $end
$var wire 1 ( DataInput [1] $end
$var wire 1 ) DataInput [0] $end
$var wire 1 * DataOutOut $end
$var wire 1 + En $end
$var wire 1 , ss [6] $end
$var wire 1 - ss [5] $end
$var wire 1 . ss [4] $end
$var wire 1 / ss [3] $end
$var wire 1 0 ss [2] $end
$var wire 1 1 ss [1] $end
$var wire 1 2 ss [0] $end

$scope module i1 $end
$var wire 1 3 gnd $end
$var wire 1 4 vcc $end
$var wire 1 5 unknown $end
$var wire 1 6 devoe $end
$var wire 1 7 devclrn $end
$var wire 1 8 devpor $end
$var wire 1 9 ww_devoe $end
$var wire 1 : ww_devclrn $end
$var wire 1 ; ww_devpor $end
$var wire 1 < ww_Clock $end
$var wire 1 = ww_DataInput [7] $end
$var wire 1 > ww_DataInput [6] $end
$var wire 1 ? ww_DataInput [5] $end
$var wire 1 @ ww_DataInput [4] $end
$var wire 1 A ww_DataInput [3] $end
$var wire 1 B ww_DataInput [2] $end
$var wire 1 C ww_DataInput [1] $end
$var wire 1 D ww_DataInput [0] $end
$var wire 1 E ww_En $end
$var wire 1 F ww_ss [6] $end
$var wire 1 G ww_ss [5] $end
$var wire 1 H ww_ss [4] $end
$var wire 1 I ww_ss [3] $end
$var wire 1 J ww_ss [2] $end
$var wire 1 K ww_ss [1] $end
$var wire 1 L ww_ss [0] $end
$var wire 1 M ww_DataOutOut $end
$var wire 1 N \sis|M8C1|LessThan0~clkctrl_INCLK_bus\ [3] $end
$var wire 1 O \sis|M8C1|LessThan0~clkctrl_INCLK_bus\ [2] $end
$var wire 1 P \sis|M8C1|LessThan0~clkctrl_INCLK_bus\ [1] $end
$var wire 1 Q \sis|M8C1|LessThan0~clkctrl_INCLK_bus\ [0] $end
$var wire 1 R \Clock~inputclkctrl_INCLK_bus\ [3] $end
$var wire 1 S \Clock~inputclkctrl_INCLK_bus\ [2] $end
$var wire 1 T \Clock~inputclkctrl_INCLK_bus\ [1] $end
$var wire 1 U \Clock~inputclkctrl_INCLK_bus\ [0] $end
$var wire 1 V \ss[0]~output_o\ $end
$var wire 1 W \ss[1]~output_o\ $end
$var wire 1 X \ss[2]~output_o\ $end
$var wire 1 Y \ss[3]~output_o\ $end
$var wire 1 Z \ss[4]~output_o\ $end
$var wire 1 [ \ss[5]~output_o\ $end
$var wire 1 \ \ss[6]~output_o\ $end
$var wire 1 ] \DataOutOut~output_o\ $end
$var wire 1 ^ \Clock~input_o\ $end
$var wire 1 _ \Clock~inputclkctrl_outclk\ $end
$var wire 1 ` \ent|CD01|Add0~0_combout\ $end
$var wire 1 a \ent|CD01|Add0~81_combout\ $end
$var wire 1 b \ent|CD01|Add0~1\ $end
$var wire 1 c \ent|CD01|Add0~2_combout\ $end
$var wire 1 d \ent|CD01|Add0~78_combout\ $end
$var wire 1 e \ent|CD01|Add0~3\ $end
$var wire 1 f \ent|CD01|Add0~4_combout\ $end
$var wire 1 g \ent|CD01|Add0~79_combout\ $end
$var wire 1 h \ent|CD01|Add0~5\ $end
$var wire 1 i \ent|CD01|Add0~6_combout\ $end
$var wire 1 j \ent|CD01|Add0~80_combout\ $end
$var wire 1 k \ent|CD01|Add0~7\ $end
$var wire 1 l \ent|CD01|Add0~8_combout\ $end
$var wire 1 m \ent|CD01|Add0~82_combout\ $end
$var wire 1 n \ent|CD01|Add0~9\ $end
$var wire 1 o \ent|CD01|Add0~10_combout\ $end
$var wire 1 p \ent|CD01|Add0~83_combout\ $end
$var wire 1 q \ent|CD01|Add0~11\ $end
$var wire 1 r \ent|CD01|Add0~12_combout\ $end
$var wire 1 s \ent|CD01|Add0~77_combout\ $end
$var wire 1 t \ent|CD01|Add0~13\ $end
$var wire 1 u \ent|CD01|Add0~14_combout\ $end
$var wire 1 v \ent|CD01|Add0~84_combout\ $end
$var wire 1 w \ent|CD01|Add0~15\ $end
$var wire 1 x \ent|CD01|Add0~16_combout\ $end
$var wire 1 y \ent|CD01|Add0~85_combout\ $end
$var wire 1 z \ent|CD01|Add0~17\ $end
$var wire 1 { \ent|CD01|Add0~18_combout\ $end
$var wire 1 | \ent|CD01|Add0~86_combout\ $end
$var wire 1 } \ent|CD01|Add0~19\ $end
$var wire 1 ~ \ent|CD01|Add0~20_combout\ $end
$var wire 1 !! \ent|CD01|Add0~87_combout\ $end
$var wire 1 "! \ent|CD01|Add0~21\ $end
$var wire 1 #! \ent|CD01|Add0~22_combout\ $end
$var wire 1 $! \ent|CD01|Add0~73_combout\ $end
$var wire 1 %! \ent|CD01|Add0~23\ $end
$var wire 1 &! \ent|CD01|Add0~24_combout\ $end
$var wire 1 '! \ent|CD01|Add0~74_combout\ $end
$var wire 1 (! \ent|CD01|Add0~25\ $end
$var wire 1 )! \ent|CD01|Add0~26_combout\ $end
$var wire 1 *! \ent|CD01|Add0~75_combout\ $end
$var wire 1 +! \ent|CD01|Add0~27\ $end
$var wire 1 ,! \ent|CD01|Add0~28_combout\ $end
$var wire 1 -! \ent|CD01|Add0~76_combout\ $end
$var wire 1 .! \ent|CD01|Add0~29\ $end
$var wire 1 /! \ent|CD01|Add0~30_combout\ $end
$var wire 1 0! \ent|CD01|Add0~92_combout\ $end
$var wire 1 1! \ent|CD01|Add0~31\ $end
$var wire 1 2! \ent|CD01|Add0~32_combout\ $end
$var wire 1 3! \ent|CD01|Add0~66_combout\ $end
$var wire 1 4! \ent|CD01|Add0~33\ $end
$var wire 1 5! \ent|CD01|Add0~34_combout\ $end
$var wire 1 6! \ent|CD01|Add0~91_combout\ $end
$var wire 1 7! \ent|CD01|Add0~35\ $end
$var wire 1 8! \ent|CD01|Add0~36_combout\ $end
$var wire 1 9! \ent|CD01|Add0~67_combout\ $end
$var wire 1 :! \ent|CD01|Add0~37\ $end
$var wire 1 ;! \ent|CD01|Add0~38_combout\ $end
$var wire 1 <! \ent|CD01|Add0~68_combout\ $end
$var wire 1 =! \ent|CD01|Add0~39\ $end
$var wire 1 >! \ent|CD01|Add0~40_combout\ $end
$var wire 1 ?! \ent|CD01|Add0~69_combout\ $end
$var wire 1 @! \ent|CD01|Add0~41\ $end
$var wire 1 A! \ent|CD01|Add0~42_combout\ $end
$var wire 1 B! \ent|CD01|Add0~70_combout\ $end
$var wire 1 C! \ent|CD01|Add0~43\ $end
$var wire 1 D! \ent|CD01|Add0~44_combout\ $end
$var wire 1 E! \ent|CD01|Add0~71_combout\ $end
$var wire 1 F! \ent|CD01|Add0~45\ $end
$var wire 1 G! \ent|CD01|Add0~46_combout\ $end
$var wire 1 H! \ent|CD01|Add0~90_combout\ $end
$var wire 1 I! \ent|CD01|Add0~47\ $end
$var wire 1 J! \ent|CD01|Add0~48_combout\ $end
$var wire 1 K! \ent|CD01|Add0~72_combout\ $end
$var wire 1 L! \ent|CD01|Add0~49\ $end
$var wire 1 M! \ent|CD01|Add0~50_combout\ $end
$var wire 1 N! \ent|CD01|Add0~88_combout\ $end
$var wire 1 O! \ent|CD01|Add0~51\ $end
$var wire 1 P! \ent|CD01|Add0~52_combout\ $end
$var wire 1 Q! \ent|CD01|Add0~89_combout\ $end
$var wire 1 R! \ent|CD01|Add0~53\ $end
$var wire 1 S! \ent|CD01|Add0~54_combout\ $end
$var wire 1 T! \ent|CD01|Add0~56_combout\ $end
$var wire 1 U! \ent|CD01|Add0~55\ $end
$var wire 1 V! \ent|CD01|Add0~57_combout\ $end
$var wire 1 W! \ent|CD01|Add0~59_combout\ $end
$var wire 1 X! \ent|CD01|Add0~58\ $end
$var wire 1 Y! \ent|CD01|Add0~60_combout\ $end
$var wire 1 Z! \ent|CD01|Add0~62_combout\ $end
$var wire 1 [! \ent|CD01|Add0~61\ $end
$var wire 1 \! \ent|CD01|Add0~63_combout\ $end
$var wire 1 ]! \ent|CD01|Add0~65_combout\ $end
$var wire 1 ^! \ent|CD01|LessThan0~0_combout\ $end
$var wire 1 _! \ent|CD01|Add0~64\ $end
$var wire 1 `! \ent|CD01|Add0~93_combout\ $end
$var wire 1 a! \ent|CD01|Add0~95_combout\ $end
$var wire 1 b! \ent|CD01|LessThan0~1_combout\ $end
$var wire 1 c! \ent|CD01|LessThan0~8_combout\ $end
$var wire 1 d! \ent|CD01|LessThan0~9_combout\ $end
$var wire 1 e! \ent|CD01|LessThan0~10_combout\ $end
$var wire 1 f! \ent|CD01|LessThan0~3_combout\ $end
$var wire 1 g! \ent|CD01|LessThan0~2_combout\ $end
$var wire 1 h! \ent|CD01|LessThan0~4_combout\ $end
$var wire 1 i! \ent|CD01|LessThan0~5_combout\ $end
$var wire 1 j! \ent|CD01|LessThan0~6_combout\ $end
$var wire 1 k! \ent|CD01|LessThan0~7_combout\ $end
$var wire 1 l! \ent|CD01|LessThan0~11_combout\ $end
$var wire 1 m! \ent|CD01|tmp~0_combout\ $end
$var wire 1 n! \ent|CD01|tmp~feeder_combout\ $end
$var wire 1 o! \ent|CD01|tmp~q\ $end
$var wire 1 p! \sis|M8C1|CountBuffer[0]~1_combout\ $end
$var wire 1 q! \sai|ssd1|ss[1]~6_combout\ $end
$var wire 1 r! \sis|M8C1|CountBuffer[2]~0_combout\ $end
$var wire 1 s! \sai|ssd1|ss[0]~0_combout\ $end
$var wire 1 t! \sai|ssd1|ss[1]~1_combout\ $end
$var wire 1 u! \sai|ssd1|Equal14~0_combout\ $end
$var wire 1 v! \sai|ssd1|ss[3]~2_combout\ $end
$var wire 1 w! \sai|ssd1|ss[4]~3_combout\ $end
$var wire 1 x! \sai|ssd1|ss[5]~4_combout\ $end
$var wire 1 y! \sai|ssd1|ss[6]~5_combout\ $end
$var wire 1 z! \sis|M8C1|LessThan0~combout\ $end
$var wire 1 {! \sis|M8C1|LessThan0~clkctrl_outclk\ $end
$var wire 1 |! \DataInput[2]~input_o\ $end
$var wire 1 }! \sis|DR1|Q[2]~feeder_combout\ $end
$var wire 1 ~! \DataInput[3]~input_o\ $end
$var wire 1 !" \DataInput[1]~input_o\ $end
$var wire 1 "" \sis|DR1|Q[1]~feeder_combout\ $end
$var wire 1 #" \DataInput[0]~input_o\ $end
$var wire 1 $" \sis|MX1|Mux0~2_combout\ $end
$var wire 1 %" \sis|MX1|Mux0~3_combout\ $end
$var wire 1 &" \En~input_o\ $end
$var wire 1 '" \DataInput[4]~input_o\ $end
$var wire 1 (" \DataInput[5]~input_o\ $end
$var wire 1 )" \sis|MX1|Mux0~0_combout\ $end
$var wire 1 *" \DataInput[7]~input_o\ $end
$var wire 1 +" \DataInput[6]~input_o\ $end
$var wire 1 ," \sis|DR1|Q[6]~feeder_combout\ $end
$var wire 1 -" \sis|MX1|Mux0~1_combout\ $end
$var wire 1 ." \sis|MX1|DataOut~0_combout\ $end
$var wire 1 /" \ent|CD01|count\ [31] $end
$var wire 1 0" \ent|CD01|count\ [30] $end
$var wire 1 1" \ent|CD01|count\ [29] $end
$var wire 1 2" \ent|CD01|count\ [28] $end
$var wire 1 3" \ent|CD01|count\ [27] $end
$var wire 1 4" \ent|CD01|count\ [26] $end
$var wire 1 5" \ent|CD01|count\ [25] $end
$var wire 1 6" \ent|CD01|count\ [24] $end
$var wire 1 7" \ent|CD01|count\ [23] $end
$var wire 1 8" \ent|CD01|count\ [22] $end
$var wire 1 9" \ent|CD01|count\ [21] $end
$var wire 1 :" \ent|CD01|count\ [20] $end
$var wire 1 ;" \ent|CD01|count\ [19] $end
$var wire 1 <" \ent|CD01|count\ [18] $end
$var wire 1 =" \ent|CD01|count\ [17] $end
$var wire 1 >" \ent|CD01|count\ [16] $end
$var wire 1 ?" \ent|CD01|count\ [15] $end
$var wire 1 @" \ent|CD01|count\ [14] $end
$var wire 1 A" \ent|CD01|count\ [13] $end
$var wire 1 B" \ent|CD01|count\ [12] $end
$var wire 1 C" \ent|CD01|count\ [11] $end
$var wire 1 D" \ent|CD01|count\ [10] $end
$var wire 1 E" \ent|CD01|count\ [9] $end
$var wire 1 F" \ent|CD01|count\ [8] $end
$var wire 1 G" \ent|CD01|count\ [7] $end
$var wire 1 H" \ent|CD01|count\ [6] $end
$var wire 1 I" \ent|CD01|count\ [5] $end
$var wire 1 J" \ent|CD01|count\ [4] $end
$var wire 1 K" \ent|CD01|count\ [3] $end
$var wire 1 L" \ent|CD01|count\ [2] $end
$var wire 1 M" \ent|CD01|count\ [1] $end
$var wire 1 N" \ent|CD01|count\ [0] $end
$var wire 1 O" \sis|M8C1|CountBuffer\ [2] $end
$var wire 1 P" \sis|M8C1|CountBuffer\ [1] $end
$var wire 1 Q" \sis|M8C1|CountBuffer\ [0] $end
$var wire 1 R" \sis|DR1|Q\ [7] $end
$var wire 1 S" \sis|DR1|Q\ [6] $end
$var wire 1 T" \sis|DR1|Q\ [5] $end
$var wire 1 U" \sis|DR1|Q\ [4] $end
$var wire 1 V" \sis|DR1|Q\ [3] $end
$var wire 1 W" \sis|DR1|Q\ [2] $end
$var wire 1 X" \sis|DR1|Q\ [1] $end
$var wire 1 Y" \sis|DR1|Q\ [0] $end
$var wire 1 Z" \sai|ssd1|ALT_INV_ss[6]~5_combout\ $end
$upscope $end
$upscope $end
$enddefinitions $end
#0
$dumpvars
0!
0*
0+
03
14
x5
16
17
18
19
1:
1;
0<
0E
0M
0V
0W
0X
0Y
0Z
0[
1\
0]
0^
0_
0`
1a
1b
1c
1d
1e
0f
0g
0h
0i
0j
1k
0l
0m
0n
0o
0p
1q
0r
0s
0t
0u
0v
1w
0x
0y
0z
0{
0|
1}
0~
0!!
0"!
0#!
0$!
1%!
0&!
0'!
0(!
0)!
0*!
1+!
0,!
0-!
0.!
0/!
00!
11!
02!
03!
04!
05!
06!
17!
08!
09!
0:!
0;!
0<!
1=!
0>!
0?!
0@!
0A!
0B!
1C!
0D!
0E!
0F!
0G!
0H!
1I!
0J!
0K!
0L!
0M!
0N!
1O!
0P!
0Q!
0R!
0S!
0T!
1U!
0V!
0W!
0X!
0Y!
0Z!
1[!
0\!
0]!
0^!
0_!
0`!
0a!
0b!
0c!
0d!
0e!
0f!
0g!
1h!
0i!
0j!
0k!
0l!
0m!
0n!
0o!
1p!
0q!
0r!
0s!
0t!
0u!
0v!
0w!
0x!
0y!
0z!
0{!
0|!
0}!
0~!
0!"
0""
0#"
0$"
0%"
0&"
0'"
0("
0)"
0*"
0+"
0,"
0-"
0."
1Z"
0"
0#
0$
0%
0&
0'
0(
0)
1,
0-
0.
0/
00
01
02
0=
0>
0?
0@
0A
0B
0C
0D
1F
0G
0H
0I
0J
0K
0L
0/"
00"
01"
02"
03"
04"
05"
06"
07"
08"
09"
0:"
0;"
0<"
0="
0>"
0?"
0@"
0A"
0B"
0C"
0D"
0E"
0F"
0G"
0H"
0I"
0J"
0K"
0L"
0M"
0N"
0O"
0P"
0Q"
0R"
0S"
0T"
0U"
0V"
0W"
0X"
0Y"
1R
1S
1T
0U
1N
1O
1P
0Q
$end
#1000
1!
1<
1^
1U
1_
1N"
1M"
0c
0e
1`
0b
1c
1e
0a
1f
0d
1g
0f
1d
0g
#2000
0!
0<
0^
0U
0_
#3000
1!
1<
1^
1U
1_
0N"
0`
1b
0c
0e
1a
1f
0d
1g
#4000
0!
0<
0^
0U
0_
#5000
1!
1<
1^
1U
1_
1N"
0M"
1L"
0f
1h
1c
1e
1`
0b
0c
0a
1f
0h
1d
1i
0g
1j
0i
1g
0d
0j
#6000
0!
0<
0^
0U
0_
#7000
1!
1<
1^
1U
1_
0N"
0`
1b
1c
1a
1d
#8000
0!
0<
0^
0U
0_
#9000
1!
1<
1^
1U
1_
1N"
1M"
0c
0e
1`
0b
1c
1e
0a
0f
1h
0d
1i
0g
1f
0h
1d
0i
1g
1j
0j
#10000
0!
0<
0^
0U
0_
#11000
1!
1<
1^
1U
1_
0N"
0`
1b
0c
0e
1a
0f
1h
0d
1i
0g
1j
#12000
0!
0<
0^
0U
0_
#13000
1!
1<
1^
1U
1_
1N"
0M"
0L"
1K"
0i
0k
1f
0h
1c
1e
1`
0b
0c
0a
0f
1d
1i
1k
1g
1l
0j
1m
0l
1j
0g
0d
0m
#14000
0!
0<
0^
0U
0_
#15000
1!
1<
1^
1U
1_
0N"
0`
1b
1c
1a
1d
#16000
0!
0<
0^
0U
0_
#17000
1!
1<
1^
1U
1_
1N"
1M"
0c
0e
1`
0b
1c
1e
0a
1f
0d
1g
0f
1d
0g
#18000
0!
0<
0^
0U
0_
#19000
1!
1<
1^
1U
1_
0N"
0`
1b
0c
0e
1a
1f
0d
1g
#20000
0!
0<
0^
0U
0_
#21000
1!
1<
1^
1U
1_
1N"
0M"
1L"
0f
1h
1c
1e
1`
0b
0c
0a
1f
0h
1d
0i
0k
0g
1l
0j
1i
1k
1g
0d
0l
1j
1m
0m
#22000
0!
0<
0^
0U
0_
#23000
1!
1<
1^
1U
1_
0N"
0`
1b
1c
1a
1d
#24000
0!
0<
0^
0U
0_
#25000
1!
1<
1^
1U
1_
1N"
1M"
0c
0e
1`
0b
1c
1e
0a
0f
1h
0d
0i
0k
0g
1f
0h
1d
1i
1k
1g
1l
0j
1m
0l
1j
0m
#26000
0!
0<
0^
0U
0_
#27000
1!
1<
1^
1U
1_
0N"
0`
1b
0c
0e
1a
0f
1h
0d
0i
0k
0g
1l
0j
1m
#28000
0!
0<
0^
0U
0_
#29000
1!
1<
1^
1U
1_
1N"
0M"
0L"
0K"
1J"
0l
1n
1i
1k
1f
0h
1c
1e
1`
0b
0h!
0c
0a
0f
1d
0i
1g
1l
0n
1j
1o
0m
1p
0o
1m
0j
0g
0d
0p
#30000
0!
0<
0^
0U
0_
#31000
1!
1<
1^
1U
1_
0N"
0`
1b
1h!
1c
1a
1d
#32000
0!
0<
0^
0U
0_
#33000
1!
1<
1^
1U
1_
1N"
1M"
0c
0e
1`
0b
1c
1e
0a
1f
0d
1g
0f
1d
0g
#34000
0!
0<
0^
0U
0_
#35000
1!
1<
1^
1U
1_
0N"
0`
1b
0c
0e
1a
1f
0d
1g
#36000
0!
0<
0^
0U
0_
#37000
1!
1<
1^
1U
1_
1N"
0M"
1L"
0f
1h
1c
1e
1`
0b
0c
0a
1f
0h
1d
1i
0g
1j
0i
1g
0d
0j
#38000
0!
0<
0^
0U
0_
#39000
1!
1<
1^
1U
1_
0N"
0`
1b
1c
1a
1d
#40000
0!
0<
0^
0U
0_
#41000
1!
1<
1^
1U
1_
1N"
1M"
0c
0e
1`
0b
1c
1e
0a
0f
1h
0d
1i
0g
1f
0h
1d
0i
1g
1j
0j
#42000
0!
0<
0^
0U
0_
#43000
1!
1<
1^
1U
1_
0N"
0`
1b
0c
0e
1a
0f
1h
0d
1i
0g
1j
#44000
0!
0<
0^
0U
0_
#45000
1!
1<
1^
1U
1_
1N"
0M"
0L"
1K"
0i
0k
1f
0h
1c
1e
1`
0b
0c
0a
0f
1d
1i
1k
1g
0l
1n
0j
1o
0m
1l
0n
1j
0g
0d
0o
1m
1p
0p
#46000
0!
0<
0^
0U
0_
#47000
1!
1<
1^
1U
1_
0N"
0`
1b
1c
1a
1d
#48000
0!
0<
0^
0U
0_
#49000
1!
1<
1^
1U
1_
1N"
1M"
0c
0e
1`
0b
1c
1e
0a
1f
0d
1g
0f
1d
0g
#50000
0!
0<
0^
0U
0_
#51000
1!
1<
1^
1U
1_
0N"
0`
1b
0c
0e
1a
1f
0d
1g
#52000
0!
0<
0^
0U
0_
#53000
1!
1<
1^
1U
1_
1N"
0M"
1L"
0f
1h
1c
1e
1`
0b
0c
0a
1f
0h
1d
0i
0k
0g
0l
1n
0j
1i
1k
1g
0d
1l
0n
1j
1o
0m
1p
0o
1m
0p
#54000
0!
0<
0^
0U
0_
#55000
1!
1<
1^
1U
1_
0N"
0`
1b
1c
1a
1d
#56000
0!
0<
0^
0U
0_
#57000
1!
1<
1^
1U
1_
1N"
1M"
0c
0e
1`
0b
1c
1e
0a
0f
1h
0d
0i
0k
0g
1f
0h
1d
1i
1k
1g
0l
1n
0j
1o
0m
1l
0n
1j
0o
1m
1p
0p
#58000
0!
0<
0^
0U
0_
#59000
1!
1<
1^
1U
1_
0N"
0`
1b
0c
0e
1a
0f
1h
0d
0i
0k
0g
0l
1n
0j
1o
0m
1p
#60000
0!
0<
0^
0U
0_
#61000
1!
1<
1^
1U
1_
1N"
0M"
0L"
0K"
0J"
1I"
0o
0q
1l
0n
1i
1k
1f
0h
1c
1e
1`
0b
0h!
0c
0a
0f
1d
0i
1g
0l
1j
1o
1q
1m
1r
0p
1s
0r
1p
0m
0j
0g
0d
0s
#62000
0!
0<
0^
0U
0_
#63000
1!
1<
1^
1U
1_
0N"
0`
1b
1h!
1c
1a
1d
#64000
0!
0<
0^
0U
0_
#65000
1!
1<
1^
1U
1_
1N"
1M"
0c
0e
1`
0b
1c
1e
0a
1f
0d
1g
0f
1d
0g
#66000
0!
0<
0^
0U
0_
#67000
1!
1<
1^
1U
1_
0N"
0`
1b
0c
0e
1a
1f
0d
1g
#68000
0!
0<
0^
0U
0_
#69000
1!
1<
1^
1U
1_
1N"
0M"
1L"
0f
1h
1c
1e
1`
0b
0c
0a
1f
0h
1d
1i
0g
1j
0i
1g
0d
0j
#70000
0!
0<
0^
0U
0_
#71000
1!
1<
1^
1U
1_
0N"
0`
1b
1c
1a
1d
#72000
0!
0<
0^
0U
0_
#73000
1!
1<
1^
1U
1_
1N"
1M"
0c
0e
1`
0b
1c
1e
0a
0f
1h
0d
1i
0g
1f
0h
1d
0i
1g
1j
0j
#74000
0!
0<
0^
0U
0_
#75000
1!
1<
1^
1U
1_
0N"
0`
1b
0c
0e
1a
0f
1h
0d
1i
0g
1j
#76000
0!
0<
0^
0U
0_
#77000
1!
1<
1^
1U
1_
1N"
0M"
0L"
1K"
0i
0k
1f
0h
1c
1e
1`
0b
0c
0a
0f
1d
1i
1k
1g
1l
0j
1m
0l
1j
0g
0d
0m
#78000
0!
0<
0^
0U
0_
#79000
1!
1<
1^
1U
1_
0N"
0`
1b
1c
1a
1d
#80000
0!
0<
0^
0U
0_
#81000
1!
1<
1^
1U
1_
1N"
1M"
0c
0e
1`
0b
1c
1e
0a
1f
0d
1g
0f
1d
0g
#82000
0!
0<
0^
0U
0_
#83000
1!
1<
1^
1U
1_
0N"
0`
1b
0c
0e
1a
1f
0d
1g
#84000
0!
0<
0^
0U
0_
#85000
1!
1<
1^
1U
1_
1N"
0M"
1L"
0f
1h
1c
1e
1`
0b
0c
0a
1f
0h
1d
0i
0k
0g
1l
0j
1i
1k
1g
0d
0l
1j
1m
0m
#86000
0!
0<
0^
0U
0_
#87000
1!
1<
1^
1U
1_
0N"
0`
1b
1c
1a
1d
#88000
0!
0<
0^
0U
0_
#89000
1!
1<
1^
1U
1_
1N"
1M"
0c
0e
1`
0b
1c
1e
0a
0f
1h
0d
0i
0k
0g
1f
0h
1d
1i
1k
1g
1l
0j
1m
0l
1j
0m
#90000
0!
0<
0^
0U
0_
#91000
1!
1<
1^
1U
1_
0N"
0`
1b
0c
0e
1a
0f
1h
0d
0i
0k
0g
1l
0j
1m
#92000
0!
0<
0^
0U
0_
#93000
1!
1<
1^
1U
1_
1N"
0M"
0L"
0K"
1J"
0l
1n
1i
1k
1f
0h
1c
1e
1`
0b
0h!
0c
0a
0f
1d
0i
1g
1l
0n
1j
0o
0q
0m
1r
0p
1o
1q
1m
0j
0g
0d
0r
1p
1s
0s
#94000
0!
0<
0^
0U
0_
#95000
1!
1<
1^
1U
1_
0N"
0`
1b
1h!
1c
1a
1d
#96000
0!
0<
0^
0U
0_
#97000
1!
1<
1^
1U
1_
1N"
1M"
0c
0e
1`
0b
1c
1e
0a
1f
0d
1g
0f
1d
0g
#98000
0!
0<
0^
0U
0_
#99000
1!
1<
1^
1U
1_
0N"
0`
1b
0c
0e
1a
1f
0d
1g
#100000
0!
0<
0^
0U
0_
#101000
1!
1<
1^
1U
1_
1N"
0M"
1L"
0f
1h
1c
1e
1`
0b
0c
0a
1f
0h
1d
1i
0g
1j
0i
1g
0d
0j
#102000
0!
0<
0^
0U
0_
#103000
1!
1<
1^
1U
1_
0N"
0`
1b
1c
1a
1d
#104000
0!
0<
0^
0U
0_
#105000
1!
1<
1^
1U
1_
1N"
1M"
0c
0e
1`
0b
1c
1e
0a
0f
1h
0d
1i
0g
1f
0h
1d
0i
1g
1j
0j
#106000
0!
0<
0^
0U
0_
#107000
1!
1<
1^
1U
1_
0N"
0`
1b
0c
0e
1a
0f
1h
0d
1i
0g
1j
#108000
0!
0<
0^
0U
0_
#109000
1!
1<
1^
1U
1_
1N"
0M"
0L"
1K"
0i
0k
1f
0h
1c
1e
1`
0b
0c
0a
0f
1d
1i
1k
1g
0l
1n
0j
0o
0q
0m
1l
0n
1j
0g
0d
1o
1q
1m
1r
0p
1s
0r
1p
0s
#110000
0!
0<
0^
0U
0_
#111000
1!
1<
1^
1U
1_
0N"
0`
1b
1c
1a
1d
#112000
0!
0<
0^
0U
0_
#113000
1!
1<
1^
1U
1_
1N"
1M"
0c
0e
1`
0b
1c
1e
0a
1f
0d
1g
0f
1d
0g
#114000
0!
0<
0^
0U
0_
#115000
1!
1<
1^
1U
1_
0N"
0`
1b
0c
0e
1a
1f
0d
1g
#116000
0!
0<
0^
0U
0_
#117000
1!
1<
1^
1U
1_
1N"
0M"
1L"
0f
1h
1c
1e
1`
0b
0c
0a
1f
0h
1d
0i
0k
0g
0l
1n
0j
1i
1k
1g
0d
1l
0n
1j
0o
0q
0m
1r
0p
1o
1q
1m
0r
1p
1s
0s
#118000
0!
0<
0^
0U
0_
#119000
1!
1<
1^
1U
1_
0N"
0`
1b
1c
1a
1d
#120000
0!
0<
0^
0U
0_
#121000
1!
1<
1^
1U
1_
1N"
1M"
0c
0e
1`
0b
1c
1e
0a
0f
1h
0d
0i
0k
0g
1f
0h
1d
1i
1k
1g
0l
1n
0j
0o
0q
0m
1l
0n
1j
1o
1q
1m
1r
0p
1s
0r
1p
0s
#122000
0!
0<
0^
0U
0_
#123000
1!
1<
1^
1U
1_
0N"
0`
1b
0c
0e
1a
0f
1h
0d
0i
0k
0g
0l
1n
0j
0o
0q
0m
1r
0p
1s
#124000
0!
0<
0^
0U
0_
#125000
1!
1<
1^
1U
1_
1N"
0M"
0L"
0K"
0J"
0I"
1H"
0r
1t
1o
1q
1l
0n
1i!
1i
1k
1f
0h
1c
1e
1`
0b
0h!
0i!
0c
0a
0f
1d
0i
1g
0l
1j
0o
1m
1r
0t
1p
1u
0s
1v
0u
1s
0p
0m
0j
0g
0d
0v
#126000
0!
0<
0^
0U
0_
#127000
1!
1<
1^
1U
1_
0N"
0`
1b
1h!
1i!
1c
1a
1d
#128000
0!
0<
0^
0U
0_
#129000
1!
1<
1^
1U
1_
1N"
1M"
0c
0e
1`
0b
1c
1e
0a
1f
0d
1g
0f
1d
0g
#130000
0!
0<
0^
0U
0_
#131000
1!
1<
1^
1U
1_
0N"
0`
1b
0c
0e
1a
1f
0d
1g
#132000
0!
0<
0^
0U
0_
#133000
1!
1<
1^
1U
1_
1N"
0M"
1L"
0f
1h
1c
1e
1`
0b
0c
0a
1f
0h
1d
1i
0g
1j
0i
1g
0d
0j
#134000
0!
0<
0^
0U
0_
#135000
1!
1<
1^
1U
1_
0N"
0`
1b
1c
1a
1d
#136000
0!
0<
0^
0U
0_
#137000
1!
1<
1^
1U
1_
1N"
1M"
0c
0e
1`
0b
1c
1e
0a
0f
1h
0d
1i
0g
1f
0h
1d
0i
1g
1j
0j
#138000
0!
0<
0^
0U
0_
#139000
1!
1<
1^
1U
1_
0N"
0`
1b
0c
0e
1a
0f
1h
0d
1i
0g
1j
#140000
0!
0<
0^
0U
0_
#141000
1!
1<
1^
1U
1_
1N"
0M"
0L"
1K"
0i
0k
1f
0h
1c
1e
1`
0b
0c
0a
0f
1d
1i
1k
1g
1l
0j
1m
0l
1j
0g
0d
0m
#142000
0!
0<
0^
0U
0_
#143000
1!
1<
1^
1U
1_
0N"
0`
1b
1c
1a
1d
#144000
0!
0<
0^
0U
0_
#145000
1!
1<
1^
1U
1_
1N"
1M"
0c
0e
1`
0b
1c
1e
0a
1f
0d
1g
0f
1d
0g
#146000
0!
0<
0^
0U
0_
#147000
1!
1<
1^
1U
1_
0N"
0`
1b
0c
0e
1a
1f
0d
1g
#148000
0!
0<
0^
0U
0_
#149000
1!
1<
1^
1U
1_
1N"
0M"
1L"
0f
1h
1c
1e
1`
0b
0c
0a
1f
0h
1d
0i
0k
0g
1l
0j
1i
1k
1g
0d
0l
1j
1m
0m
#150000
0!
0<
0^
0U
0_
#151000
1!
1<
1^
1U
1_
0N"
0`
1b
1c
1a
1d
#152000
0!
0<
0^
0U
0_
#153000
1!
1<
1^
1U
1_
1N"
1M"
0c
0e
1`
0b
1c
1e
0a
0f
1h
0d
0i
0k
0g
1f
0h
1d
1i
1k
1g
1l
0j
1m
0l
1j
0m
#154000
0!
0<
0^
0U
0_
#155000
1!
1<
1^
1U
1_
0N"
0`
1b
0c
0e
1a
0f
1h
0d
0i
0k
0g
1l
0j
1m
#156000
0!
0<
0^
0U
0_
#157000
1!
1<
1^
1U
1_
1N"
0M"
0L"
0K"
1J"
0l
1n
1i
1k
1f
0h
1c
1e
1`
0b
0h!
0c
0a
0f
1d
0i
1g
1l
0n
1j
1o
0m
1p
0o
1m
0j
0g
0d
0p
#158000
0!
0<
0^
0U
0_
