pratica00/Quartus/simulation/qsim/atv00.msim.vcd
$comment
	File created using the following command:
		vcd file atv00.msim.vcd -direction
$end
$date
	Thu Apr 11 21:12:57 2024
$end
$version
	ModelSim Version 10.5b
$end
$timescale
	1ps
$end

$scope module sevensegdecoder_vhd_vec_tst $end
$var wire 1 ! data [3] $end
$var wire 1 " data [2] $end
$var wire 1 # data [1] $end
$var wire 1 $ data [0] $end
$var wire 1 % ss [6] $end
$var wire 1 & ss [5] $end
$var wire 1 ' ss [4] $end
$var wire 1 ( ss [3] $end
$var wire 1 ) ss [2] $end
$var wire 1 * ss [1] $end
$var wire 1 + ss [0] $end

$scope module i1 $end
$var wire 1 , gnd $end
$var wire 1 - vcc $end
$var wire 1 . unknown $end
$var wire 1 / devoe $end
$var wire 1 0 devclrn $end
$var wire 1 1 devpor $end
$var wire 1 2 ww_devoe $end
$var wire 1 3 ww_devclrn $end
$var wire 1 4 ww_devpor $end
$var wire 1 5 ww_data [3] $end
$var wire 1 6 ww_data [2] $end
$var wire 1 7 ww_data [1] $end
$var wire 1 8 ww_data [0] $end
$var wire 1 9 ww_ss [6] $end
$var wire 1 : ww_ss [5] $end
$var wire 1 ; ww_ss [4] $end
$var wire 1 < ww_ss [3] $end
$var wire 1 = ww_ss [2] $end
$var wire 1 > ww_ss [1] $end
$var wire 1 ? ww_ss [0] $end
$var wire 1 @ \ss[0]~output_o\ $end
$var wire 1 A \ss[1]~output_o\ $end
$var wire 1 B \ss[2]~output_o\ $end
$var wire 1 C \ss[3]~output_o\ $end
$var wire 1 D \ss[4]~output_o\ $end
$var wire 1 E \ss[5]~output_o\ $end
$var wire 1 F \ss[6]~output_o\ $end
$var wire 1 G \data[2]~input_o\ $end
$var wire 1 H \data[3]~input_o\ $end
$var wire 1 I \data[0]~input_o\ $end
$var wire 1 J \data[1]~input_o\ $end
$var wire 1 K \ss~0_combout\ $end
$var wire 1 L \ss~1_combout\ $end
$var wire 1 M \Equal14~0_combout\ $end
$var wire 1 N \ss~2_combout\ $end
$var wire 1 O \ss~3_combout\ $end
$var wire 1 P \ss~4_combout\ $end
$var wire 1 Q \ss~5_combout\ $end
$upscope $end
$upscope $end
$enddefinitions $end
#0
$dumpvars
0,
1-
x.
1/
10
11
12
13
14
0@
0A
0B
0C
0D
0E
1F
0G
0H
0I
0J
0K
0L
0M
0N
0O
0P
1Q
0!
0"
0#
0$
05
06
07
08
19
0:
0;
0<
0=
0>
0?
1%
0&
0'
0(
0)
0*
0+
$end
#25000
1$
18
1I
1K
1N
1O
1P
1E
1D
1C
1@
1:
1;
1<
1?
1+
1(
1'
1&
#50000
0$
1#
08
17
1J
0I
0K
1M
0N
0O
0Q
0F
0D
0C
1B
0@
09
0;
0<
1=
0?
0+
1)
0(
0'
0%
#75000
1$
18
1I
0M
1O
1D
0B
1;
0=
0)
1'
#100000
0$
0#
1"
08
07
16
1G
0J
0I
1K
1N
0P
0E
1C
1@
0:
1<
1?
1+
1(
0&
#125000
1$
18
1I
0K
1L
0N
0C
1A
0@
0<
1>
0?
0+
1*
0(
#150000
0$
1#
08
17
1J
0I
0O
0D
0;
0'
#175000
1$
18
1I
0L
1N
1O
1P
1Q
1F
1E
1D
1C
0A
19
1:
1;
1<
0>
0*
1(
1'
1&
1%
#200000
0$
0#
0"
1!
08
07
06
15
1H
0G
0J
0I
0N
0O
0P
0Q
0F
0E
0D
0C
09
0:
0;
0<
0(
0'
0&
0%
#225000
1$
18
1I
1N
1O
1D
1C
1;
1<
1(
1'
#250000
0$
1#
08
17
1J
0I
0O
0D
0;
0'
#275000
1$
18
1I
0N
1P
1Q
1F
1E
0C
19
1:
0<
0(
1&
1%
#300000
0$
0#
1"
08
07
16
1G
0J
0I
1K
1O
0Q
0F
1D
1@
09
1;
1?
1+
1'
0%
#325000
1$
18
1I
0K
1L
0O
0P
1Q
1F
0E
0D
1A
0@
19
0:
0;
1>
0?
0+
1*
0'
0&
1%
#350000
0$
1#
08
17
1J
0I
0L
1O
1P
0Q
0F
1E
1D
0A
09
1:
1;
0>
0*
1'
1&
0%
#375000
1$
18
1I
1N
1C
1<
1(
#400000
0$
0#
0"
0!
08
07
06
05
0H
0G
0J
0I
0N
0O
0P
1Q
1F
0E
0D
0C
19
0:
0;
0<
0(
0'
0&
1%
#425000
1$
18
1I
1K
1N
1O
1P
1E
1D
1C
1@
1:
1;
1<
1?
1+
1(
1'
1&
#450000
0$
1#
08
17
1J
0I
0K
1M
0N
0O
0Q
0F
0D
0C
1B
0@
09
0;
0<
1=
0?
0+
1)
0(
0'
0%
#475000
1$
18
1I
0M
1O
1D
0B
1;
0=
0)
1'
#500000
0$
0#
1"
08
07
16
1G
0J
0I
1K
1N
0P
0E
1C
1@
0:
1<
1?
1+
1(
0&
#525000
1$
18
1I
0K
1L
0N
0C
1A
0@
0<
1>
0?
0+
1*
0(
#550000
0$
1#
08
17
1J
0I
0O
0D
0;
0'
#575000
1$
18
1I
0L
1N
1O
1P
1Q
1F
1E
1D
1C
0A
19
1:
1;
1<
0>
0*
1(
1'
1&
1%
#600000
0$
0#
0"
1!
08
07
06
15
1H
0G
0J
0I
0N
0O
0P
0Q
0F
0E
0D
0C
09
0:
0;
0<
0(
0'
0&
0%
#625000
1$
18
1I
1N
1O
1D
1C
1;
1<
1(
1'
#650000
0$
1#
08
17
1J
0I
0O
0D
0;
0'
#675000
1$
18
1I
0N
1P
1Q
1F
1E
0C
19
1:
0<
0(
1&
1%
#700000
0$
0#
1"
08
07
16
1G
0J
0I
1K
1O
0Q
0F
1D
1@
09
1;
1?
1+
1'
0%
#725000
1$
18
1I
0K
1L
0O
0P
1Q
1F
0E
0D
1A
0@
19
0:
0;
1>
0?
0+
1*
0'
0&
1%
#750000
0$
1#
08
17
1J
0I
0L
1O
1P
0Q
0F
1E
1D
0A
09
1:
1;
0>
0*
1'
1&
0%
#775000
1$
18
1I
1N
1C
1<
1(
#800000
0$
0#
0"
0!
08
07
06
05
0H
0G
0J
0I
0N
0O
0P
1Q
1F
0E
0D
0C
19
0:
0;
0<
0(
0'
0&
1%
#825000
1$
18
1I
1K
1N
1O
1P
1E
1D
1C
1@
1:
1;
1<
1?
1+
1(
1'
1&
#850000
0$
1#
08
17
1J
0I
0K
1M
0N
0O
0Q
0F
0D
0C
1B
0@
09
0;
0<
1=
0?
0+
1)
0(
0'
0%
#875000
1$
18
1I
0M
1O
1D
0B
1;
0=
0)
1'
#900000
0$
0#
1"
08
07
16
1G
0J
0I
1K
1N
0P
0E
1C
1@
0:
1<
1?
1+
1(
0&
#925000
1$
18
1I
0K
1L
0N
0C
1A
0@
0<
1>
0?
0+
1*
0(
#950000
0$
1#
08
17
1J
0I
0O
0D
0;
0'
#975000
1$
18
1I
0L
1N
1O
1P
1Q
1F
1E
1D
1C
0A
19
1:
1;
1<
0>
0*
1(
1'
1&
1%
