pratica04/simulation/qsim/atv04.msim.vcd
$comment
	File created using the following command:
		vcd file atv04.msim.vcd -direction
$end
$date
	Fri Aug 16 20:32:36 2024
$end
$version
	ModelSim Version 10.5b
$end
$timescale
	1ps
$end

$scope module sistema_vlg_vec_tst $end
$var reg 1 ! clk $end
$var reg 4 " inpA [3:0] $end
$var reg 4 # inpB [3:0] $end
$var reg 1 $ reset $end
$var wire 1 % nxStateLed [2] $end
$var wire 1 & nxStateLed [1] $end
$var wire 1 ' nxStateLed [0] $end
$var wire 1 ( prStateLed [2] $end
$var wire 1 ) prStateLed [1] $end
$var wire 1 * prStateLed [0] $end
$var wire 1 + solution [3] $end
$var wire 1 , solution [2] $end
$var wire 1 - solution [1] $end
$var wire 1 . solution [0] $end

$scope module i1 $end
$var wire 1 / gnd $end
$var wire 1 0 vcc $end
$var wire 1 1 unknown $end
$var tri1 1 2 devclrn $end
$var tri1 1 3 devpor $end
$var tri1 1 4 devoe $end
$var wire 1 5 solution[0]~output_o $end
$var wire 1 6 solution[1]~output_o $end
$var wire 1 7 solution[2]~output_o $end
$var wire 1 8 solution[3]~output_o $end
$var wire 1 9 prStateLed[0]~output_o $end
$var wire 1 : prStateLed[1]~output_o $end
$var wire 1 ; prStateLed[2]~output_o $end
$var wire 1 < nxStateLed[0]~output_o $end
$var wire 1 = nxStateLed[1]~output_o $end
$var wire 1 > nxStateLed[2]~output_o $end
$var wire 1 ? clk~input_o $end
$var wire 1 @ clk~inputclkctrl_outclk $end
$var wire 1 A inpB[1]~input_o $end
$var wire 1 B reset~input_o $end
$var wire 1 C mod01|counter[0]~2_combout $end
$var wire 1 D mod01|counter[1]~1_combout $end
$var wire 1 E mod01|counter[2]~0_combout $end
$var wire 1 F mod01|WideNor0~0_combout $end
$var wire 1 G mod01|dv~q $end
$var wire 1 H controle01|Selector2~0_combout $end
$var wire 1 I controle01|PrState.displayB~q $end
$var wire 1 J controle01|Selector3~0_combout $end
$var wire 1 K controle01|PrState.storeQ~q $end
$var wire 1 L controle01|Selector4~0_combout $end
$var wire 1 M controle01|PrState.storeR~feeder_combout $end
$var wire 1 N controle01|PrState.storeR~q $end
$var wire 1 O controle01|PrState.idle~0_combout $end
$var wire 1 P controle01|PrState.idle~q $end
$var wire 1 Q controle01|Selector1~0_combout $end
$var wire 1 R controle01|PrState.load~q $end
$var wire 1 S inpB[3]~input_o $end
$var wire 1 T inpB[2]~input_o $end
$var wire 1 U inpA[3]~input_o $end
$var wire 1 V op01|reg01|dout[3]~feeder_combout $end
$var wire 1 W inpB[0]~input_o $end
$var wire 1 X op01|alu01|Divisor01|s1|Add0~1 $end
$var wire 1 Y op01|alu01|Divisor01|s1|Add0~3 $end
$var wire 1 Z op01|alu01|Divisor01|s1|Add0~5 $end
$var wire 1 [ op01|alu01|Divisor01|s1|Add0~7_cout $end
$var wire 1 \ op01|alu01|Divisor01|s1|Add0~8_combout $end
$var wire 1 ] op01|alu01|Divisor01|s1|Add0~0_combout $end
$var wire 1 ^ op01|alu01|Divisor01|m1|out[0]~0_combout $end
$var wire 1 _ inpA[2]~input_o $end
$var wire 1 ` op01|alu01|Divisor01|s2|Add0~1 $end
$var wire 1 a op01|alu01|Divisor01|s2|Add0~2_combout $end
$var wire 1 b op01|alu01|Divisor01|s1|Add0~4_combout $end
$var wire 1 c op01|alu01|Divisor01|m1|out[2]~1_combout $end
$var wire 1 d op01|alu01|Divisor01|s1|Add0~2_combout $end
$var wire 1 e op01|alu01|Divisor01|m1|out[1]~2_combout $end
$var wire 1 f op01|alu01|Divisor01|s2|Add0~3 $end
$var wire 1 g op01|alu01|Divisor01|s2|Add0~5 $end
$var wire 1 h op01|alu01|Divisor01|s2|Add0~7_cout $end
$var wire 1 i op01|alu01|Divisor01|s2|Add0~8_combout $end
$var wire 1 j op01|alu01|Divisor01|m2|out[1]~2_combout $end
$var wire 1 k op01|alu01|Divisor01|s2|Add0~0_combout $end
$var wire 1 l op01|alu01|Divisor01|m2|out[0]~3_combout $end
$var wire 1 m inpA[1]~input_o $end
$var wire 1 n op01|alu01|Divisor01|s3|Add0~1 $end
$var wire 1 o op01|alu01|Divisor01|s3|Add0~3 $end
$var wire 1 p op01|alu01|Divisor01|s3|Add0~4_combout $end
$var wire 1 q op01|alu01|Divisor01|s2|Add0~4_combout $end
$var wire 1 r op01|alu01|Divisor01|m2|out[2]~4_combout $end
$var wire 1 s op01|alu01|Divisor01|s3|Add0~5 $end
$var wire 1 t op01|alu01|Divisor01|s3|Add0~7_cout $end
$var wire 1 u op01|alu01|Divisor01|s3|Add0~8_combout $end
$var wire 1 v op01|alu01|Divisor01|m3|out[2]~0_combout $end
$var wire 1 w op01|alu01|Divisor01|s3|Add0~2_combout $end
$var wire 1 x op01|alu01|Divisor01|m3|out[1]~1_combout $end
$var wire 1 y op01|alu01|Divisor01|s3|Add0~0_combout $end
$var wire 1 z op01|alu01|Divisor01|m3|out[0]~2_combout $end
$var wire 1 { inpA[0]~input_o $end
$var wire 1 | op01|reg01|dout[0]~feeder_combout $end
$var wire 1 } op01|alu01|Divisor01|s4|Add0~1 $end
$var wire 1 ~ op01|alu01|Divisor01|s4|Add0~3 $end
$var wire 1 !! op01|alu01|Divisor01|s4|Add0~5 $end
$var wire 1 "! op01|alu01|Divisor01|s4|Add0~7 $end
$var wire 1 #! op01|alu01|Divisor01|s4|Add0~8_combout $end
$var wire 1 $! op01|alu01|Divisor01|s4|Add0~0_combout $end
$var wire 1 %! op01|alu01|Divisor01|m4|out[0]~0_combout $end
$var wire 1 &! controle01|aluOp[1]~2_combout $end
$var wire 1 '! op01|alu01|Mux3~0_combout $end
$var wire 1 (! op01|alu01|Mux3~1_combout $end
$var wire 1 )! op01|alu01|Mux2~0_combout $end
$var wire 1 *! op01|alu01|Divisor01|s4|Add0~2_combout $end
$var wire 1 +! op01|alu01|Mux2~1_combout $end
$var wire 1 ,! op01|alu01|Mux2~2_combout $end
$var wire 1 -! op01|alu01|Mux2~3_combout $end
$var wire 1 .! op01|alu01|Mux2~4_combout $end
$var wire 1 /! op01|alu01|Mux1~0_combout $end
$var wire 1 0! op01|alu01|Divisor01|s4|Add0~4_combout $end
$var wire 1 1! op01|alu01|Mux1~1_combout $end
$var wire 1 2! op01|alu01|Mux1~2_combout $end
$var wire 1 3! op01|alu01|Divisor01|s4|Add0~6_combout $end
$var wire 1 4! op01|alu01|Mux0~0_combout $end
$var wire 1 5! op01|alu01|Mux0~1_combout $end
$var wire 1 6! op01|alu01|Mux0~2_combout $end
$var wire 1 7! op01|reg02|dout [3] $end
$var wire 1 8! op01|reg02|dout [2] $end
$var wire 1 9! op01|reg02|dout [1] $end
$var wire 1 :! op01|reg02|dout [0] $end
$var wire 1 ;! controle01|aluOp [1] $end
$var wire 1 <! controle01|aluOp [0] $end
$var wire 1 =! op01|reg01|dout [3] $end
$var wire 1 >! op01|reg01|dout [2] $end
$var wire 1 ?! op01|reg01|dout [1] $end
$var wire 1 @! op01|reg01|dout [0] $end
$var wire 1 A! mod01|counter [2] $end
$var wire 1 B! mod01|counter [1] $end
$var wire 1 C! mod01|counter [0] $end
$var wire 1 D! controle01|prStateLed [2] $end
$var wire 1 E! controle01|prStateLed [1] $end
$var wire 1 F! controle01|prStateLed [0] $end
$var wire 1 G! controle01|nxStateLed [2] $end
$var wire 1 H! controle01|nxStateLed [1] $end
$var wire 1 I! controle01|nxStateLed [0] $end
$upscope $end
$upscope $end
$enddefinitions $end
#0
$dumpvars
0!
b1101 "
b11 #
1$
x'
x&
x%
x*
x)
x(
x.
x-
x,
x+
0/
10
x1
12
13
14
x5
x6
x7
x8
x9
x:
x;
x<
x=
x>
0?
x@
1A
1B
xC
xD
xE
xF
0G
xH
0I
xJ
0K
xL
xM
0N
xO
0P
xQ
0R
0S
0T
1U
xV
1W
xX
xY
xZ
x[
x\
x]
x^
1_
x`
xa
xb
xc
xd
xe
xf
xg
xh
xi
xj
xk
xl
0m
xn
xo
xp
xq
xr
xs
xt
xu
xv
xw
xx
xy
xz
1{
x|
x}
x~
x!!
x"!
x#!
x$!
x%!
x&!
x'!
x(!
x)!
x*!
x+!
x,!
x-!
x.!
x/!
x0!
x1!
x2!
x3!
x4!
x5!
x6!
0:!
09!
08!
07!
x<!
z;!
0@!
0?!
0>!
0=!
0C!
0B!
0A!
xF!
xE!
zD!
xI!
xH!
zG!
$end
#173
0@
#490
0E
#525
0O
#526
0H
#642
0F
#655
0)!
#849
0J
#850
0L
#866
0H!
#870
0E!
#912
1+!
#976
0Q
#986
0<!
#1009
0$!
#1084
1X
#1086
1}
#1193
0k
#1195
0F!
#1198
0]
0y
#1211
1&!
#1243
0M
#1268
1n
#1270
1`
#1334
0o
#1336
0f
#1373
0I!
0/!
#1400
1s
#1402
1g
#1443
0,!
#1466
0t
#1468
0h
#1589
0~
0Y
#1610
0d
#1655
1!!
1Z
#1713
0^
#1721
0"!
0[
#1783
04!
#1823
0%!
#1872
0z
#1978
0u
#1980
0i
#2066
0l
#2072
01!
#2101
0b
#2130
0'!
#2140
0e
#2154
0-!
#2233
0\
0#!
#2474
05!
#2574
0a
#2613
0c
#2648
0(!
#2731
0*!
#2835
0q
#2928
0w
#3009
0.!
#3113
02!
#3269
0j
#3314
06!
#3451
1|
#3477
1V
#3532
0;
0(
#3535
0r
#3631
0x
#3973
0p
#4375
0C
#4377
0D
#4385
0=
0&
#4408
09
0*
#4434
0:
0)
#4486
0v
#4607
0>
0%
#4707
00!
#4874
0<
0'
#5000
1!
#5340
03!
#5720
1?
#5907
1@
#6369
06
0-
#6407
05
0.
#6883
07
0,
#7038
08
0+
#10000
0!
#10826
0?
#10999
0@
#15000
1!
#15720
1?
#15907
1@
#20000
0!
#20826
0?
#20999
0@
#25000
1!
#25720
1?
#25907
1@
#30000
0!
#30826
0?
#30999
0@
#35000
1!
#35720
1?
#35907
1@
#40000
0$
0!
#40756
0B
#40826
0?
#40999
0@
#45000
1!
#45321
1C
#45323
1D
#45720
1?
#45907
1@
#48218
1C!
1B!
#48647
0C
#50000
0!
#50826
0?
#50999
0@
#55000
1!
#55720
1?
#55907
1@
#58218
0C!
#58627
1C
#58724
0D
#58994
1E
#60000
0!
#60826
0?
#60999
0@
#65000
1!
#65720
1?
#65907
1@
#68218
1C!
0B!
1A!
#68647
0C
#70000
0!
#70826
0?
#70999
0@
#75000
1!
#75720
1?
#75907
1@
#78218
0C!
#78627
1C
#78740
1D
#80000
0!
#80826
0?
#80999
0@
#85000
1!
#85720
1?
#85907
1@
#88218
1C!
1B!
#88647
0C
#90000
0!
#90826
0?
#90999
0@
#95000
1!
#95720
1?
#95907
1@
#98218
0C!
#98627
1C
#98724
0D
#98996
0E
#100000
0!
#100826
0?
#100999
0@
#105000
1!
#105720
1?
#105907
1@
#108218
1C!
0B!
0A!
#108647
0C
#109160
1F
#110000
0!
#110826
0?
#110999
0@
#115000
1!
#115720
1?
#115907
1@
#118217
1G
#118218
0C!
#118627
1C
#118674
1O
#118740
1D
#118860
0F
#119125
1Q
#119317
1I!
#120000
0!
#120826
0?
#120999
0@
#122864
1<
1'
#125000
1!
#125720
1?
#125907
1@
#128217
0G
1P
1R
#128218
1C!
1B!
#128635
0Q
#128647
0C
#129174
1F!
#129186
1Q
#130000
0!
#130826
0?
#130999
0@
#132425
19
1*
#135000
1!
#135720
1?
#135907
1@
#138218
0C!
#138627
1C
#138647
19!
1=!
1:!
1>!
1@!
#138724
0D
#138994
1E
#139373
14!
#139582
1'!
#139742
0n
1a
#139776
1y
1/!
#139840
1f
#139876
1o
#139906
0g
#139942
0s
#139972
1h
#140000
0!
#140008
1t
#140062
15!
#140074
1(!
#140271
1d
1*!
#140376
1q
#140378
1~
1Y
#140396
1j
#140407
11!
#140412
1p
#140429
1z
#140444
0!!
0Z
#140508
1i
#140510
1"!
1[
#140544
1u
#140808
1e
#140826
0?
#140884
16!
#140901
1v
#140914
1b
10!
#140980
13!
#140999
0@
#141024
0j
#141028
1r
#141046
1\
1#!
#141061
0p
#141145
1s
#141211
0t
#141212
0~
#141256
0z
#141273
0*!
#141278
1!!
#141344
0"!
#141447
12!
#141450
1l
#141468
0q
#141552
1g
#141618
0h
#141666
0v
#141675
0s
#141705
1p
#141718
1^
#141723
0u
#141724
00!
#141764
0e
#141856
0#!
#141912
0r
#141938
1%!
#142098
1*!
#142130
0i
#142153
1v
#142184
1~
#142250
0!!
#142254
1j
#142279
1w
#142316
1"!
#142406
0g
#142436
1q
#142472
1h
#142473
1z
#142499
0f
#142561
0a
#142565
1g
#142631
0h
#142687
1t
#142720
10!
#142764
0%!
#142852
1#!
#142919
0p
#142934
0"!
1x
#142995
03!
#143003
1s
#143011
0q
#143043
0l
#143069
0t
#143088
1r
#143256
0~
0j
#143317
0*!
#143322
1!!
#143432
0v
#143446
0#!
#143711
0r
#143744
1%!
#143904
15
1.
#143905
0w
#143907
0s
#143937
1p
#144354
0%!
#144426
1v
#144486
1t
#144608
0x
#144694
18
1+
#145000
1!
#145022
1u
#145251
13!
#145276
17
1,
#145404
0v
#145684
00!
#145720
1?
#145734
0z
#145907
1@
#146258
03!
#146576
1*!
#146662
1~
#146728
0!!
#146794
1"!
#147198
10!
#147264
13!
#147330
1#!
#148218
1C!
0B!
1A!
#148222
1%!
#148647
0C
#150000
0!
#150826
0?
#150999
0@
#155000
1!
#155720
1?
#155907
1@
#158218
0C!
#158627
1C
#158740
1D
#160000
0!
#160826
0?
#160999
0@
#165000
1!
#165720
1?
#165907
1@
#168218
1C!
1B!
#168647
0C
#170000
0!
#170826
0?
#170999
0@
#175000
1!
#175720
1?
#175907
1@
#178218
0C!
#178627
1C
#178724
0D
#178996
0E
#180000
0!
#180826
0?
#180999
0@
#185000
1!
#185720
1?
#185907
1@
#188218
1C!
0B!
0A!
#188647
0C
#189160
1F
#190000
0!
#190826
0?
#190999
0@
#195000
1!
#195720
1?
#195907
1@
#198217
1G
#198218
0C!
#198627
1C
#198675
1H
#198740
1D
#198860
0F
#199132
0Q
#199296
1H!
#199328
0I!
#200000
0!
#200826
0?
#200999
0@
#202829
0<
0'
#202859
1=
1&
#205000
1!
#205720
1?
#205907
1@
#208217
0G
1I
0R
#208218
1C!
1B!
#208647
0C
#209170
1E!
#209175
1<!
#209192
0F!
#209759
0'!
#209760
06!
#209764
02!
#209859
1.!
#210000
0!
#210826
0?
#210999
0@
#212405
09
0*
#212777
1:
1)
#213275
16
1-
#213484
08
0+
#213534
07
0,
#215000
1!
#215720
1?
#215907
1@
#218218
0C!
#218627
1C
#218724
0D
#218994
1E
#220000
0!
#220826
0?
#220999
0@
#225000
1!
#225720
1?
#225907
1@
#228218
1C!
0B!
1A!
#228647
0C
#230000
0!
#230826
0?
#230999
0@
#235000
1!
#235720
1?
#235907
1@
#238218
0C!
#238627
1C
#238740
1D
#240000
0!
#240826
0?
#240999
0@
#245000
1!
#245720
1?
#245907
1@
#248218
1C!
1B!
#248647
0C
#250000
0!
#250826
0?
#250999
0@
#255000
1!
#255720
1?
#255907
1@
#258218
0C!
#258627
1C
#258724
0D
#258996
0E
#260000
0!
#260826
0?
#260999
0@
#265000
1!
#265720
1?
#265907
1@
#268218
1C!
0B!
0A!
#268647
0C
#269160
1F
#270000
0!
#270826
0?
#270999
0@
#275000
1!
#275720
1?
#275907
1@
#278217
1G
#278218
0C!
#278627
1C
#278659
0H
#278740
1D
#278860
0F
#278951
1J
#279491
1I!
#280000
0!
#280826
0?
#280999
0@
#283038
1<
1'
#285000
1!
#285720
1?
#285907
1@
#288217
0G
0I
1K
#288218
1C!
1B!
#288626
1)!
#288647
0C
#289203
0<!
#289371
1F!
#289384
04!
#289396
0&!
#289708
05!
#289817
1'!
#289818
16!
#289823
12!
#289933
0.!
#290000
0!
#290325
0'!
#290548
06!
#290826
0?
#290843
0(!
#290999
0@
#292622
19
1*
#293293
06
0-
#293652
17
1,
#294602
05
0.
#295000
1!
#295720
1?
#295907
1@
#298218
0C!
#298627
1C
#298724
0D
#298994
1E
#300000
0!
#300826
0?
#300999
0@
#305000
1!
#305720
1?
#305907
1@
#308218
1C!
0B!
1A!
#308647
0C
#310000
0!
#310826
0?
#310999
0@
#315000
1!
#315720
1?
#315907
1@
#318218
0C!
#318627
1C
#318740
1D
#320000
0!
#320826
0?
#320999
0@
#325000
1!
#325720
1?
#325907
1@
#328218
1C!
1B!
#328647
0C
#330000
0!
#330826
0?
#330999
0@
#335000
1!
#335720
1?
#335907
1@
#338218
0C!
#338627
1C
#338724
0D
#338996
0E
#340000
0!
#340826
0?
#340999
0@
#345000
1!
#345720
1?
#345907
1@
#348218
1C!
0B!
0A!
#348647
0C
#349160
1F
#350000
0!
#350826
0?
#350999
0@
#355000
1!
#355720
1?
#355907
1@
#358217
1G
#358218
0C!
#358627
1C
#358673
1L
#358740
1D
#358860
0F
#358974
0J
#359058
1M
#359323
0H!
#359498
0I!
#360000
0!
#360826
0?
#360999
0@
#362513
1>
1%
#362842
0=
0&
#362999
0<
0'
#365000
1!
#365720
1?
#365907
1@
#368217
0G
0K
1N
#368218
1C!
1B!
#368646
0)!
#368647
0C
#368834
1)!
#368977
0+!
#369087
0E!
#369180
1<!
#369412
0F!
#369536
1,!
#369766
01!
#369780
1'!
#369868
14!
#370000
0!
#370069
1(!
#370807
02!
#370826
0?
#370999
0@
#371766
1;
1(
#372625
09
0*
#372651
0:
0)
#373899
15
1.
#374577
07
0,
#375000
1!
#375720
1?
#375907
1@
#378218
0C!
#378627
1C
#378724
0D
#378994
1E
#380000
0!
#380826
0?
#380999
0@
#385000
1!
#385720
1?
#385907
1@
#388218
1C!
0B!
1A!
#388647
0C
#390000
0!
#390826
0?
#390999
0@
#395000
1!
#395720
1?
#395907
1@
#398218
0C!
#398627
1C
#398740
1D
#400000
0!
#400826
0?
#400999
0@
#405000
1!
#405720
1?
#405907
1@
#408218
1C!
1B!
#408647
0C
#410000
0!
#410826
0?
#410999
0@
#415000
1!
#415720
1?
#415907
1@
#418218
0C!
#418627
1C
#418724
0D
#418996
0E
#420000
0!
#420826
0?
#420999
0@
#425000
1!
#425720
1?
#425907
1@
#428218
1C!
0B!
0A!
#428647
0C
#429160
1F
#430000
0!
#430826
0?
#430999
0@
#435000
1!
#435720
1?
#435907
1@
#438217
1G
#438218
0C!
#438627
1C
#438657
0L
#438658
0O
#438740
1D
#438860
0F
#439050
0M
#440000
0!
#440826
0?
#440999
0@
#442414
0>
0%
#445000
1!
#445720
1?
#445907
1@
#448217
0G
0N
0P
#448218
1C!
1B!
#448647
0C
#448724
1Q
#448872
0)!
#449059
1&!
#449068
1+!
#449193
0Q
#449241
0<!
#449590
0/!
#449599
0,!
#449949
15!
#450000
0!
#450178
1/!
#450771
16!
#450809
11!
#450826
0?
#450999
0@
#451749
0;
0(
#451849
12!
#454581
18
1+
#455000
1!
#455678
17
1,
#455720
1?
#455907
1@
#458218
0C!
#458627
1C
#458724
0D
#458994
1E
#460000
0!
#460826
0?
#460999
0@
#465000
1!
#465720
1?
#465907
1@
#468218
1C!
0B!
1A!
#468647
0C
#470000
0!
#470826
0?
#470999
0@
#475000
1!
#475720
1?
#475907
1@
#478218
0C!
#478627
1C
#478740
1D
#480000
0!
#480826
0?
#480999
0@
#485000
1!
#485720
1?
#485907
1@
#488218
1C!
1B!
#488647
0C
#490000
0!
#490826
0?
#490999
0@
#495000
1!
#495720
1?
#495907
1@
#498218
0C!
#498627
1C
#498724
0D
#498996
0E
#500000
0!
#500826
0?
#500999
0@
#505000
1!
#505720
1?
#505907
1@
#508218
1C!
0B!
0A!
#508647
0C
#509160
1F
#510000
0!
#510826
0?
#510999
0@
#515000
1!
#515720
1?
#515907
1@
#518217
1G
#518218
0C!
#518627
1C
#518674
1O
#518740
1D
#518860
0F
#519125
1Q
#519317
1I!
#520000
0!
#520826
0?
#520999
0@
#522864
1<
1'
#525000
1!
#525720
1?
#525907
1@
#528217
0G
1P
1R
#528218
1C!
1B!
#528635
0Q
#528647
0C
#529174
1F!
#529186
1Q
#530000
0!
#530826
0?
#530999
0@
#532425
19
1*
#535000
1!
#535720
1?
#535907
1@
#538218
0C!
#538627
1C
#538724
0D
#538994
1E
#540000
0!
#540826
0?
#540999
0@
#545000
1!
#545720
1?
#545907
1@
#548218
1C!
0B!
1A!
#548647
0C
#550000
0!
#550826
0?
#550999
0@
#555000
1!
#555720
1?
#555907
1@
#558218
0C!
#558627
1C
#558740
1D
#560000
0!
#560826
0?
#560999
0@
#565000
1!
#565720
1?
#565907
1@
#568218
1C!
1B!
#568647
0C
#570000
0!
#570826
0?
#570999
0@
#575000
1!
#575720
1?
#575907
1@
#578218
0C!
#578627
1C
#578724
0D
#578996
0E
#580000
0!
#580826
0?
#580999
0@
#585000
1!
#585720
1?
#585907
1@
#588218
1C!
0B!
0A!
#588647
0C
#589160
1F
#590000
0!
#590826
0?
#590999
0@
#595000
1!
#595720
1?
#595907
1@
#598217
1G
#598218
0C!
#598627
1C
#598675
1H
#598740
1D
#598860
0F
#599132
0Q
#599296
1H!
#599328
0I!
#600000
0!
#600826
0?
#600999
0@
#602829
0<
0'
#602859
1=
1&
#605000
1!
#605720
1?
#605907
1@
#608217
0G
1I
0R
#608218
1C!
1B!
#608647
0C
#609170
1E!
#609175
1<!
#609192
0F!
#609759
0'!
#609760
06!
#609764
02!
#609859
1.!
#610000
0!
#610826
0?
#610999
0@
#612405
09
0*
#612777
1:
1)
#613275
16
1-
#613484
08
0+
#613534
07
0,
#615000
1!
#615720
1?
#615907
1@
#618218
0C!
#618627
1C
#618724
0D
#618994
1E
#620000
0!
#620826
0?
#620999
0@
#625000
1!
#625720
1?
#625907
1@
#628218
1C!
0B!
1A!
#628647
0C
#630000
0!
#630826
0?
#630999
0@
#635000
1!
#635720
1?
#635907
1@
#638218
0C!
#638627
1C
#638740
1D
#640000
0!
#640826
0?
#640999
0@
#645000
1!
#645720
1?
#645907
1@
#648218
1C!
1B!
#648647
0C
#650000
0!
#650826
0?
#650999
0@
#655000
1!
#655720
1?
#655907
1@
#658218
0C!
#658627
1C
#658724
0D
#658996
0E
#660000
0!
#660826
0?
#660999
0@
#665000
1!
#665720
1?
#665907
1@
#668218
1C!
0B!
0A!
#668647
0C
#669160
1F
#670000
0!
#670826
0?
#670999
0@
#675000
1!
#675720
1?
#675907
1@
#678217
1G
#678218
0C!
#678627
1C
#678659
0H
#678740
1D
#678860
0F
#678951
1J
#679491
1I!
#680000
0!
#680826
0?
#680999
0@
#683038
1<
1'
#685000
1!
#685720
1?
#685907
1@
#688217
0G
0I
1K
#688218
1C!
1B!
#688626
1)!
#688647
0C
#689203
0<!
#689371
1F!
#689384
04!
#689396
0&!
#689708
05!
#689817
1'!
#689818
16!
#689823
12!
#689933
0.!
#690000
0!
#690325
0'!
#690548
06!
#690826
0?
#690843
0(!
#690999
0@
#692622
19
1*
#693293
06
0-
#693652
17
1,
#694602
05
0.
#695000
1!
#695720
1?
#695907
1@
#698218
0C!
#698627
1C
#698724
0D
#698994
1E
#700000
0!
#700826
0?
#700999
0@
#705000
1!
#705720
1?
#705907
1@
#708218
1C!
0B!
1A!
#708647
0C
#710000
0!
#710826
0?
#710999
0@
#715000
1!
#715720
1?
#715907
1@
#718218
0C!
#718627
1C
#718740
1D
#720000
0!
#720826
0?
#720999
0@
#725000
1!
#725720
1?
#725907
1@
#728218
1C!
1B!
#728647
0C
#730000
0!
#730826
0?
#730999
0@
#735000
1!
#735720
1?
#735907
1@
#738218
0C!
#738627
1C
#738724
0D
#738996
0E
#740000
0!
#740826
0?
#740999
0@
#745000
1!
#745720
1?
#745907
1@
#748218
1C!
0B!
0A!
#748647
0C
#749160
1F
#750000
0!
#750826
0?
#750999
0@
#755000
1!
#755720
1?
#755907
1@
#758217
1G
#758218
0C!
#758627
1C
#758673
1L
#758740
1D
#758860
0F
#758974
0J
#759058
1M
#759323
0H!
#759498
0I!
#760000
0!
#760826
0?
#760999
0@
#762513
1>
1%
#762842
0=
0&
#762999
0<
0'
#765000
1!
#765720
1?
#765907
1@
#768217
0G
0K
1N
#768218
1C!
1B!
#768646
0)!
#768647
0C
#768834
1)!
#768977
0+!
#769087
0E!
#769180
1<!
#769412
0F!
#769536
1,!
#769766
01!
#769780
1'!
#769868
14!
#770000
0!
#770069
1(!
#770807
02!
#770826
0?
#770999
0@
#771766
1;
1(
#772625
09
0*
#772651
0:
0)
#773899
15
1.
#774577
07
0,
#775000
1!
#775720
1?
#775907
1@
#778218
0C!
#778627
1C
#778724
0D
#778994
1E
#780000
0!
#780826
0?
#780999
0@
#785000
1!
#785720
1?
#785907
1@
#788218
1C!
0B!
1A!
#788647
0C
#790000
0!
#790826
0?
#790999
0@
#795000
1!
#795720
1?
#795907
1@
#798218
0C!
#798627
1C
#798740
1D
#800000
0!
#800826
0?
#800999
0@
#805000
1!
#805720
1?
#805907
1@
#808218
1C!
1B!
#808647
0C
#810000
0!
#810826
0?
#810999
0@
#815000
1!
#815720
1?
#815907
1@
#818218
0C!
#818627
1C
#818724
0D
#818996
0E
#820000
0!
#820826
0?
#820999
0@
#825000
1!
#825720
1?
#825907
1@
#828218
1C!
0B!
0A!
#828647
0C
#829160
1F
#830000
0!
#830826
0?
#830999
0@
#835000
1!
#835720
1?
#835907
1@
#838217
1G
#838218
0C!
#838627
1C
#838657
0L
#838658
0O
#838740
1D
#838860
0F
#839050
0M
#840000
0!
#840826
0?
#840999
0@
#842414
0>
0%
#845000
1!
#845720
1?
#845907
1@
#848217
0G
0N
0P
#848218
1C!
1B!
#848647
0C
#848724
1Q
#848872
0)!
#849059
1&!
#849068
1+!
#849193
0Q
#849241
0<!
#849590
0/!
#849599
0,!
#849949
15!
#850000
0!
#850178
1/!
#850771
16!
#850809
11!
#850826
0?
#850999
0@
#851749
0;
0(
#851849
12!
#854581
18
1+
#855000
1!
#855678
17
1,
#855720
1?
#855907
1@
#858218
0C!
#858627
1C
#858724
0D
#858994
1E
#860000
0!
#860826
0?
#860999
0@
#865000
1!
#865720
1?
#865907
1@
#868218
1C!
0B!
1A!
#868647
0C
#870000
0!
#870826
0?
#870999
0@
#875000
1!
#875720
1?
#875907
1@
#878218
0C!
#878627
1C
#878740
1D
#880000
0!
#880826
0?
#880999
0@
#885000
1!
#885720
1?
#885907
1@
#888218
1C!
1B!
#888647
0C
#890000
0!
#890826
0?
#890999
0@
#895000
1!
#895720
1?
#895907
1@
#898218
0C!
#898627
1C
#898724
0D
#898996
0E
#900000
0!
#900826
0?
#900999
0@
#905000
1!
#905720
1?
#905907
1@
#908218
1C!
0B!
0A!
#908647
0C
#909160
1F
#910000
0!
#910826
0?
#910999
0@
#915000
1!
#915720
1?
#915907
1@
#918217
1G
#918218
0C!
#918627
1C
#918674
1O
#918740
1D
#918860
0F
#919125
1Q
#919317
1I!
#920000
0!
#920826
0?
#920999
0@
#922864
1<
1'
#925000
1!
#925720
1?
#925907
1@
#928217
0G
1P
1R
#928218
1C!
1B!
#928635
0Q
#928647
0C
#929174
1F!
#929186
1Q
#930000
0!
#930826
0?
#930999
0@
#932425
19
1*
#935000
1!
#935720
1?
#935907
1@
#938218
0C!
#938627
1C
#938724
0D
#938994
1E
#940000
0!
#940826
0?
#940999
0@
#945000
1!
#945720
1?
#945907
1@
#948218
1C!
0B!
1A!
#948647
0C
#950000
0!
#950826
0?
#950999
0@
#955000
1!
#955720
1?
#955907
1@
#958218
0C!
#958627
1C
#958740
1D
#960000
0!
#960826
0?
#960999
0@
#965000
1!
#965720
1?
#965907
1@
#968218
1C!
1B!
#968647
0C
#970000
0!
#970826
0?
#970999
0@
#975000
1!
#975720
1?
#975907
1@
#978218
0C!
#978627
1C
#978724
0D
#978996
0E
#980000
0!
#980826
0?
#980999
0@
#985000
1!
#985720
1?
#985907
1@
#988218
1C!
0B!
0A!
#988647
0C
#989160
1F
#990000
0!
#990826
0?
#990999
0@
#995000
1!
#995720
1?
#995907
1@
#998217
1G
#998218
0C!
#998627
1C
#998675
1H
#998740
1D
#998860
0F
#999132
0Q
#999296
1H!
#999328
0I!
