pratica04/simulation/qsim/atv04.msim.vcd
$comment
	File created using the following command:
		vcd file atv04.msim.vcd -direction
$end
$date
	Fri Jun 21 13:47:35 2024
$end
$version
	ModelSim Version 10.5b
$end
$timescale
	1ps
$end

$scope module sistema_vlg_vec_tst $end
$var reg 1 ! clk $end
$var reg 4 " inpA [3:0] $end
$var reg 4 # inpB [3:0] $end
$var reg 1 $ reset $end
$var wire 1 % nxStateLed [2] $end
$var wire 1 & nxStateLed [1] $end
$var wire 1 ' nxStateLed [0] $end
$var wire 1 ( prStateLed [2] $end
$var wire 1 ) prStateLed [1] $end
$var wire 1 * prStateLed [0] $end
$var wire 1 + solution [3] $end
$var wire 1 , solution [2] $end
$var wire 1 - solution [1] $end
$var wire 1 . solution [0] $end

$scope module i1 $end
$var wire 1 / gnd $end
$var wire 1 0 vcc $end
$var wire 1 1 unknown $end
$var tri1 1 2 devclrn $end
$var tri1 1 3 devpor $end
$var tri1 1 4 devoe $end
$var wire 1 5 solution[0]~output_o $end
$var wire 1 6 solution[1]~output_o $end
$var wire 1 7 solution[2]~output_o $end
$var wire 1 8 solution[3]~output_o $end
$var wire 1 9 prStateLed[0]~output_o $end
$var wire 1 : prStateLed[1]~output_o $end
$var wire 1 ; prStateLed[2]~output_o $end
$var wire 1 < nxStateLed[0]~output_o $end
$var wire 1 = nxStateLed[1]~output_o $end
$var wire 1 > nxStateLed[2]~output_o $end
$var wire 1 ? clk~input_o $end
$var wire 1 @ clk~inputclkctrl_outclk $end
$var wire 1 A inpB[3]~input_o $end
$var wire 1 B op01|reg02|dout[3]~feeder_combout $end
$var wire 1 C reset~input_o $end
$var wire 1 D reset~inputclkctrl_outclk $end
$var wire 1 E inpA[3]~input_o $end
$var wire 1 F mod01|counter[0]~2_combout $end
$var wire 1 G mod01|counter[1]~1_combout $end
$var wire 1 H mod01|counter[2]~0_combout $end
$var wire 1 I mod01|WideNor0~0_combout $end
$var wire 1 J mod01|dv~q $end
$var wire 1 K controle01|Selector2~0_combout $end
$var wire 1 L controle01|PrState.displayB~q $end
$var wire 1 M controle01|Selector3~0_combout $end
$var wire 1 N controle01|PrState.storeQ~feeder_combout $end
$var wire 1 O controle01|PrState.storeQ~q $end
$var wire 1 P controle01|Selector4~0_combout $end
$var wire 1 Q controle01|PrState.storeR~q $end
$var wire 1 R controle01|PrState.idle~0_combout $end
$var wire 1 S controle01|PrState.idle~q $end
$var wire 1 T controle01|Selector1~0_combout $end
$var wire 1 U controle01|PrState.load~q $end
$var wire 1 V inpB[2]~input_o $end
$var wire 1 W op01|alu01|Div0|auto_generated|divider|divider|selnose[0]~2_combout $end
$var wire 1 X inpB[1]~input_o $end
$var wire 1 Y inpB[0]~input_o $end
$var wire 1 Z op01|alu01|Mux0~0_combout $end
$var wire 1 [ inpA[2]~input_o $end
$var wire 1 \ op01|alu01|Div0|auto_generated|divider|divider|selnose[5]~0_combout $end
$var wire 1 ] op01|alu01|Div0|auto_generated|divider|divider|selnose[5]~1_combout $end
$var wire 1 ^ inpA[1]~input_o $end
$var wire 1 _ op01|alu01|Div0|auto_generated|divider|divider|add_sub_2_result_int[0]~1 $end
$var wire 1 ` op01|alu01|Div0|auto_generated|divider|divider|add_sub_2_result_int[1]~3 $end
$var wire 1 a op01|alu01|Div0|auto_generated|divider|divider|add_sub_2_result_int[2]~5 $end
$var wire 1 b op01|alu01|Div0|auto_generated|divider|divider|add_sub_2_result_int[3]~6_combout $end
$var wire 1 c op01|alu01|Mux2~0_combout $end
$var wire 1 d op01|alu01|Mod0|auto_generated|divider|divider|add_sub_2_result_int[0]~0_combout $end
$var wire 1 e op01|alu01|Mod0|auto_generated|divider|divider|StageOut[8]~5_combout $end
$var wire 1 f inpA[0]~input_o $end
$var wire 1 g op01|mux01|s[0]~3_combout $end
$var wire 1 h op01|alu01|Mod0|auto_generated|divider|divider|add_sub_3_result_int[0]~1 $end
$var wire 1 i op01|alu01|Mod0|auto_generated|divider|divider|add_sub_3_result_int[1]~2_combout $end
$var wire 1 j op01|alu01|Mod0|auto_generated|divider|divider|add_sub_3_result_int[1]~3 $end
$var wire 1 k op01|alu01|Mod0|auto_generated|divider|divider|add_sub_3_result_int[2]~5 $end
$var wire 1 l op01|alu01|Mod0|auto_generated|divider|divider|add_sub_3_result_int[3]~7 $end
$var wire 1 m op01|alu01|Mod0|auto_generated|divider|divider|add_sub_3_result_int[4]~8_combout $end
$var wire 1 n op01|alu01|Mod0|auto_generated|divider|divider|StageOut[13]~7_combout $end
$var wire 1 o op01|alu01|Mux2~1_combout $end
$var wire 1 p op01|mux01|s[1]~2_combout $end
$var wire 1 q op01|alu01|Mod0|auto_generated|divider|divider|add_sub_2_result_int[0]~1 $end
$var wire 1 r op01|alu01|Mod0|auto_generated|divider|divider|add_sub_2_result_int[1]~2_combout $end
$var wire 1 s op01|alu01|Mod0|auto_generated|divider|divider|StageOut[9]~4_combout $end
$var wire 1 t op01|alu01|Mod0|auto_generated|divider|divider|add_sub_3_result_int[2]~4_combout $end
$var wire 1 u op01|alu01|Mod0|auto_generated|divider|divider|StageOut[14]~8_combout $end
$var wire 1 v op01|alu01|Mux1~0_combout $end
$var wire 1 w op01|alu01|Mux1~1_combout $end
$var wire 1 x op01|mux01|s[2]~1_combout $end
$var wire 1 y op01|alu01|Mod0|auto_generated|divider|divider|StageOut[4]~2_combout $end
$var wire 1 z op01|alu01|Mod0|auto_generated|divider|divider|add_sub_2_result_int[1]~3 $end
$var wire 1 { op01|alu01|Mod0|auto_generated|divider|divider|add_sub_2_result_int[2]~5 $end
$var wire 1 | op01|alu01|Mod0|auto_generated|divider|divider|add_sub_2_result_int[3]~6_combout $end
$var wire 1 } op01|alu01|Mod0|auto_generated|divider|divider|add_sub_2_result_int[2]~4_combout $end
$var wire 1 ~ op01|alu01|Mod0|auto_generated|divider|divider|StageOut[10]~3_combout $end
$var wire 1 !! op01|alu01|Mod0|auto_generated|divider|divider|add_sub_3_result_int[3]~6_combout $end
$var wire 1 "! op01|alu01|Mod0|auto_generated|divider|divider|StageOut[15]~9_combout $end
$var wire 1 #! op01|alu01|Mux0~1_combout $end
$var wire 1 $! op01|mux01|s[3]~0_combout $end
$var wire 1 %! op01|alu01|Mod0|auto_generated|divider|divider|StageOut[5]~0_combout $end
$var wire 1 &! op01|alu01|Mod0|auto_generated|divider|divider|StageOut[5]~1_combout $end
$var wire 1 '! op01|alu01|Div0|auto_generated|divider|divider|add_sub_2_result_int[2]~4_combout $end
$var wire 1 (! op01|alu01|Div0|auto_generated|divider|divider|StageOut[10]~0_combout $end
$var wire 1 )! op01|alu01|Div0|auto_generated|divider|divider|add_sub_2_result_int[1]~2_combout $end
$var wire 1 *! op01|alu01|Div0|auto_generated|divider|divider|StageOut[9]~1_combout $end
$var wire 1 +! op01|alu01|Div0|auto_generated|divider|divider|add_sub_2_result_int[0]~0_combout $end
$var wire 1 ,! op01|alu01|Div0|auto_generated|divider|divider|StageOut[8]~2_combout $end
$var wire 1 -! op01|alu01|Div0|auto_generated|divider|divider|add_sub_3_result_int[0]~1_cout $end
$var wire 1 .! op01|alu01|Div0|auto_generated|divider|divider|add_sub_3_result_int[1]~3_cout $end
$var wire 1 /! op01|alu01|Div0|auto_generated|divider|divider|add_sub_3_result_int[2]~5_cout $end
$var wire 1 0! op01|alu01|Div0|auto_generated|divider|divider|add_sub_3_result_int[3]~7_cout $end
$var wire 1 1! op01|alu01|Div0|auto_generated|divider|divider|add_sub_3_result_int[4]~8_combout $end
$var wire 1 2! op01|alu01|Mux3~0_combout $end
$var wire 1 3! op01|alu01|Mod0|auto_generated|divider|divider|add_sub_3_result_int[0]~0_combout $end
$var wire 1 4! op01|alu01|Mod0|auto_generated|divider|divider|StageOut[12]~6_combout $end
$var wire 1 5! op01|alu01|Mux3~1_combout $end
$var wire 1 6! op01|reg01|dout [3] $end
$var wire 1 7! op01|reg01|dout [2] $end
$var wire 1 8! op01|reg01|dout [1] $end
$var wire 1 9! op01|reg01|dout [0] $end
$var wire 1 :! op01|reg02|dout [3] $end
$var wire 1 ;! op01|reg02|dout [2] $end
$var wire 1 <! op01|reg02|dout [1] $end
$var wire 1 =! op01|reg02|dout [0] $end
$var wire 1 >! controle01|aluOp [1] $end
$var wire 1 ?! controle01|aluOp [0] $end
$var wire 1 @! controle01|prStateLed [2] $end
$var wire 1 A! controle01|prStateLed [1] $end
$var wire 1 B! controle01|prStateLed [0] $end
$var wire 1 C! op01|alu01|Div0|auto_generated|divider|divider|selnose [19] $end
$var wire 1 D! op01|alu01|Div0|auto_generated|divider|divider|selnose [18] $end
$var wire 1 E! op01|alu01|Div0|auto_generated|divider|divider|selnose [17] $end
$var wire 1 F! op01|alu01|Div0|auto_generated|divider|divider|selnose [16] $end
$var wire 1 G! op01|alu01|Div0|auto_generated|divider|divider|selnose [15] $end
$var wire 1 H! op01|alu01|Div0|auto_generated|divider|divider|selnose [14] $end
$var wire 1 I! op01|alu01|Div0|auto_generated|divider|divider|selnose [13] $end
$var wire 1 J! op01|alu01|Div0|auto_generated|divider|divider|selnose [12] $end
$var wire 1 K! op01|alu01|Div0|auto_generated|divider|divider|selnose [11] $end
$var wire 1 L! op01|alu01|Div0|auto_generated|divider|divider|selnose [10] $end
$var wire 1 M! op01|alu01|Div0|auto_generated|divider|divider|selnose [9] $end
$var wire 1 N! op01|alu01|Div0|auto_generated|divider|divider|selnose [8] $end
$var wire 1 O! op01|alu01|Div0|auto_generated|divider|divider|selnose [7] $end
$var wire 1 P! op01|alu01|Div0|auto_generated|divider|divider|selnose [6] $end
$var wire 1 Q! op01|alu01|Div0|auto_generated|divider|divider|selnose [5] $end
$var wire 1 R! op01|alu01|Div0|auto_generated|divider|divider|selnose [4] $end
$var wire 1 S! op01|alu01|Div0|auto_generated|divider|divider|selnose [3] $end
$var wire 1 T! op01|alu01|Div0|auto_generated|divider|divider|selnose [2] $end
$var wire 1 U! op01|alu01|Div0|auto_generated|divider|divider|selnose [1] $end
$var wire 1 V! op01|alu01|Div0|auto_generated|divider|divider|selnose [0] $end
$var wire 1 W! controle01|nxStateLed [2] $end
$var wire 1 X! controle01|nxStateLed [1] $end
$var wire 1 Y! controle01|nxStateLed [0] $end
$var wire 1 Z! mod01|counter [2] $end
$var wire 1 [! mod01|counter [1] $end
$var wire 1 \! mod01|counter [0] $end
$upscope $end
$upscope $end
$enddefinitions $end
#0
$dumpvars
0!
b1 "
b1 #
1$
0'
0&
0%
0*
0)
0(
0.
0-
0,
0+
0/
10
x1
12
13
14
05
06
07
08
09
0:
0;
0<
0=
0>
0?
0@
0A
0B
1C
1D
0E
0F
0G
0H
0I
0J
0K
0L
0M
0N
0O
0P
0Q
0R
0S
0T
0U
0V
1W
0X
1Y
0Z
0[
0\
0]
0^
1_
0`
1a
0b
0c
0d
0e
1f
0g
1h
0i
0j
1k
0l
0m
0n
0o
0p
1q
0r
0s
0t
0u
0v
0w
0x
0y
0z
1{
0|
0}
0~
0!!
0"!
0#!
0$!
1%!
0&!
0'!
0(!
0)!
0*!
0+!
0,!
1-!
0.!
1/!
00!
01!
02!
03!
04!
05!
09!
08!
07!
06!
0=!
0<!
0;!
0:!
0?!
0>!
0B!
0A!
z@!
0V!
zU!
zT!
zS!
zR!
zQ!
zP!
zO!
zN!
zM!
0L!
zK!
zJ!
zI!
zH!
zG!
zF!
zE!
zD!
zC!
0Y!
0X!
zW!
0\!
0[!
0Z!
$end
#5000
1!
1?
1@
#10000
0$
0!
0C
0?
0D
0@
1G
1F
#15000
1!
1?
1@
1=!
1[!
1\!
0-!
0%!
0h
13!
0q
1d
0_
1+!
1]
1V!
0F
1.!
1j
1i
14!
1z
1r
1e
1`
1)!
1,!
0/!
0k
1t
1n
0{
1}
1s
0j
0i
0a
1'!
1*!
0.!
10!
1l
1!!
1u
1|
1~
1k
0n
1b
1(!
1/!
11!
1m
1"!
0~
0s
0e
0l
0,!
0*!
0(!
1L!
00!
04!
0"!
0u
0!!
0t
1j
1i
0m
1.!
01!
0k
1t
1n
14!
0/!
1l
1!!
1u
10!
1m
1"!
11!
04!
0"!
0u
0n
#20000
0!
0?
0@
#25000
1!
1?
1@
0\!
1H
0G
1F
#30000
0!
0?
0@
#35000
1!
1?
1@
1Z!
0[!
1\!
0F
#40000
0!
0?
0@
#45000
1!
1?
1@
0\!
1G
1F
#50000
0!
0?
0@
#55000
1!
1?
1@
1[!
1\!
0F
#60000
0!
0?
0@
#65000
1!
1?
1@
0\!
0H
0G
1F
#70000
0!
0?
0@
#75000
1!
1?
1@
0Z!
0[!
1\!
1I
0F
#80000
0!
0?
0@
#85000
1!
1?
1@
1J
0\!
1Y!
1T
1R
0I
1G
1F
1<
1'
#90000
0!
0?
0@
1S
1U
0Y!
0T
1X!
1B!
1g
1K
19
1=
0<
0'
1&
1*
#95000
1!
1?
1@
19!
0J
1[!
1\!
14!
12!
1-!
1h
03!
0X!
1Y!
1T
0K
0F
1<
0=
0.!
0j
0i
0&
1'
15!
15
1/!
1k
0t
1.
00!
0l
0!!
01!
0m
04!
#100000
0!
0?
0@
#105000
1!
1?
1@
0\!
1H
0G
1F
#110000
0!
0?
0@
#115000
1!
1?
1@
1Z!
0[!
1\!
0F
#120000
0!
0?
0@
#125000
b11 "
b11 #
b10 #
1!
0Y
1X
1^
1?
1@
1p
0=!
1<!
0\!
13!
1q
0d
1_
0+!
0]
1.!
0r
1j
1i
0)!
1\
1G
1F
14!
1r
1)!
0/!
0k
1t
1n
1]
10!
1l
1!!
1u
11!
1m
1"!
0"!
0u
0n
#130000
0!
0?
0@
#135000
1!
1?
1@
18!
1[!
1\!
1,!
1e
1d
1c
1+!
0F
0.!
1n
0j
0i
1o
16
1/!
1k
0t
1-
00!
0l
0!!
01!
0m
0n
#140000
0!
0?
0@
#145000
1!
1?
1@
0\!
0H
0G
1F
#150000
0!
0?
0@
#155000
1!
1?
1@
0Z!
0[!
1\!
1I
0F
#160000
0!
0?
0@
#165000
1!
1?
1@
1J
0\!
1X!
0Y!
0T
1K
0I
1G
1F
0<
1=
1&
0'
#170000
0!
0?
0@
1L
0U
1?!
1M
1A!
0K
0B!
09
1:
02!
0c
1)
0*
0o
1Y!
1N
1<
06
0-
1'
05!
1o
0p
16
05
0.
1-
0g
1p
#175000
1!
1?
1@
09!
0J
1[!
1\!
03!
0M
1K
0F
04!
0Y!
0N
0<
0'
#180000
0!
0?
0@
#185000
1!
1?
1@
0\!
1H
0G
1F
#190000
0!
0?
0@
#195000
1!
1?
1@
1Z!
0[!
1\!
0F
#200000
0!
0?
0@
#205000
1!
1?
1@
0\!
1G
1F
#210000
0!
0?
0@
#215000
1!
1?
1@
1[!
1\!
0F
#220000
0!
0?
0@
#225000
1!
1?
1@
0\!
0H
0G
1F
#230000
0!
0?
0@
#235000
1!
1?
1@
0Z!
0[!
1\!
1I
0F
#240000
0!
0?
0@
#245000
1!
1?
1@
1J
0\!
1M
0K
0I
1G
1F
1Y!
1N
1<
1'
#250000
b111 "
b101 "
b11 #
0!
1Y
0^
1[
0?
0@
0L
1O
0?!
0M
1>!
0X!
1B!
1P
1>
19
0=
0&
1*
1%
0o
0Y!
0N
15!
15
0<
06
0-
0'
1.
0p
1g
#255000
1!
1?
1@
08!
19!
1=!
0J
1[!
1\!
0,!
0e
0q
0_
1%!
1M
1X!
0P
0F
0>
1=
1.!
1j
1i
0r
0)!
1&
0%
1Y!
1N
1<
0/!
0k
1t
1n
1'
10!
1l
1!!
1u
11!
1m
1"!
14!
0"!
0u
0n
05!
05
0.
0g
#260000
0!
0?
0@
#265000
1!
1?
1@
09!
0\!
04!
0-!
0h
13!
1H
0G
1F
0i
#270000
0!
0?
0@
#275000
1!
1?
1@
1Z!
0[!
1\!
0F
#280000
0!
0?
0@
#285000
1!
1?
1@
0\!
1G
1F
#290000
0!
0?
0@
#295000
1!
1?
1@
1[!
1\!
0F
#300000
0!
0?
0@
#305000
1!
1?
1@
0\!
0H
0G
1F
#310000
0!
0?
0@
#315000
1!
1?
1@
0Z!
0[!
1\!
1I
0F
#320000
0!
0?
0@
#325000
1!
1?
1@
1J
0\!
0M
0X!
1P
0I
1G
1F
1>
0=
0&
1%
0Y!
0N
0<
0'
#330000
0!
0?
0@
0O
1Q
1;
1?!
1(
0A!
0B!
0P
0R
0>
09
0:
12!
1v
1c
1Z
0)
0*
0%
1o
16
1-
0o
1p
06
0-
0p
#335000
1!
1?
1@
0J
1[!
1\!
1R
1P
0F
1>
1%
#340000
0!
0?
0@
#345000
1!
1?
1@
0\!
1H
0G
1F
#350000
0!
0?
0@
#355000
1!
1?
1@
1Z!
0[!
1\!
0F
#360000
0!
0?
0@
#365000
1!
1?
1@
0\!
1G
1F
#370000
0!
0?
0@
#375000
b111 #
b101 #
b111 "
b100 #
1!
1^
0Y
0X
1V
1?
1@
0=!
0<!
1;!
1[!
1\!
1-!
1h
03!
1q
0d
1_
0+!
0V!
1r
1i
1)!
0}
0t
0'!
0W
0F
0.!
0j
0i
0z
0r
0`
0)!
1V!
1t
1}
1'!
#380000
0!
0?
0@
#385000
1!
1?
1@
0\!
0H
0G
1F
#390000
0!
0?
0@
#395000
1!
1?
1@
0Z!
0[!
1\!
1I
0F
#400000
0!
0?
0@
#405000
1!
1?
1@
1J
0\!
0R
0P
0I
1G
1F
0>
0%
#410000
0!
0?
0@
0S
0Q
0;
0>!
0?!
0(
1Y!
1T
1R
1<
02!
0v
0c
0Z
1'
15!
1w
1#!
1o
16
18
17
15
1.
1,
1+
1-
05!
0w
0o
0#!
1g
1x
1$!
1p
08
06
07
05
0.
0,
0-
0+
0g
0x
0p
0$!
#415000
1!
1?
1@
0J
1[!
1\!
0Y!
0T
0R
0F
0<
0'
#420000
0!
0?
0@
#425000
1!
1?
1@
0\!
1H
0G
1F
#430000
0!
0?
0@
#435000
1!
1?
1@
1Z!
0[!
1\!
0F
#440000
0!
0?
0@
#445000
1!
1?
1@
0\!
1G
1F
#450000
0!
0?
0@
#455000
1!
1?
1@
1[!
1\!
0F
#460000
0!
0?
0@
#465000
1!
1?
1@
0\!
0H
0G
1F
#470000
0!
0?
0@
#475000
1!
1?
1@
0Z!
0[!
1\!
1I
0F
#480000
0!
0?
0@
#485000
1!
1?
1@
1J
0\!
1Y!
1T
1R
0I
1G
1F
1<
1'
#490000
0!
0?
0@
1S
1U
0Y!
0T
1X!
1B!
1x
1p
1g
1K
19
1=
0<
0'
1&
1*
#495000
1!
1?
1@
17!
18!
19!
0J
1[!
1\!
1y
1v
1,!
1e
1d
1c
1+!
14!
12!
13!
0X!
1Y!
1T
0K
0F
1<
0=
1*!
1s
1r
1)!
1n
1i
0&
1'
1w
1o
15!
15
16
17
1/!
1u
1k
0t
1,
1-
1.
00!
0l
0!!
01!
0m
0u
#500000
b1111 "
b1011 "
b1001 "
b101 #
0!
1Y
0^
0[
1E
0?
0@
0p
0x
1$!
#505000
1!
1?
1@
16!
07!
08!
1=!
0\!
1&!
1Z
0%!
0y
0v
0,!
0e
0q
0c
0_
03!
1H
0G
1F
1(!
1~
1{
0}
1a
0'!
0*!
0s
1z
1`
0i
04!
1#!
0w
0o
06
07
18
1!!
0|
0b
0/!
0k
1t
0{
1}
0a
1'!
0n
1+
0,
0-
1"!
1s
1e
1,!
1*!
0L!
0!!
1u
1|
1b
1k
0t
1i
1/!
0"!
0s
0e
0,!
0*!
1L!
1!!
0u
1n
0k
1t
0i
0/!
1"!
0!!
1u
0n
0"!
#510000
0!
0?
0@
#515000
1!
1?
1@
1Z!
0[!
1\!
0F
#520000
0!
0?
0@
#525000
1!
1?
1@
0\!
1G
1F
#530000
0!
0?
0@
#535000
1!
1?
1@
1[!
1\!
0F
#540000
0!
0?
0@
#545000
1!
1?
1@
0\!
0H
0G
1F
#550000
0!
0?
0@
#555000
1!
1?
1@
0Z!
0[!
1\!
1I
0F
#560000
0!
0?
0@
#565000
1!
1?
1@
1J
0\!
1X!
0Y!
0T
1K
0I
1G
1F
0<
1=
1&
0'
#570000
0!
0?
0@
1L
0U
1?!
1M
1A!
0K
0B!
09
1:
1v
0Z
1)
0*
0#!
1Y!
1N
1<
08
0+
1'
1w
0$!
17
1,
1x
#575000
1!
1?
1@
06!
17!
0J
1[!
1\!
0&!
1y
0M
1K
0F
0(!
0~
0}
0'!
1*!
1s
0z
0r
0`
0)!
0Y!
0N
0<
10!
1l
1!!
1/!
1k
0t
1}
1'!
0'
11!
1m
1"!
00!
0l
0!!
0u
14!
0"!
1u
01!
0m
04!
0u
#580000
0!
0?
0@
#585000
1!
1?
1@
0\!
1H
0G
1F
#590000
0!
0?
0@
#595000
1!
1?
1@
1Z!
0[!
1\!
0F
#600000
0!
0?
0@
#605000
1!
1?
1@
0\!
1G
1F
#610000
0!
0?
0@
#615000
1!
1?
1@
1[!
1\!
0F
#620000
0!
0?
0@
#625000
b111 #
b1011 "
b110 #
1!
1^
0Y
1X
1?
1@
0=!
1<!
0\!
02!
13!
1q
0d
1_
0+!
1.!
1z
1r
1j
1i
1`
1)!
1o
0H
0G
1F
16
14!
0z
0r
0`
0)!
0/!
0}
0k
1t
1n
0'!
1-
05!
1p
05
1}
1'!
10!
1l
1!!
1u
0.
0g
11!
1m
1"!
0"!
0n
#630000
0!
0?
0@
#635000
1!
1?
1@
18!
09!
0Z!
0[!
1\!
1,!
1e
1d
1+!
04!
03!
1I
0F
0.!
1n
0j
0i
1/!
1k
0t
00!
0l
0!!
01!
0m
0u
0n
#640000
0!
0?
0@
#645000
1!
1?
1@
1J
0\!
1M
0K
0I
1G
1F
1Y!
1N
1<
1'
#650000
0!
0?
0@
0L
1O
0?!
0M
1>!
0X!
1B!
1P
1>
19
0=
0v
0&
1*
1%
0o
0Y!
0N
15!
0w
07
15
0<
06
0-
0'
1.
0,
0p
1g
0x
#655000
1!
1?
1@
07!
08!
19!
0J
1[!
1\!
0y
0,!
0e
0d
0+!
13!
1M
1X!
0P
0F
0>
1=
0*!
0s
1z
1r
1`
1)!
1.!
1j
1i
14!
1&
0%
1Y!
1N
1<
0/!
0k
0}
0'!
1n
1'
10!
1l
1!!
11!
1m
1"!
0"!
0n
05!
05
0.
0g
#660000
0!
0?
0@
#665000
1!
1?
1@
09!
0\!
04!
03!
1H
0G
1F
#670000
0!
0?
0@
#675000
1!
1?
1@
1Z!
0[!
1\!
0F
#680000
0!
0?
0@
#685000
1!
1?
1@
0\!
1G
1F
#690000
0!
0?
0@
#695000
1!
1?
1@
1[!
1\!
0F
#700000
0!
0?
0@
#705000
1!
1?
1@
0\!
0H
0G
1F
#710000
0!
0?
0@
#715000
1!
1?
1@
0Z!
0[!
1\!
1I
0F
#720000
0!
0?
0@
#725000
1!
1?
1@
1J
0\!
0M
0X!
1P
0I
1G
1F
1>
0=
0&
1%
0Y!
0N
0<
0'
#730000
0!
0?
0@
0O
1Q
1;
1?!
1(
0A!
0B!
0P
0R
0>
09
0:
12!
1v
1c
1Z
0)
0*
0%
1o
16
1-
0o
1p
06
0-
0p
#735000
1!
1?
1@
0J
1[!
1\!
1R
1P
0F
1>
1%
#740000
0!
0?
0@
#745000
1!
1?
1@
0\!
1H
0G
1F
#750000
b1111 "
b1101 "
b111 #
0!
1Y
0^
1[
0?
0@
#755000
1!
1?
1@
1=!
1Z!
0[!
1\!
0-!
1%!
0h
13!
0q
1d
0_
1+!
0F
0i
0r
0)!
#760000
0!
0?
0@
#765000
1!
1?
1@
0\!
1G
1F
#770000
0!
0?
0@
#775000
1!
1?
1@
1[!
1\!
0F
#780000
0!
0?
0@
#785000
1!
1?
1@
0\!
0H
0G
1F
#790000
0!
0?
0@
#795000
1!
1?
1@
0Z!
0[!
1\!
1I
0F
#800000
0!
0?
0@
#805000
1!
1?
1@
1J
0\!
0R
0P
0I
1G
1F
0>
0%
#810000
0!
0?
0@
0S
0Q
0;
0>!
0?!
0(
1Y!
1T
1R
1<
02!
0v
0c
0Z
1'
15!
1w
1#!
1o
16
18
17
15
1.
1,
1+
1-
05!
0w
0o
0#!
1g
1x
1$!
1p
08
06
07
05
0.
0,
0-
0+
0g
0x
0p
0$!
#815000
1!
1?
1@
0J
1[!
1\!
0Y!
0T
0R
0F
0<
0'
#820000
0!
0?
0@
#825000
1!
1?
1@
0\!
1H
0G
1F
#830000
0!
0?
0@
#835000
1!
1?
1@
1Z!
0[!
1\!
0F
#840000
0!
0?
0@
#845000
1!
1?
1@
0\!
1G
1F
#850000
0!
0?
0@
#855000
1!
1?
1@
1[!
1\!
0F
#860000
0!
0?
0@
#865000
1!
1?
1@
0\!
0H
0G
1F
#870000
0!
0?
0@
#875000
b1111 #
b1011 #
b1001 #
b1111 "
b1000 #
1!
1^
0Y
0X
0V
1A
1?
1@
1B
0=!
0<!
0;!
0Z!
0[!
1\!
1-!
1h
03!
1q
0d
1_
0+!
1r
1i
1)!
0\
1}
1t
1'!
1W
1I
0F
0.!
0j
0i
0z
0r
0`
0)!
0]
0V!
1/!
1k
0t
1{
0}
1a
0'!
00!
0l
0!!
0|
0b
01!
0m
0L!
#880000
0!
0?
0@
#885000
1!
1?
1@
1J
0\!
1:!
10!
1l
1!!
1L!
1\
0W
1Y!
1T
1R
0I
1G
1F
1<
11!
1m
1"!
1]
1V!
1'
0"!
#890000
0!
0?
0@
1S
1U
0Y!
0T
1X!
1B!
1$!
1x
1p
1g
1K
19
1=
0<
0'
1&
1*
#895000
1!
1?
1@
16!
17!
18!
19!
0J
1[!
1\!
1&!
1Z
1y
1v
1,!
1e
1d
1c
1+!
14!
12!
13!
0X!
1Y!
1T
0K
0F
1<
0=
1(!
1~
1}
1'!
1*!
1s
1r
1)!
1n
1i
0&
1'
1#!
1w
1o
15!
15
16
17
18
00!
1"!
0l
0!!
1u
1t
1+
1,
1-
1.
01!
0m
0"!
#900000
0!
0?
0@
#905000
1!
1?
1@
0\!
1H
0G
1F
#910000
0!
0?
0@
#915000
1!
1?
1@
1Z!
0[!
1\!
0F
#920000
0!
0?
0@
#925000
1!
1?
1@
0\!
1G
1F
#930000
0!
0?
0@
#935000
1!
1?
1@
1[!
1\!
0F
#940000
0!
0?
0@
#945000
1!
1?
1@
0\!
0H
0G
1F
#950000
0!
0?
0@
#955000
1!
1?
1@
0Z!
0[!
1\!
1I
0F
#960000
0!
0?
0@
#965000
1!
1?
1@
1J
0\!
1X!
0Y!
0T
1K
0I
1G
1F
0<
1=
1&
0'
#970000
0!
0?
0@
1L
0U
1?!
1M
1A!
0K
0B!
09
1:
02!
0v
0c
0Z
1)
0*
0#!
1Y!
1N
1<
08
0+
1'
05!
0w
0o
1#!
0$!
18
06
07
05
0.
0,
0-
1+
0g
0x
0p
1$!
#975000
1!
1?
1@
07!
08!
09!
0J
1[!
1\!
0y
0,!
0e
0d
0+!
03!
0M
1K
0F
0*!
0s
0r
0)!
0i
04!
0Y!
0N
0<
0t
0n
0'
0u
#980000
0!
0?
0@
#985000
1!
1?
1@
0\!
1H
0G
1F
#990000
0!
0?
0@
#995000
1!
1?
1@
1Z!
0[!
1\!
0F
