pratica04/simulation/qsim/atv04.msim.vcd
$comment
	File created using the following command:
		vcd file atv04.msim.vcd -direction
$end
$date
	Wed Jul 31 17:03:48 2024
$end
$version
	ModelSim Version 10.5b
$end
$timescale
	1ps
$end

$scope module sistema_vlg_vec_tst $end
$var reg 1 ! clk $end
$var reg 4 " inpA [3:0] $end
$var reg 4 # inpB [3:0] $end
$var reg 1 $ reset $end
$var wire 1 % nxStateLed [2] $end
$var wire 1 & nxStateLed [1] $end
$var wire 1 ' nxStateLed [0] $end
$var wire 1 ( prStateLed [2] $end
$var wire 1 ) prStateLed [1] $end
$var wire 1 * prStateLed [0] $end
$var wire 1 + solution [3] $end
$var wire 1 , solution [2] $end
$var wire 1 - solution [1] $end
$var wire 1 . solution [0] $end

$scope module i1 $end
$var wire 1 / gnd $end
$var wire 1 0 vcc $end
$var wire 1 1 unknown $end
$var tri1 1 2 devclrn $end
$var tri1 1 3 devpor $end
$var tri1 1 4 devoe $end
$var wire 1 5 solution[0]~output_o $end
$var wire 1 6 solution[1]~output_o $end
$var wire 1 7 solution[2]~output_o $end
$var wire 1 8 solution[3]~output_o $end
$var wire 1 9 prStateLed[0]~output_o $end
$var wire 1 : prStateLed[1]~output_o $end
$var wire 1 ; prStateLed[2]~output_o $end
$var wire 1 < nxStateLed[0]~output_o $end
$var wire 1 = nxStateLed[1]~output_o $end
$var wire 1 > nxStateLed[2]~output_o $end
$var wire 1 ? clk~input_o $end
$var wire 1 @ clk~inputclkctrl_outclk $end
$var wire 1 A inpA[0]~input_o $end
$var wire 1 B reset~input_o $end
$var wire 1 C reset~inputclkctrl_outclk $end
$var wire 1 D mod01|counter[0]~2_combout $end
$var wire 1 E mod01|counter[1]~1_combout $end
$var wire 1 F mod01|counter[2]~0_combout $end
$var wire 1 G mod01|WideNor0~0_combout $end
$var wire 1 H mod01|dv~q $end
$var wire 1 I controle01|Selector2~0_combout $end
$var wire 1 J controle01|PrState.displayB~q $end
$var wire 1 K controle01|Selector3~0_combout $end
$var wire 1 L controle01|PrState.storeQ~q $end
$var wire 1 M controle01|Selector4~0_combout $end
$var wire 1 N controle01|PrState.storeR~q $end
$var wire 1 O controle01|PrState.idle~0_combout $end
$var wire 1 P controle01|PrState.idle~q $end
$var wire 1 Q controle01|Selector1~0_combout $end
$var wire 1 R controle01|PrState.load~q $end
$var wire 1 S inpA[3]~input_o $end
$var wire 1 T inpB[3]~input_o $end
$var wire 1 U op01|reg02|dout[3]~feeder_combout $end
$var wire 1 V inpB[2]~input_o $end
$var wire 1 W inpB[1]~input_o $end
$var wire 1 X inpB[0]~input_o $end
$var wire 1 Y op01|reg02|dout[0]~feeder_combout $end
$var wire 1 Z op01|alu01|Divisor01|s1|Add0~1 $end
$var wire 1 [ op01|alu01|Divisor01|s1|Add0~3 $end
$var wire 1 \ op01|alu01|Divisor01|s1|Add0~5 $end
$var wire 1 ] op01|alu01|Divisor01|s1|Add0~7_cout $end
$var wire 1 ^ op01|alu01|Divisor01|s1|Add0~8_combout $end
$var wire 1 _ op01|alu01|Divisor01|s1|Add0~0_combout $end
$var wire 1 ` op01|alu01|Divisor01|m1|out[0]~0_combout $end
$var wire 1 a inpA[2]~input_o $end
$var wire 1 b op01|alu01|Divisor01|s2|Add0~1 $end
$var wire 1 c op01|alu01|Divisor01|s2|Add0~2_combout $end
$var wire 1 d op01|alu01|Divisor01|s1|Add0~4_combout $end
$var wire 1 e op01|alu01|Divisor01|m1|out[2]~1_combout $end
$var wire 1 f op01|alu01|Divisor01|s1|Add0~2_combout $end
$var wire 1 g op01|alu01|Divisor01|m1|out[1]~2_combout $end
$var wire 1 h op01|alu01|Divisor01|s2|Add0~3 $end
$var wire 1 i op01|alu01|Divisor01|s2|Add0~5 $end
$var wire 1 j op01|alu01|Divisor01|s2|Add0~7_cout $end
$var wire 1 k op01|alu01|Divisor01|s2|Add0~8_combout $end
$var wire 1 l op01|alu01|Divisor01|m2|out[1]~2_combout $end
$var wire 1 m op01|alu01|Divisor01|s2|Add0~0_combout $end
$var wire 1 n op01|alu01|Divisor01|m2|out[0]~3_combout $end
$var wire 1 o inpA[1]~input_o $end
$var wire 1 p op01|alu01|Divisor01|s3|Add0~1 $end
$var wire 1 q op01|alu01|Divisor01|s3|Add0~3 $end
$var wire 1 r op01|alu01|Divisor01|s3|Add0~4_combout $end
$var wire 1 s op01|alu01|Divisor01|s2|Add0~4_combout $end
$var wire 1 t op01|alu01|Divisor01|m2|out[2]~4_combout $end
$var wire 1 u op01|alu01|Divisor01|s3|Add0~5 $end
$var wire 1 v op01|alu01|Divisor01|s3|Add0~7_cout $end
$var wire 1 w op01|alu01|Divisor01|s3|Add0~8_combout $end
$var wire 1 x op01|alu01|Divisor01|m3|out[2]~0_combout $end
$var wire 1 y op01|alu01|Divisor01|s3|Add0~2_combout $end
$var wire 1 z op01|alu01|Divisor01|m3|out[1]~1_combout $end
$var wire 1 { op01|alu01|Divisor01|s3|Add0~0_combout $end
$var wire 1 | op01|alu01|Divisor01|m3|out[0]~2_combout $end
$var wire 1 } op01|alu01|Divisor01|s4|Add0~1 $end
$var wire 1 ~ op01|alu01|Divisor01|s4|Add0~3 $end
$var wire 1 !! op01|alu01|Divisor01|s4|Add0~5 $end
$var wire 1 "! op01|alu01|Divisor01|s4|Add0~7 $end
$var wire 1 #! op01|alu01|Divisor01|s4|Add0~8_combout $end
$var wire 1 $! op01|alu01|Divisor01|s4|Add0~0_combout $end
$var wire 1 %! op01|alu01|Divisor01|m4|out[0]~0_combout $end
$var wire 1 &! controle01|aluOp[1]~2_combout $end
$var wire 1 '! op01|alu01|Mux3~0_combout $end
$var wire 1 (! op01|alu01|Mux3~1_combout $end
$var wire 1 )! op01|alu01|Mux2~0_combout $end
$var wire 1 *! op01|alu01|Divisor01|s4|Add0~2_combout $end
$var wire 1 +! op01|alu01|Mux2~1_combout $end
$var wire 1 ,! op01|alu01|Mux2~2_combout $end
$var wire 1 -! op01|alu01|Mux2~3_combout $end
$var wire 1 .! op01|alu01|Mux2~4_combout $end
$var wire 1 /! op01|alu01|Mux1~0_combout $end
$var wire 1 0! op01|alu01|Divisor01|s4|Add0~4_combout $end
$var wire 1 1! op01|alu01|Mux1~1_combout $end
$var wire 1 2! op01|alu01|Mux1~2_combout $end
$var wire 1 3! op01|alu01|Divisor01|s4|Add0~6_combout $end
$var wire 1 4! op01|alu01|Mux0~0_combout $end
$var wire 1 5! op01|alu01|Mux0~1_combout $end
$var wire 1 6! op01|alu01|Mux0~2_combout $end
$var wire 1 7! op01|reg02|dout [3] $end
$var wire 1 8! op01|reg02|dout [2] $end
$var wire 1 9! op01|reg02|dout [1] $end
$var wire 1 :! op01|reg02|dout [0] $end
$var wire 1 ;! controle01|aluOp [1] $end
$var wire 1 <! controle01|aluOp [0] $end
$var wire 1 =! op01|reg01|dout [3] $end
$var wire 1 >! op01|reg01|dout [2] $end
$var wire 1 ?! op01|reg01|dout [1] $end
$var wire 1 @! op01|reg01|dout [0] $end
$var wire 1 A! mod01|counter [2] $end
$var wire 1 B! mod01|counter [1] $end
$var wire 1 C! mod01|counter [0] $end
$var wire 1 D! controle01|prStateLed [2] $end
$var wire 1 E! controle01|prStateLed [1] $end
$var wire 1 F! controle01|prStateLed [0] $end
$var wire 1 G! controle01|nxStateLed [2] $end
$var wire 1 H! controle01|nxStateLed [1] $end
$var wire 1 I! controle01|nxStateLed [0] $end
$upscope $end
$upscope $end
$enddefinitions $end
#0
$dumpvars
0!
b10 "
b10 #
1$
0'
0&
0%
0*
0)
0(
0.
0-
0,
0+
0/
10
x1
12
13
14
05
06
07
08
09
0:
0;
0<
0=
0>
0?
0@
0A
1B
1C
0D
0E
0F
0G
0H
0I
0J
0K
0L
0M
0N
0O
0P
0Q
0R
0S
0T
0U
0V
1W
0X
0Y
1Z
0[
1\
0]
0^
0_
0`
0a
1b
0c
0d
0e
0f
0g
0h
1i
0j
0k
0l
0m
0n
1o
1p
0q
0r
0s
0t
1u
0v
0w
0x
0y
0z
0{
0|
1}
0~
1!!
0"!
0#!
0$!
0%!
1&!
0'!
0(!
0)!
0*!
1+!
0,!
0-!
0.!
0/!
00!
01!
02!
03!
04!
05!
06!
0:!
09!
08!
07!
0<!
z;!
0@!
0?!
0>!
0=!
0C!
0B!
0A!
0F!
0E!
zD!
0I!
0H!
zG!
$end
#5000
1!
1?
1@
#10000
0$
0!
0B
0?
0C
0@
1E
1D
#15000
1!
1?
1@
1B!
1C!
0D
#20000
0!
0?
0@
#25000
1!
1?
1@
0C!
1F
0E
1D
#30000
0!
0?
0@
#35000
1!
1?
1@
1A!
0B!
1C!
0D
#40000
0!
0?
0@
#45000
1!
1?
1@
0C!
1E
1D
#50000
0!
0?
0@
#55000
1!
1?
1@
1B!
1C!
0D
#60000
0!
0?
0@
#65000
1!
1?
1@
0C!
0F
0E
1D
#70000
0!
0?
0@
#75000
1!
1?
1@
0A!
0B!
1C!
1G
0D
#80000
0!
0?
0@
#85000
1!
1?
1@
1H
0C!
1I!
1Q
1O
0G
1E
1D
1<
1'
#90000
0!
0?
0@
#95000
1!
1?
1@
1R
1P
0H
1B!
1C!
1F!
0D
19
1*
#100000
0!
0?
0@
#105000
1!
1?
1@
1?!
19!
0C!
1,!
1{
1~
1*!
1q
1y
1h
1c
1[
1f
1F
0E
1D
1-!
1|
0!!
10!
0u
1r
1z
0i
1s
1l
0\
1d
1g
0~
0*!
1"!
13!
1v
1x
1!!
00!
1j
1t
1u
0r
1]
1e
1i
0s
1.!
16
10!
1#!
1w
0"!
1k
0v
0x
1^
0j
0t
1-
0z
1x
0#!
0l
0w
03!
0g
0e
0k
00!
13!
0x
0u
1r
1z
0i
1s
1l
03!
1v
1x
10!
1j
1t
1u
0r
1w
13!
1k
0v
0x
0z
1x
0t
0l
0w
03!
00!
13!
0x
0u
1r
1z
03!
1v
1x
10!
1w
13!
0z
0x
00!
03!
#110000
0!
0?
0@
#115000
1!
1?
1@
1A!
0B!
1C!
0D
#120000
0!
0?
0@
#125000
b11 "
1!
1A
1?
1@
1@!
0C!
1'!
1$!
1E
1D
1%!
1(!
15
1.
#130000
0!
0?
0@
#135000
1!
1?
1@
1B!
1C!
0D
#140000
0!
0?
0@
#145000
1!
1?
1@
0C!
0F
0E
1D
#150000
0!
0?
0@
#155000
1!
1?
1@
0A!
0B!
1C!
1G
0D
#160000
0!
0?
0@
#165000
1!
1?
1@
1H
0C!
1H!
0I!
0Q
1I
0G
1E
1D
0<
1=
1&
0'
#170000
0!
0?
0@
#175000
1!
1?
1@
0R
1J
0H
1B!
1C!
1<!
0F!
1E!
0D
1:
09
0'!
0*
1)
0(!
05
0.
#180000
0!
0?
0@
#185000
1!
1?
1@
0C!
1F
0E
1D
#190000
0!
0?
0@
#195000
1!
1?
1@
1A!
0B!
1C!
0D
#200000
0!
0?
0@
#205000
1!
1?
1@
0C!
1E
1D
#210000
0!
0?
0@
#215000
1!
1?
1@
1B!
1C!
0D
#220000
0!
0?
0@
#225000
1!
1?
1@
0C!
0F
0E
1D
#230000
0!
0?
0@
#235000
1!
1?
1@
0A!
0B!
1C!
1G
0D
#240000
0!
0?
0@
#245000
1!
1?
1@
1H
0C!
1K
0I
0G
1E
1D
1I!
1<
1'
#250000
b111 "
b101 "
b100 "
0!
0A
0o
1a
0?
0@
#255000
1!
1?
1@
1L
0J
0H
1B!
1C!
1)!
0&!
0<!
1F!
0D
19
0,!
1'!
1*
0-!
1(!
15
1.
0.!
06
0-
#260000
0!
0?
0@
#265000
1!
1?
1@
0C!
1F
0E
1D
#270000
0!
0?
0@
#275000
1!
1?
1@
1A!
0B!
1C!
0D
#280000
0!
0?
0@
#285000
1!
1?
1@
0C!
1E
1D
#290000
0!
0?
0@
#295000
1!
1?
1@
1B!
1C!
0D
#300000
0!
0?
0@
#305000
1!
1?
1@
0C!
0F
0E
1D
#310000
0!
0?
0@
#315000
1!
1?
1@
0A!
0B!
1C!
1G
0D
#320000
0!
0?
0@
#325000
1!
1?
1@
1H
0C!
0K
0H!
1M
0G
1E
1D
1>
0=
0&
1%
0I!
0<
0'
#330000
0!
0?
0@
#335000
1!
1?
1@
0L
0H
1B!
1C!
1N
1;
0+!
0)!
1<!
1(
0E!
0F!
0D
09
0:
0)
0*
#340000
0!
0?
0@
#345000
1!
1?
1@
0C!
1F
0E
1D
#350000
0!
0?
0@
#355000
1!
1?
1@
1A!
0B!
1C!
0D
#360000
0!
0?
0@
#365000
1!
1?
1@
0C!
1E
1D
#370000
0!
0?
0@
#375000
b101 "
1!
1A
1?
1@
1B!
1C!
0D
#380000
0!
0?
0@
#385000
1!
1?
1@
0C!
0F
0E
1D
#390000
0!
0?
0@
#395000
1!
1?
1@
0A!
0B!
1C!
1G
0D
#400000
0!
0?
0@
#405000
1!
1?
1@
1H
0C!
0O
0M
0G
1E
1D
0>
0%
#410000
0!
0?
0@
#415000
1!
1?
1@
0P
0H
1B!
1C!
0N
0;
1+!
1&!
0<!
0(
0D
1,!
1-!
1.!
16
1-
#420000
0!
0?
0@
#425000
1!
1?
1@
0C!
1F
0E
1D
#430000
0!
0?
0@
#435000
1!
1?
1@
1A!
0B!
1C!
0D
#440000
0!
0?
0@
#445000
1!
1?
1@
0C!
1E
1D
#450000
0!
0?
0@
#455000
1!
1?
1@
1B!
1C!
0D
#460000
0!
0?
0@
#465000
1!
1?
1@
0C!
0F
0E
1D
#470000
0!
0?
0@
#475000
1!
1?
1@
0A!
0B!
1C!
1G
0D
#480000
0!
0?
0@
#485000
1!
1?
1@
1H
0C!
1I!
1Q
1O
0G
1E
1D
1<
1'
#490000
0!
0?
0@
#495000
1!
1?
1@
1R
1P
0H
1B!
1C!
1F!
0D
19
1*
#500000
b111 "
b110 "
0!
0A
1o
0?
0@
#505000
1!
1?
1@
1>!
0@!
0C!
1/!
1n
1m
0'!
0$!
1F
0E
1D
11!
1z
0q
0y
0%!
0(!
05
10!
1u
0r
0.
12!
17
0v
1,
0w
0z
00!
#510000
0!
0?
0@
#515000
1!
1?
1@
1A!
0B!
1C!
0D
#520000
0!
0?
0@
#525000
1!
1?
1@
0C!
1E
1D
#530000
0!
0?
0@
#535000
1!
1?
1@
1B!
1C!
0D
#540000
0!
0?
0@
#545000
1!
1?
1@
0C!
0F
0E
1D
#550000
0!
0?
0@
#555000
1!
1?
1@
0A!
0B!
1C!
1G
0D
#560000
0!
0?
0@
#565000
1!
1?
1@
1H
0C!
1H!
0I!
0Q
1I
0G
1E
1D
0<
1=
1&
0'
#570000
0!
0?
0@
#575000
1!
1?
1@
0R
1J
0H
1B!
1C!
1<!
0F!
1E!
0D
1:
09
0*
1)
02!
07
0,
#580000
0!
0?
0@
#585000
1!
1?
1@
0C!
1F
0E
1D
#590000
0!
0?
0@
#595000
1!
1?
1@
1A!
0B!
1C!
0D
#600000
0!
0?
0@
#605000
1!
1?
1@
0C!
1E
1D
#610000
0!
0?
0@
#615000
1!
1?
1@
1B!
1C!
0D
#620000
0!
0?
0@
#625000
b111 "
1!
1A
1?
1@
0C!
0F
0E
1D
#630000
0!
0?
0@
#635000
1!
1?
1@
0A!
0B!
1C!
1G
0D
#640000
0!
0?
0@
#645000
1!
1?
1@
1H
0C!
1K
0I
0G
1E
1D
1I!
1<
1'
#650000
0!
0?
0@
#655000
1!
1?
1@
1L
0J
0H
1B!
1C!
1)!
0&!
0<!
1F!
0D
19
0/!
0,!
1'!
1*
12!
17
01!
1,
1(!
15
1.
02!
07
0,
#660000
0!
0?
0@
#665000
1!
1?
1@
0C!
1F
0E
1D
#670000
0!
0?
0@
#675000
1!
1?
1@
1A!
0B!
1C!
0D
#680000
0!
0?
0@
#685000
1!
1?
1@
0C!
1E
1D
#690000
0!
0?
0@
#695000
1!
1?
1@
1B!
1C!
0D
#700000
0!
0?
0@
#705000
1!
1?
1@
0C!
0F
0E
1D
#710000
0!
0?
0@
#715000
1!
1?
1@
0A!
0B!
1C!
1G
0D
#720000
0!
0?
0@
#725000
1!
1?
1@
1H
0C!
0K
0H!
1M
0G
1E
1D
1>
0=
0&
1%
0I!
0<
0'
#730000
0!
0?
0@
#735000
1!
1?
1@
0L
0H
1B!
1C!
1N
1;
0+!
0)!
1<!
1(
0E!
0F!
0D
09
0:
0-!
0)
0*
0(!
05
0.
0.!
06
0-
#740000
0!
0?
0@
#745000
1!
1?
1@
0C!
1F
0E
1D
#750000
b1111 "
b1011 "
b1001 "
b1000 "
0!
0A
0o
0a
1S
0?
0@
#755000
1!
1?
1@
1A!
0B!
1C!
0D
#760000
0!
0?
0@
#765000
1!
1?
1@
0C!
1E
1D
#770000
0!
0?
0@
#775000
1!
1?
1@
1B!
1C!
0D
#780000
0!
0?
0@
#785000
1!
1?
1@
0C!
0F
0E
1D
#790000
0!
0?
0@
#795000
1!
1?
1@
0A!
0B!
1C!
1G
0D
#800000
0!
0?
0@
#805000
1!
1?
1@
1H
0C!
0O
0M
0G
1E
1D
0>
0%
#810000
0!
0?
0@
#815000
1!
1?
1@
0P
0H
1B!
1C!
0N
0;
1+!
1&!
0<!
0(
0D
1/!
1,!
0'!
1(!
15
11!
1-!
1.
0(!
05
0.
12!
1.!
16
17
1,
1-
#820000
0!
0?
0@
#825000
1!
1?
1@
0C!
1F
0E
1D
#830000
0!
0?
0@
#835000
1!
1?
1@
1A!
0B!
1C!
0D
#840000
0!
0?
0@
#845000
1!
1?
1@
0C!
1E
1D
#850000
0!
0?
0@
#855000
1!
1?
1@
1B!
1C!
0D
#860000
0!
0?
0@
#865000
1!
1?
1@
0C!
0F
0E
1D
#870000
0!
0?
0@
#875000
b1001 "
1!
1A
1?
1@
0A!
0B!
1C!
1G
0D
#880000
0!
0?
0@
#885000
1!
1?
1@
1H
0C!
1I!
1Q
1O
0G
1E
1D
1<
1'
#890000
0!
0?
0@
#895000
1!
1?
1@
1R
1P
0H
1B!
1C!
1F!
0D
19
1*
#900000
0!
0?
0@
#905000
1!
1?
1@
0?!
0>!
1=!
1@!
0C!
0,!
0{
0/!
0n
0m
14!
1`
1_
1'!
1$!
1F
0E
1D
0-!
0|
01!
1q
1y
15!
1l
0h
0c
1%!
1(!
15
1~
1*!
1z
1i
0s
1.
0.!
02!
16!
18
07
06
0j
0-
0,
1+
0k
0l
0u
1r
1v
1x
1w
13!
0z
0x
0!!
10!
03!
1"!
13!
1#!
#910000
0!
0?
0@
#915000
1!
1?
1@
1A!
0B!
1C!
0D
#920000
0!
0?
0@
#925000
1!
1?
1@
0C!
1E
1D
#930000
0!
0?
0@
#935000
1!
1?
1@
1B!
1C!
0D
#940000
0!
0?
0@
#945000
1!
1?
1@
0C!
0F
0E
1D
#950000
0!
0?
0@
#955000
1!
1?
1@
0A!
0B!
1C!
1G
0D
#960000
0!
0?
0@
#965000
1!
1?
1@
1H
0C!
1H!
0I!
0Q
1I
0G
1E
1D
0<
1=
1&
0'
#970000
0!
0?
0@
#975000
1!
1?
1@
0R
1J
0H
1B!
1C!
1<!
0F!
1E!
0D
1:
09
0'!
0*
1)
06!
1.!
16
08
0+
1-
0(!
05
0.
#980000
0!
0?
0@
#985000
1!
1?
1@
0C!
1F
0E
1D
#990000
0!
0?
0@
#995000
1!
1?
1@
1A!
0B!
1C!
0D
