pratica03/simulation/qsim/atv03.msim.vcd
$comment
	File created using the following command:
		vcd file atv03.msim.vcd -direction
$end
$date
	Thu Jun 13 17:58:40 2024
$end
$version
	ModelSim Version 10.5b
$end
$timescale
	1ps
$end

$scope module Arquitetura_vlg_vec_tst $end
$var reg 4 ! A [3:0] $end
$var reg 4 " B [3:0] $end
$var reg 1 # Enable $end
$var reg 1 $ Strobe $end
$var wire 1 % Asig [3] $end
$var wire 1 & Asig [2] $end
$var wire 1 ' Asig [1] $end
$var wire 1 ( Asig [0] $end
$var wire 1 ) Bsig [3] $end
$var wire 1 * Bsig [2] $end
$var wire 1 + Bsig [1] $end
$var wire 1 , Bsig [0] $end
$var wire 1 - Qsig [3] $end
$var wire 1 . Qsig [2] $end
$var wire 1 / Qsig [1] $end
$var wire 1 0 Qsig [0] $end
$var wire 1 1 Rsig [3] $end
$var wire 1 2 Rsig [2] $end
$var wire 1 3 Rsig [1] $end
$var wire 1 4 Rsig [0] $end
$var wire 1 5 ssdAD [6] $end
$var wire 1 6 ssdAD [5] $end
$var wire 1 7 ssdAD [4] $end
$var wire 1 8 ssdAD [3] $end
$var wire 1 9 ssdAD [2] $end
$var wire 1 : ssdAD [1] $end
$var wire 1 ; ssdAD [0] $end
$var wire 1 < ssdAU [6] $end
$var wire 1 = ssdAU [5] $end
$var wire 1 > ssdAU [4] $end
$var wire 1 ? ssdAU [3] $end
$var wire 1 @ ssdAU [2] $end
$var wire 1 A ssdAU [1] $end
$var wire 1 B ssdAU [0] $end
$var wire 1 C ssdBD [6] $end
$var wire 1 D ssdBD [5] $end
$var wire 1 E ssdBD [4] $end
$var wire 1 F ssdBD [3] $end
$var wire 1 G ssdBD [2] $end
$var wire 1 H ssdBD [1] $end
$var wire 1 I ssdBD [0] $end
$var wire 1 J ssdBU [6] $end
$var wire 1 K ssdBU [5] $end
$var wire 1 L ssdBU [4] $end
$var wire 1 M ssdBU [3] $end
$var wire 1 N ssdBU [2] $end
$var wire 1 O ssdBU [1] $end
$var wire 1 P ssdBU [0] $end
$var wire 1 Q ssdQD [6] $end
$var wire 1 R ssdQD [5] $end
$var wire 1 S ssdQD [4] $end
$var wire 1 T ssdQD [3] $end
$var wire 1 U ssdQD [2] $end
$var wire 1 V ssdQD [1] $end
$var wire 1 W ssdQD [0] $end
$var wire 1 X ssdQU [6] $end
$var wire 1 Y ssdQU [5] $end
$var wire 1 Z ssdQU [4] $end
$var wire 1 [ ssdQU [3] $end
$var wire 1 \ ssdQU [2] $end
$var wire 1 ] ssdQU [1] $end
$var wire 1 ^ ssdQU [0] $end
$var wire 1 _ ssdRD [6] $end
$var wire 1 ` ssdRD [5] $end
$var wire 1 a ssdRD [4] $end
$var wire 1 b ssdRD [3] $end
$var wire 1 c ssdRD [2] $end
$var wire 1 d ssdRD [1] $end
$var wire 1 e ssdRD [0] $end
$var wire 1 f ssdRU [6] $end
$var wire 1 g ssdRU [5] $end
$var wire 1 h ssdRU [4] $end
$var wire 1 i ssdRU [3] $end
$var wire 1 j ssdRU [2] $end
$var wire 1 k ssdRU [1] $end
$var wire 1 l ssdRU [0] $end

$scope module i1 $end
$var wire 1 m gnd $end
$var wire 1 n vcc $end
$var wire 1 o unknown $end
$var tri1 1 p devclrn $end
$var tri1 1 q devpor $end
$var tri1 1 r devoe $end
$var wire 1 s ssdQD[0]~output_o $end
$var wire 1 t ssdQD[1]~output_o $end
$var wire 1 u ssdQD[2]~output_o $end
$var wire 1 v ssdQD[3]~output_o $end
$var wire 1 w ssdQD[4]~output_o $end
$var wire 1 x ssdQD[5]~output_o $end
$var wire 1 y ssdQD[6]~output_o $end
$var wire 1 z ssdQU[0]~output_o $end
$var wire 1 { ssdQU[1]~output_o $end
$var wire 1 | ssdQU[2]~output_o $end
$var wire 1 } ssdQU[3]~output_o $end
$var wire 1 ~ ssdQU[4]~output_o $end
$var wire 1 !! ssdQU[5]~output_o $end
$var wire 1 "! ssdQU[6]~output_o $end
$var wire 1 #! ssdRD[0]~output_o $end
$var wire 1 $! ssdRD[1]~output_o $end
$var wire 1 %! ssdRD[2]~output_o $end
$var wire 1 &! ssdRD[3]~output_o $end
$var wire 1 '! ssdRD[4]~output_o $end
$var wire 1 (! ssdRD[5]~output_o $end
$var wire 1 )! ssdRD[6]~output_o $end
$var wire 1 *! ssdRU[0]~output_o $end
$var wire 1 +! ssdRU[1]~output_o $end
$var wire 1 ,! ssdRU[2]~output_o $end
$var wire 1 -! ssdRU[3]~output_o $end
$var wire 1 .! ssdRU[4]~output_o $end
$var wire 1 /! ssdRU[5]~output_o $end
$var wire 1 0! ssdRU[6]~output_o $end
$var wire 1 1! ssdAD[0]~output_o $end
$var wire 1 2! ssdAD[1]~output_o $end
$var wire 1 3! ssdAD[2]~output_o $end
$var wire 1 4! ssdAD[3]~output_o $end
$var wire 1 5! ssdAD[4]~output_o $end
$var wire 1 6! ssdAD[5]~output_o $end
$var wire 1 7! ssdAD[6]~output_o $end
$var wire 1 8! ssdAU[0]~output_o $end
$var wire 1 9! ssdAU[1]~output_o $end
$var wire 1 :! ssdAU[2]~output_o $end
$var wire 1 ;! ssdAU[3]~output_o $end
$var wire 1 <! ssdAU[4]~output_o $end
$var wire 1 =! ssdAU[5]~output_o $end
$var wire 1 >! ssdAU[6]~output_o $end
$var wire 1 ?! ssdBD[0]~output_o $end
$var wire 1 @! ssdBD[1]~output_o $end
$var wire 1 A! ssdBD[2]~output_o $end
$var wire 1 B! ssdBD[3]~output_o $end
$var wire 1 C! ssdBD[4]~output_o $end
$var wire 1 D! ssdBD[5]~output_o $end
$var wire 1 E! ssdBD[6]~output_o $end
$var wire 1 F! ssdBU[0]~output_o $end
$var wire 1 G! ssdBU[1]~output_o $end
$var wire 1 H! ssdBU[2]~output_o $end
$var wire 1 I! ssdBU[3]~output_o $end
$var wire 1 J! ssdBU[4]~output_o $end
$var wire 1 K! ssdBU[5]~output_o $end
$var wire 1 L! ssdBU[6]~output_o $end
$var wire 1 M! Asig[0]~output_o $end
$var wire 1 N! Asig[1]~output_o $end
$var wire 1 O! Asig[2]~output_o $end
$var wire 1 P! Asig[3]~output_o $end
$var wire 1 Q! Bsig[0]~output_o $end
$var wire 1 R! Bsig[1]~output_o $end
$var wire 1 S! Bsig[2]~output_o $end
$var wire 1 T! Bsig[3]~output_o $end
$var wire 1 U! Qsig[0]~output_o $end
$var wire 1 V! Qsig[1]~output_o $end
$var wire 1 W! Qsig[2]~output_o $end
$var wire 1 X! Qsig[3]~output_o $end
$var wire 1 Y! Rsig[0]~output_o $end
$var wire 1 Z! Rsig[1]~output_o $end
$var wire 1 [! Rsig[2]~output_o $end
$var wire 1 \! Rsig[3]~output_o $end
$var wire 1 ]! B[3]~input_o $end
$var wire 1 ^! Enable~input_o $end
$var wire 1 _! ent1|Bo[3]~5_combout $end
$var wire 1 `! B[2]~input_o $end
$var wire 1 a! ent1|Bo[2]~6_combout $end
$var wire 1 b! B[1]~input_o $end
$var wire 1 c! ent1|Bo[1]~7_combout $end
$var wire 1 d! B[0]~input_o $end
$var wire 1 e! ent1|Bo[0]~4_combout $end
$var wire 1 f! A[3]~input_o $end
$var wire 1 g! ent1|Ao[3]~4_combout $end
$var wire 1 h! div1|s1|Add0~1 $end
$var wire 1 i! div1|s1|Add0~3 $end
$var wire 1 j! div1|s1|Add0~5 $end
$var wire 1 k! div1|s1|Add0~7_cout $end
$var wire 1 l! div1|s1|Add0~8_combout $end
$var wire 1 m! div1|s1|Add0~4_combout $end
$var wire 1 n! div1|m1|out[2]~2_combout $end
$var wire 1 o! div1|s1|Add0~2_combout $end
$var wire 1 p! div1|m1|out[1]~3_combout $end
$var wire 1 q! div1|s1|Add0~0_combout $end
$var wire 1 r! div1|m1|out[0]~4_combout $end
$var wire 1 s! A[2]~input_o $end
$var wire 1 t! ent1|Ao[2]~5_combout $end
$var wire 1 u! div1|s2|Add0~1 $end
$var wire 1 v! div1|s2|Add0~3 $end
$var wire 1 w! div1|s2|Add0~5 $end
$var wire 1 x! div1|s2|Add0~7_cout $end
$var wire 1 y! div1|s2|Add0~8_combout $end
$var wire 1 z! div1|s2|Add0~4_combout $end
$var wire 1 {! div1|m2|out[2]~6_combout $end
$var wire 1 |! div1|s2|Add0~2_combout $end
$var wire 1 }! div1|m2|out[1]~4_combout $end
$var wire 1 ~! div1|s2|Add0~0_combout $end
$var wire 1 !" div1|m2|out[0]~5_combout $end
$var wire 1 "" A[1]~input_o $end
$var wire 1 #" ent1|Ao[1]~6_combout $end
$var wire 1 $" div1|s3|Add0~1 $end
$var wire 1 %" div1|s3|Add0~3 $end
$var wire 1 &" div1|s3|Add0~5 $end
$var wire 1 '" div1|s3|Add0~7_cout $end
$var wire 1 (" div1|s3|Add0~8_combout $end
$var wire 1 )" sai1|ssdQ|Div0|auto_generated|divider|divider|add_sub_3_result_int[1]~1_cout $end
$var wire 1 *" sai1|ssdQ|Div0|auto_generated|divider|divider|add_sub_3_result_int[2]~3_cout $end
$var wire 1 +" sai1|ssdQ|Div0|auto_generated|divider|divider|add_sub_3_result_int[3]~5_cout $end
$var wire 1 ," sai1|ssdQ|Div0|auto_generated|divider|divider|add_sub_3_result_int[4]~6_combout $end
$var wire 1 -" Strobe~input_o $end
$var wire 1 ." sai1|ssdQ|Mod0|auto_generated|divider|divider|add_sub_3_result_int[1]~3_cout $end
$var wire 1 /" sai1|ssdQ|Mod0|auto_generated|divider|divider|add_sub_3_result_int[2]~4_combout $end
$var wire 1 0" sai1|ssdQ|Mod0|auto_generated|divider|divider|add_sub_3_result_int[2]~5 $end
$var wire 1 1" sai1|ssdQ|Mod0|auto_generated|divider|divider|add_sub_3_result_int[3]~7 $end
$var wire 1 2" sai1|ssdQ|Mod0|auto_generated|divider|divider|add_sub_3_result_int[4]~8_combout $end
$var wire 1 3" sai1|ssdQ|Mod0|auto_generated|divider|divider|StageOut[14]~2_combout $end
$var wire 1 4" sai1|ssdQ|Mod0|auto_generated|divider|divider|add_sub_3_result_int[3]~6_combout $end
$var wire 1 5" sai1|ssdQ|Mod0|auto_generated|divider|divider|StageOut[15]~3_combout $end
$var wire 1 6" div1|s3|Add0~4_combout $end
$var wire 1 7" div1|m3|out[2]~2_combout $end
$var wire 1 8" div1|s3|Add0~2_combout $end
$var wire 1 9" div1|m3|out[1]~3_combout $end
$var wire 1 :" div1|s3|Add0~0_combout $end
$var wire 1 ;" div1|m3|out[0]~4_combout $end
$var wire 1 <" A[0]~input_o $end
$var wire 1 =" ent1|Ao[0]~7_combout $end
$var wire 1 >" div1|s4|Add0~1 $end
$var wire 1 ?" div1|s4|Add0~3 $end
$var wire 1 @" div1|s4|Add0~5 $end
$var wire 1 A" div1|s4|Add0~7 $end
$var wire 1 B" div1|s4|Add0~8_combout $end
$var wire 1 C" sai1|ssdQ|Mod0|auto_generated|divider|divider|add_sub_3_result_int[0]~0_combout $end
$var wire 1 D" sai1|ssdQ|Mod0|auto_generated|divider|divider|StageOut[12]~0_combout $end
$var wire 1 E" sai1|ssdQ|Mod0|auto_generated|divider|divider|StageOut[13]~1_combout $end
$var wire 1 F" sai1|ssdQ|seven_seg~70_combout $end
$var wire 1 G" sai1|ssdQ|seven_seg~71_combout $end
$var wire 1 H" sai1|ssdQ|seven_seg~72_combout $end
$var wire 1 I" sai1|ssdQ|seven_seg~73_combout $end
$var wire 1 J" sai1|ssdQ|seven_seg~74_combout $end
$var wire 1 K" sai1|ssdQ|seven_seg~75_combout $end
$var wire 1 L" sai1|ssdQ|seven_seg~76_combout $end
$var wire 1 M" div1|s4|Add0~6_combout $end
$var wire 1 N" div1|m4|out[3]~4_combout $end
$var wire 1 O" div1|s4|Add0~4_combout $end
$var wire 1 P" div1|m4|out[2]~3_combout $end
$var wire 1 Q" div1|s4|Add0~2_combout $end
$var wire 1 R" div1|m4|out[1]~2_combout $end
$var wire 1 S" sai1|ssdR|Div0|auto_generated|divider|divider|add_sub_3_result_int[1]~1_cout $end
$var wire 1 T" sai1|ssdR|Div0|auto_generated|divider|divider|add_sub_3_result_int[2]~3_cout $end
$var wire 1 U" sai1|ssdR|Div0|auto_generated|divider|divider|add_sub_3_result_int[3]~5_cout $end
$var wire 1 V" sai1|ssdR|Div0|auto_generated|divider|divider|add_sub_3_result_int[4]~6_combout $end
$var wire 1 W" div1|s4|Add0~0_combout $end
$var wire 1 X" div1|m4|out[0]~5_combout $end
$var wire 1 Y" sai1|ssdR|Mod0|auto_generated|divider|divider|add_sub_3_result_int[1]~1 $end
$var wire 1 Z" sai1|ssdR|Mod0|auto_generated|divider|divider|add_sub_3_result_int[2]~3 $end
$var wire 1 [" sai1|ssdR|Mod0|auto_generated|divider|divider|add_sub_3_result_int[3]~5 $end
$var wire 1 \" sai1|ssdR|Mod0|auto_generated|divider|divider|add_sub_3_result_int[4]~6_combout $end
$var wire 1 ]" sai1|ssdR|Mod0|auto_generated|divider|divider|add_sub_3_result_int[3]~4_combout $end
$var wire 1 ^" sai1|ssdR|Mod0|auto_generated|divider|divider|StageOut[15]~2_combout $end
$var wire 1 _" sai1|ssdR|Mod0|auto_generated|divider|divider|add_sub_3_result_int[2]~2_combout $end
$var wire 1 `" sai1|ssdR|Mod0|auto_generated|divider|divider|StageOut[14]~1_combout $end
$var wire 1 a" sai1|ssdR|Mod0|auto_generated|divider|divider|add_sub_3_result_int[1]~0_combout $end
$var wire 1 b" sai1|ssdR|Mod0|auto_generated|divider|divider|StageOut[13]~0_combout $end
$var wire 1 c" sai1|ssdR|seven_seg~70_combout $end
$var wire 1 d" sai1|ssdR|seven_seg~71_combout $end
$var wire 1 e" sai1|ssdR|seven_seg~72_combout $end
$var wire 1 f" sai1|ssdR|seven_seg~73_combout $end
$var wire 1 g" sai1|ssdR|seven_seg~74_combout $end
$var wire 1 h" sai1|ssdR|seven_seg~75_combout $end
$var wire 1 i" sai1|ssdR|seven_seg~76_combout $end
$var wire 1 j" sai1|ssdA|Div0|auto_generated|divider|divider|add_sub_3_result_int[1]~1_cout $end
$var wire 1 k" sai1|ssdA|Div0|auto_generated|divider|divider|add_sub_3_result_int[2]~3_cout $end
$var wire 1 l" sai1|ssdA|Div0|auto_generated|divider|divider|add_sub_3_result_int[3]~5_cout $end
$var wire 1 m" sai1|ssdA|Div0|auto_generated|divider|divider|add_sub_3_result_int[4]~6_combout $end
$var wire 1 n" sai1|ssdA|Mod0|auto_generated|divider|divider|add_sub_3_result_int[1]~1 $end
$var wire 1 o" sai1|ssdA|Mod0|auto_generated|divider|divider|add_sub_3_result_int[2]~3 $end
$var wire 1 p" sai1|ssdA|Mod0|auto_generated|divider|divider|add_sub_3_result_int[3]~5 $end
$var wire 1 q" sai1|ssdA|Mod0|auto_generated|divider|divider|add_sub_3_result_int[4]~6_combout $end
$var wire 1 r" sai1|ssdA|Mod0|auto_generated|divider|divider|add_sub_3_result_int[3]~4_combout $end
$var wire 1 s" sai1|ssdA|Mod0|auto_generated|divider|divider|StageOut[15]~8_combout $end
$var wire 1 t" sai1|ssdA|Mod0|auto_generated|divider|divider|add_sub_3_result_int[2]~2_combout $end
$var wire 1 u" sai1|ssdA|Mod0|auto_generated|divider|divider|StageOut[14]~7_combout $end
$var wire 1 v" sai1|ssdA|Mod0|auto_generated|divider|divider|add_sub_3_result_int[1]~0_combout $end
$var wire 1 w" sai1|ssdA|Mod0|auto_generated|divider|divider|StageOut[13]~6_combout $end
$var wire 1 x" sai1|ssdA|seven_seg~70_combout $end
$var wire 1 y" sai1|ssdA|seven_seg~71_combout $end
$var wire 1 z" sai1|ssdA|seven_seg~72_combout $end
$var wire 1 {" sai1|ssdA|seven_seg~73_combout $end
$var wire 1 |" sai1|ssdA|seven_seg~74_combout $end
$var wire 1 }" sai1|ssdA|seven_seg~75_combout $end
$var wire 1 ~" sai1|ssdA|seven_seg~76_combout $end
$var wire 1 !# sai1|ssdB|Div0|auto_generated|divider|divider|add_sub_3_result_int[1]~1_cout $end
$var wire 1 "# sai1|ssdB|Div0|auto_generated|divider|divider|add_sub_3_result_int[2]~3_cout $end
$var wire 1 ## sai1|ssdB|Div0|auto_generated|divider|divider|add_sub_3_result_int[3]~5_cout $end
$var wire 1 $# sai1|ssdB|Div0|auto_generated|divider|divider|add_sub_3_result_int[4]~6_combout $end
$var wire 1 %# sai1|ssdB|Mod0|auto_generated|divider|divider|add_sub_3_result_int[1]~0_combout $end
$var wire 1 &# sai1|ssdB|Mod0|auto_generated|divider|divider|add_sub_3_result_int[1]~1 $end
$var wire 1 '# sai1|ssdB|Mod0|auto_generated|divider|divider|add_sub_3_result_int[2]~3 $end
$var wire 1 (# sai1|ssdB|Mod0|auto_generated|divider|divider|add_sub_3_result_int[3]~5 $end
$var wire 1 )# sai1|ssdB|Mod0|auto_generated|divider|divider|add_sub_3_result_int[4]~6_combout $end
$var wire 1 *# sai1|ssdB|Mod0|auto_generated|divider|divider|StageOut[13]~6_combout $end
$var wire 1 +# sai1|ssdB|Mod0|auto_generated|divider|divider|add_sub_3_result_int[3]~4_combout $end
$var wire 1 ,# sai1|ssdB|Mod0|auto_generated|divider|divider|StageOut[15]~8_combout $end
$var wire 1 -# sai1|ssdB|Mod0|auto_generated|divider|divider|add_sub_3_result_int[2]~2_combout $end
$var wire 1 .# sai1|ssdB|Mod0|auto_generated|divider|divider|StageOut[14]~7_combout $end
$var wire 1 /# sai1|ssdB|seven_seg~70_combout $end
$var wire 1 0# sai1|ssdB|seven_seg~71_combout $end
$var wire 1 1# sai1|ssdB|seven_seg~72_combout $end
$var wire 1 2# sai1|ssdB|seven_seg~73_combout $end
$var wire 1 3# sai1|ssdB|seven_seg~74_combout $end
$var wire 1 4# sai1|ssdB|seven_seg~75_combout $end
$var wire 1 5# sai1|ssdB|seven_seg~76_combout $end
$upscope $end
$upscope $end
$enddefinitions $end
#0
$dumpvars
b0 !
b0 "
0#
0$
x(
x'
x&
x%
x,
x+
x*
x)
x0
x/
x.
x-
x4
x3
x2
x1
x;
z:
z9
x8
x7
x6
x5
xB
xA
x@
x?
x>
x=
x<
xI
zH
zG
xF
xE
xD
xC
xP
xO
xN
xM
xL
xK
xJ
xW
zV
zU
xT
xS
xR
xQ
x^
x]
x\
x[
xZ
xY
xX
xe
zd
zc
xb
xa
x`
x_
xl
xk
xj
xi
xh
xg
xf
0m
1n
xo
1p
1q
1r
xs
zt
zu
xv
xw
xx
xy
xz
x{
x|
x}
x~
x!!
x"!
x#!
z$!
z%!
x&!
x'!
x(!
x)!
x*!
x+!
x,!
x-!
x.!
x/!
x0!
x1!
z2!
z3!
x4!
x5!
x6!
x7!
x8!
x9!
x:!
x;!
x<!
x=!
x>!
x?!
z@!
zA!
xB!
xC!
xD!
xE!
xF!
xG!
xH!
xI!
xJ!
xK!
xL!
xM!
xN!
xO!
xP!
xQ!
xR!
xS!
xT!
xU!
xV!
xW!
xX!
xY!
xZ!
x[!
x\!
0]!
0^!
x_!
0`!
xa!
0b!
xc!
0d!
xe!
0f!
xg!
xh!
xi!
xj!
xk!
xl!
xm!
xn!
xo!
xp!
xq!
xr!
0s!
xt!
xu!
xv!
xw!
xx!
xy!
xz!
x{!
x|!
x}!
x~!
x!"
0""
x#"
x$"
x%"
x&"
x'"
x("
x)"
x*"
x+"
x,"
0-"
x."
x/"
x0"
x1"
x2"
x3"
x4"
x5"
x6"
x7"
x8"
x9"
x:"
x;"
0<"
x="
x>"
x?"
x@"
xA"
xB"
xC"
xD"
xE"
xF"
xG"
xH"
xI"
xJ"
xK"
xL"
xM"
xN"
xO"
xP"
xQ"
xR"
xS"
xT"
xU"
xV"
xW"
xX"
xY"
xZ"
x["
x\"
x]"
x^"
x_"
x`"
xa"
xb"
xc"
xd"
xe"
xf"
xg"
xh"
xi"
xj"
xk"
xl"
xm"
xn"
xo"
xp"
xq"
xr"
xs"
xt"
xu"
xv"
xw"
xx"
xy"
xz"
x{"
x|"
x}"
x~"
x!#
x"#
x##
x$#
x%#
x&#
x'#
x(#
x)#
x*#
x+#
x,#
x-#
x.#
x/#
x0#
x1#
x2#
x3#
x4#
x5#
$end
#2763
zS!
z*
#2773
z#!
z0!
zf
ze
#2783
z-!
z.!
zP!
z%
zh
zi
#2838
zv
zH!
zN
zT
#2848
z8!
zF!
zI!
zJ!
zL!
zJ
zL
zM
zP
zB
#2858
z9!
z>!
z?!
zG!
zO
zI
z<
zA
#2868
z,!
z1!
z6!
z<!
z=!
z=
z>
z6
z;
zj
#2875
zs
z}
z~
z&!
z'!
za
zb
zZ
z[
zW
#2885
zz
z{
z|
z!!
zT!
z)
zY
z\
z]
z^
#2888
zw
zx
zC!
zE
zR
zS
#2895
z"!
zX
#2898
z*!
z5!
zD!
zD
z7
zl
#2905
zQ!
z,
#2908
z4!
zB!
zF
z8
#2915
zN!
z'
#2918
z:!
z@
#2925
zM!
zO!
z&
z(
#2928
z;!
z?
#2935
zR!
z+
#4201
z(!
z/!
zg
z`
#4265
1a!
#4270
1c!
#4271
1_!
#4272
zK!
zK
#4282
z+!
zk
#4676
1="
#4686
1#"
#4687
1g!
#4811
1e!
#4900
0'#
#4956
0%#
#4966
1(#
#5040
1&#
#5058
1t!
#5091
0z"
#5360
0"#
#5412
0+#
#5426
1##
#5478
0)#
#5496
1!#
#5576
1-#
#5621
1h!
#5651
1>"
#5699
0k"
#5700
0o"
#5755
1k!
#5765
1l"
#5766
1p"
#5894
1i!
#5905
0v"
#5913
0j!
#5929
1$"
#5938
0$#
#5989
1n"
#5990
1j"
#6070
1.#
#6157
1o!
#6167
0*#
#6201
1u!
x{
x]
#6203
xz
x^
#6212
0r"
#6236
0,#
#6277
0m"
#6278
0q"
#6291
1l!
#6406
0m!
#6463
01#
#6525
1t"
#6607
03!
09
#6653
x8!
xB
#6807
0n!
#6814
1r!
#6832
0q!
#6876
0:"
#6878
0~!
#6888
0W"
#7034
0t
0V
#7101
0/#
#7119
x6!
x>!
x<
x6
#7127
0@!
0H
#7130
x<!
x=!
x=
x>
#7173
xC!
xJ!
xL
xE
#7247
x#!
xe
#7368
xw
xx
xR
xS
#7443
0w"
#7446
0$!
0d
#7447
0s"
#7465
1y
1Q
#7473
x&!
xb
#7508
0%!
0c
#7512
xF!
xI!
xM
xP
#7529
04#
#7542
x1!
x;
#7545
xs
xW
#7551
02#
#7555
05#
#7574
10#
#7585
xD!
xD
#7598
x9!
xA
#7608
0A!
0G
#7611
13#
#7614
xB!
xF
#7682
17!
15
#7702
1u"
#7733
1E!
1C
#7776
xv
xT
#7821
0v!
#7843
x"!
xX
#7851
x4!
x5!
x7
x8
#7852
x.!
xh
#7882
0|!
#7884
x;!
x?!
xL!
xJ
xI
x?
#7952
1x!
#8061
0p!
#8131
xG!
xH!
xN
xO
#8199
x!!
x'!
xa
xY
#8210
x|
x}
x[
x\
#8239
1|"
#8248
x-!
xi
#8256
x~
xZ
#8327
0+"
#8393
1y"
#8394
0x"
#8398
0{"
#8402
0}"
#8426
0~"
#8452
x*!
xl
#8488
1y!
#8498
0u
0U
#8520
02!
0:
#8548
x0!
xf
#8575
01"
#8631
xK!
xK
#8706
0w!
#8736
1z!
#8819
x,!
xj
#8824
1)!
1_
#8863
1,"
#8888
1}!
#9111
12"
#9186
1!"
#9196
0{!
#9257
x(!
x`
#9671
x/!
xg
#9792
x+!
xk
#9801
05"
#9804
0%"
#9866
08"
#9870
1&"
#9980
1'"
#10000
1#
#10316
06"
#10516
1("
#10615
0:!
0@
#10650
1^!
#10742
03"
#10782
11!
1;
#10799
16!
16
#11019
0F!
0P
#11061
17"
#11062
19"
#11070
1?!
1I
#11294
15!
17
#11304
14!
18
#11468
0I!
0M
#11472
0G"
#11569
1C!
1E
#11576
1D!
1D
#11603
0H!
0N
#11654
0X!
0-
#11741
1;"
#11922
1B!
1F
#12177
19!
1A
#12195
0L!
0J
#12341
08!
0B
#12438
1<!
1>
#12572
0?"
#12580
0."
0)"
#12626
0=!
0=
#12632
0E"
#12633
0Q"
#12638
1@"
#12646
10"
1*"
#12651
0W!
0.
#12704
0A"
#12829
1J!
1L
#12854
1G!
1O
#13067
0H"
#13082
1L"
#13084
0O"
#13105
0;!
0?
#13116
1/"
#13150
0M"
#13157
0v
0T
#13158
04"
#13216
0B"
#13241
0w
0x
0R
0S
#13340
0s
0W
#13514
0>!
0<
#13797
0R"
#13798
0P"
#13955
0N"
#13987
0X"
#14056
0K!
0K
#14477
0Y"
#14523
1a"
#14543
1Z"
#14597
0a!
#14601
0c!
#14602
0_!
#14638
0["
#14683
0{
0]
#14827
0!"
#14845
0S"
#14911
1T"
#15000
0U"
#15013
1_"
1C"
#15026
0="
#15030
0;"
#15033
0#"
#15034
0g!
#15036
0V!
0/
#15055
0]"
#15095
0r!
#15157
0e!
#15174
1\"
#15209
09"
#15269
0&#
#15270
0(#
#15292
1D"
#15315
1%#
#15316
1+#
#15335
1'#
#15451
0t!
#15484
0y"
#15499
1{"
#15501
1x"
#15534
18"
#15536
1V"
#15573
0^"
#15620
1%"
#15683
0!#
#15686
0&"
#15729
0##
#15749
1"#
#15806
1)#
#15828
1K"
#15829
1I"
#15833
1J"
#15835
1F"
#15847
0+#
#15853
0h!
#15856
0p"
#15858
0l"
#15865
0>"
#15869
0`"
#15871
0b"
#15883
1q!
#15895
1W"
#15902
1r"
#15931
1?"
#15974
1*#
#15999
0}!
#16144
0$"
#16174
1:"
#16198
0n"
#16199
0j"
#16244
1v"
#16264
1o"
#16265
1k"
1$#
#16280
1m!
#16296
0z!
#16306
1M"
#16345
0@"
#16365
1w!
#16377
1O"
#16386
07"
#16392
1q"
#16394
1m"
#16401
1Q"
#16431
0x!
#16439
0u!
#16469
1~!
#16482
0*#
#16503
0.#
#16505
1v!
#16539
0S!
0*
#16556
1X"
#16571
0w!
#16611
0|
0\
#16620
0M!
0N!
0'
0(
#16634
0R!
0+
#16637
1x!
#16667
1N"
#16689
16"
#16763
1R"
#16776
0r"
#16847
00#
#16853
1/#
#16854
12#
#16857
0M"
#16859
1s"
#16975
1|!
#17035
1P"
#17041
1z!
#17061
1^"
#17078
1w"
#17175
1"!
1X
#17194
0q!
#17223
0O!
0Q!
0,
0&
#17225
0N"
#17226
0:"
#17228
0~!
#17229
0W"
#17263
1h!
#17272
1M"
#17289
0[!
02
1b"
#17295
1$"
#17297
1u!
#17298
1>"
#17329
0i!
#17346
1U!
10
#17358
1A"
1]"
0u"
#17361
0%"
#17363
0v!
#17364
0?"
#17395
1j!
#17427
1&"
#17429
1w!
1`"
#17430
1@"
#17458
0a"
#17461
0k!
#17476
0P!
0%
#17493
0'"
#17495
0x!
#17496
0A"
#17511
0Z!
03
#17529
03#
#17530
0/#
#17531
02#
#17542
1Y"
0w"
#17545
15#
#17547
0s"
#17580
0T!
0)
#17583
0|"
#17584
0x"
#17587
0{"
#17631
0^"
#17633
1N"
#17648
0\!
01
#17674
0Z"
#17775
0o!
#17807
08"
#17809
0|!
#17810
0Q"
#17841
0m!
#17873
06"
#17875
0z!
#17876
0O"
#17897
0X"
#17942
0M"
#17959
1S"
#17973
0l!
#18005
0("
#18007
0y!
#18027
1^"
#18096
0T"
#18180
0R"
#18310
0N"
#18322
1~"
#18331
0]"
#18415
1["
#18583
0P"
#18716
0^"
#18736
0b"
#18860
0Y"
#18906
1a"
#18927
0\"
#18989
0`"
#18993
0["
#19039
1]"
#19175
09!
0A
#19228
0S"
#19396
1Z"
#19397
1}
1[
#19406
1~
1Z
#19414
1z
1^
#19437
1!!
1Y
#19529
1\"
#19531
1^"
#19666
1`"
#19669
1b"
#19761
1T"
#19908
0]"
#20001
0*"
#20067
1+"
#20086
15"
#20108
1E"
#20198
1)"
#20200
1."
#20214
0^"
#20217
00"
#20224
0`"
#20225
13"
#20226
0b"
#20283
11"
#20499
0I"
0L"
#20502
0F"
#20579
0,"
#20642
0'!
0a
#20790
0K"
#20795
02"
#20816
0J"
#20929
01!
0;
#20943
06!
06
#21199
0E"
#21397
05!
07
#21407
04!
08
#21529
05"
#21547
0?!
0I
#21624
0&!
0b
#21740
0<!
0>
#21987
0G!
0O
#22056
1W!
1.
#22072
0C!
0E
#22081
0D!
0D
#22144
0#!
0e
#22232
1L!
0(!
0`
1J
#22301
1G"
#22321
1J"
#22419
0B!
0F
#22479
1V!
1/
#22598
0e"
#22668
0J!
0L
#22953
0d"
#22982
0h"
#23048
0f"
0g"
#23049
0c"
#23350
1X!
1-
#23456
1i"
#23494
1>!
1<
#24025
0}
0[
#24033
0z
0^
#24358
0!!
0Y
#24508
0"!
0X
#24783
1v
1T
#24876
1w
1x
1R
1S
#24981
1s
1W
#24992
0Y!
04
#25553
1{
1]
#26368
0-!
0i
#26680
0.!
0h
#27571
10!
1f
#28656
0/!
0g
#28926
0,!
0j
#29601
0+!
0k
#29934
0*!
0l
#250000
b10 !
b1 "
#250690
1d!
#250700
1""
#254638
1e!
#254880
1w"
#254891
1#"
#255410
0~"
#255416
1}"
#255418
1z"
#256027
1:"
#256110
0v"
#256194
1n"
#256195
1j"
#256260
0o"
#256261
0k"
#256296
13#
14#
#256297
1/#
12#
#256598
0h!
#256636
1q!
#256644
0u!
#256654
0>"
#256664
1i!
#256682
1~!
#256692
1W"
#256703
0:"
#256706
0t"
#256710
1v!
#256720
1?"
#256729
1N!
1'
#256730
0j!
#256776
0w!
#256786
0@"
#256796
1k!
1r"
#256842
1x!
#256852
1A"
#257134
1o!
#257180
1|!
#257190
1Q"
#257200
1m!
#257246
1z!
#257256
1O"
#257322
1M"
#257332
1l!
#257341
1!"
#257353
1X"
#257378
1y!
#257386
1Q!
1,
#257388
1B"
#257457
1r!
#257552
1R"
#257695
1p!
#257738
1{!
#257849
0r!
#257922
0R"
#258010
18"
#258063
0!"
#258078
1b"
#258106
0X"
#258358
0z!
#258442
1w!
